Suite/Test/Step Name,Browser,Description,Start time,End time,Duration,Status
Timesheet,Chrome 67.0.3396.99,,2018-07-10 08:02:33,2018-07-10 08:03:53,1m - 20.168s,ERROR
,,,,,,
Test Cases/Login to Navision,Chrome 67.0.3396.99,,2018-07-10 08:02:33,2018-07-10 08:03:11,37.229s,PASSED
openBrowser,Chrome 67.0.3396.99,,2018-07-10 08:02:34,2018-07-10 08:03:06,32.432s,PASSED
waitForElementPresent,Chrome 67.0.3396.99,,2018-07-10 08:03:06,2018-07-10 08:03:07,0.085s,PASSED
navigateToUrl,Chrome 67.0.3396.99,,2018-07-10 08:03:07,2018-07-10 08:03:07,0.291s,PASSED
waitForElementPresent,Chrome 67.0.3396.99,,2018-07-10 08:03:07,2018-07-10 08:03:07,0.023s,PASSED
maximizeWindow,Chrome 67.0.3396.99,,2018-07-10 08:03:07,2018-07-10 08:03:08,1.138s,PASSED
click,Chrome 67.0.3396.99,,2018-07-10 08:03:08,2018-07-10 08:03:08,0.089s,PASSED
click,Chrome 67.0.3396.99,,2018-07-10 08:03:08,2018-07-10 08:03:09,0.594s,PASSED
waitForElementPresent,Chrome 67.0.3396.99,,2018-07-10 08:03:09,2018-07-10 08:03:09,0.537s,PASSED
switchToFrame,Chrome 67.0.3396.99,,2018-07-10 08:03:09,2018-07-10 08:03:09,0.058s,PASSED
Statement - driver = com.kms.katalon.core.webui.driver.DriverFactory.getWebDriver(),Chrome 67.0.3396.99,To locate table,2018-07-10 08:03:09,2018-07-10 08:03:09,0.008s,PASSED
"Statement - Table = driver.findElement(org.openqa.selenium.By.xpath(""//table[(@summary = 'Time Sheet')]//tbody""))",Chrome 67.0.3396.99,,2018-07-10 08:03:09,2018-07-10 08:03:09,0.043s,PASSED
"Statement - rows_table = Table.findElements(org.openqa.selenium.By.tagName(""tr""))",Chrome 67.0.3396.99,To locate rows of table it will Capture all the rows available in the table,2018-07-10 08:03:09,2018-07-10 08:03:09,0.025s,PASSED
Statement - rows_count = rows_table.size() - 1,Chrome 67.0.3396.99,To calculate no of rows In table,2018-07-10 08:03:09,2018-07-10 08:03:09,0.003s,PASSED
"Statement - println(""No. of rows: "" + rows_count)",Chrome 67.0.3396.99,,2018-07-10 08:03:09,2018-07-10 08:03:09,0.003s,PASSED
Statement - workday_time = <not implemented yet for class: org.codehaus.groovy.ast.expr.EmptyExpression>,Chrome 67.0.3396.99,,2018-07-10 08:03:09,2018-07-10 08:03:09,0.001s,PASSED
Statement - workday_time = [],Chrome 67.0.3396.99,,2018-07-10 08:03:09,2018-07-10 08:03:09,0.001s,PASSED
"Statement - For ([i = 0, i < rows_count, (i++)])",Chrome 67.0.3396.99,Loop will execute for all the rows of the table,2018-07-10 08:03:09,2018-07-10 08:03:10,0.540s,PASSED
Statement - arrayLength = workday_time.size(),Chrome 67.0.3396.99,,2018-07-10 08:03:10,2018-07-10 08:03:10,0.002s,PASSED
Statement - arrayLength = arrayLength,Chrome 67.0.3396.99,,2018-07-10 08:03:10,2018-07-10 08:03:10,0.011s,PASSED
Statement - workday_time = workday_time,Chrome 67.0.3396.99,,2018-07-10 08:03:10,2018-07-10 08:03:10,0.001s,PASSED
Statement - println(workday_time),Chrome 67.0.3396.99,,2018-07-10 08:03:10,2018-07-10 08:03:10,0.001s,PASSED
Statement - println(arrayLength),Chrome 67.0.3396.99,,2018-07-10 08:03:10,2018-07-10 08:03:10,0.001s,PASSED
closeBrowser,Chrome 67.0.3396.99,,2018-07-10 08:03:10,2018-07-10 08:03:11,0.744s,PASSED
,,,,,,
Test Cases/Login in to workday,Chrome 67.0.3396.99,,2018-07-10 08:03:11,2018-07-10 08:03:52,41.772s,ERROR
openBrowser,Chrome 67.0.3396.99,,2018-07-10 08:03:11,2018-07-10 08:03:38,26.835s,PASSED
navigateToUrl,Chrome 67.0.3396.99,,2018-07-10 08:03:38,2018-07-10 08:03:39,1.155s,PASSED
setText,Chrome 67.0.3396.99,,2018-07-10 08:03:39,2018-07-10 08:03:41,2.405s,PASSED
setText,Chrome 67.0.3396.99,,2018-07-10 08:03:41,2018-07-10 08:03:42,0.127s,PASSED
click,Chrome 67.0.3396.99,,2018-07-10 08:03:42,2018-07-10 08:03:42,0.098s,PASSED
click,Chrome 67.0.3396.99,,2018-07-10 08:03:42,2018-07-10 08:03:47,4.868s,PASSED
maximizeWindow,Chrome 67.0.3396.99,,2018-07-10 08:03:47,2018-07-10 08:03:48,1.129s,PASSED
click,Chrome 67.0.3396.99,,2018-07-10 08:03:48,2018-07-10 08:03:48,0.602s,PASSED
click,Chrome 67.0.3396.99,,2018-07-10 08:03:48,2018-07-10 08:03:49,1.105s,PASSED
click,Chrome 67.0.3396.99,,2018-07-10 08:03:49,2018-07-10 08:03:51,1.130s,PASSED
click,Chrome 67.0.3396.99,,2018-07-10 08:03:51,2018-07-10 08:03:51,0.127s,PASSED
waitForElementVisible,Chrome 67.0.3396.99,,2018-07-10 08:03:51,2018-07-10 08:03:51,0.062s,PASSED
click,Chrome 67.0.3396.99,,2018-07-10 08:03:51,2018-07-10 08:03:51,0.063s,PASSED
waitForElementVisible,Chrome 67.0.3396.99,,2018-07-10 08:03:51,2018-07-10 08:03:51,0.029s,PASSED
sendKeys,Chrome 67.0.3396.99,,2018-07-10 08:03:51,2018-07-10 08:03:51,0.065s,PASSED
waitForElementVisible,Chrome 67.0.3396.99,,2018-07-10 08:03:51,2018-07-10 08:03:52,1.157s,PASSED
Statement - driver = com.kms.katalon.core.webui.driver.DriverFactory.getWebDriver(),Chrome 67.0.3396.99,,2018-07-10 08:03:52,2018-07-10 08:03:52,0.001s,PASSED
"Statement - Table = driver.findElement(org.openqa.selenium.By.xpath(""//table[@class='mainTable']""))",Chrome 67.0.3396.99,,2018-07-10 08:03:52,2018-07-10 08:03:52,0.018s,PASSED
"Statement - rows_table = Table.findElements(org.openqa.selenium.By.tagName(""tr""))",Chrome 67.0.3396.99,,2018-07-10 08:03:52,2018-07-10 08:03:52,0.016s,PASSED
Statement - println(arrayLength),Chrome 67.0.3396.99,,2018-07-10 08:03:52,2018-07-10 08:03:52,0.000s,PASSED
Statement - println(workday_time),Chrome 67.0.3396.99,,2018-07-10 08:03:52,2018-07-10 08:03:52,0.001s,PASSED
"Statement - For ([i = 0, i < arrayLength, (i++)])",Chrome 67.0.3396.99,,2018-07-10 08:03:52,2018-07-10 08:03:52,0.301s,PASSED
