Suite/Test/Step Name,Browser,Description,Start time,End time,Duration,Status
Timesheet,Chrome 67.0.3396.99,,2018-07-11 14:03:26,2018-07-11 14:05:33,2m - 6.785s,ERROR
,,,,,,
Test Cases/Login to Navision,Chrome 67.0.3396.99,,2018-07-11 14:03:27,2018-07-11 14:04:04,37.448s,PASSED
openBrowser,Chrome 67.0.3396.99,,2018-07-11 14:03:27,2018-07-11 14:03:59,31.451s,PASSED
waitForElementPresent,Chrome 67.0.3396.99,,2018-07-11 14:03:59,2018-07-11 14:03:59,0.096s,PASSED
navigateToUrl,Chrome 67.0.3396.99,,2018-07-11 14:03:59,2018-07-11 14:03:59,0.231s,PASSED
waitForElementPresent,Chrome 67.0.3396.99,,2018-07-11 14:03:59,2018-07-11 14:03:59,0.027s,PASSED
maximizeWindow,Chrome 67.0.3396.99,,2018-07-11 14:03:59,2018-07-11 14:04:00,1.133s,PASSED
click,Chrome 67.0.3396.99,,2018-07-11 14:04:00,2018-07-11 14:04:00,0.081s,PASSED
click,Chrome 67.0.3396.99,,2018-07-11 14:04:00,2018-07-11 14:04:01,0.591s,PASSED
waitForElementPresent,Chrome 67.0.3396.99,,2018-07-11 14:04:01,2018-07-11 14:04:02,0.538s,PASSED
switchToFrame,Chrome 67.0.3396.99,,2018-07-11 14:04:02,2018-07-11 14:04:02,0.053s,PASSED
Statement - driver = com.kms.katalon.core.webui.driver.DriverFactory.getWebDriver(),Chrome 67.0.3396.99,To locate table,2018-07-11 14:04:02,2018-07-11 14:04:02,0.007s,PASSED
"Statement - Table = driver.findElement(org.openqa.selenium.By.xpath(""//table[(@summary = 'Time Sheet')]//tbody""))",Chrome 67.0.3396.99,,2018-07-11 14:04:02,2018-07-11 14:04:02,0.039s,PASSED
"Statement - rows_table = Table.findElements(org.openqa.selenium.By.tagName(""tr""))",Chrome 67.0.3396.99,To locate rows of table it will Capture all the rows available in the table,2018-07-11 14:04:02,2018-07-11 14:04:02,0.022s,PASSED
Statement - rows_count = rows_table.size() - 1,Chrome 67.0.3396.99,To calculate no of rows In table,2018-07-11 14:04:02,2018-07-11 14:04:02,0.003s,PASSED
"Statement - println(""No. of rows: "" + rows_count)",Chrome 67.0.3396.99,,2018-07-11 14:04:02,2018-07-11 14:04:02,0.003s,PASSED
Statement - workday_time = <not implemented yet for class: org.codehaus.groovy.ast.expr.EmptyExpression>,Chrome 67.0.3396.99,,2018-07-11 14:04:02,2018-07-11 14:04:02,0.001s,PASSED
Statement - workday_time = [],Chrome 67.0.3396.99,,2018-07-11 14:04:02,2018-07-11 14:04:02,0.001s,PASSED
"Statement - For ([i = 0, i < rows_count, (i++)])",Chrome 67.0.3396.99,Loop will execute for all the rows of the table,2018-07-11 14:04:02,2018-07-11 14:04:04,1.917s,PASSED
Statement - arrayLength = workday_time.size(),Chrome 67.0.3396.99,,2018-07-11 14:04:04,2018-07-11 14:04:04,0.002s,PASSED
Statement - arrayLength = arrayLength,Chrome 67.0.3396.99,,2018-07-11 14:04:04,2018-07-11 14:04:04,0.008s,PASSED
Statement - workday_time = workday_time,Chrome 67.0.3396.99,,2018-07-11 14:04:04,2018-07-11 14:04:04,0.001s,PASSED
Statement - println(workday_time),Chrome 67.0.3396.99,,2018-07-11 14:04:04,2018-07-11 14:04:04,0.000s,PASSED
Statement - println(arrayLength),Chrome 67.0.3396.99,,2018-07-11 14:04:04,2018-07-11 14:04:04,0.000s,PASSED
closeBrowser,Chrome 67.0.3396.99,,2018-07-11 14:04:04,2018-07-11 14:04:04,0.699s,PASSED
,,,,,,
Test Cases/Login in to workday,Chrome 67.0.3396.99,,2018-07-11 14:04:04,2018-07-11 14:05:33,1m - 28.218s,ERROR
openBrowser,Chrome 67.0.3396.99,,2018-07-11 14:04:05,2018-07-11 14:04:32,26.954s,PASSED
navigateToUrl,Chrome 67.0.3396.99,,2018-07-11 14:04:32,2018-07-11 14:04:33,1.143s,PASSED
setText,Chrome 67.0.3396.99,,2018-07-11 14:04:33,2018-07-11 14:04:35,2.348s,PASSED
setText,Chrome 67.0.3396.99,,2018-07-11 14:04:35,2018-07-11 14:04:35,0.133s,PASSED
click,Chrome 67.0.3396.99,,2018-07-11 14:04:35,2018-07-11 14:04:35,0.092s,PASSED
click,Chrome 67.0.3396.99,,2018-07-11 14:04:35,2018-07-11 14:04:40,4.681s,PASSED
maximizeWindow,Chrome 67.0.3396.99,,2018-07-11 14:04:40,2018-07-11 14:04:41,1.142s,PASSED
click,Chrome 67.0.3396.99,,2018-07-11 14:04:41,2018-07-11 14:04:42,0.591s,PASSED
click,Chrome 67.0.3396.99,,2018-07-11 14:04:42,2018-07-11 14:04:43,1.104s,PASSED
click,Chrome 67.0.3396.99,,2018-07-11 14:04:43,2018-07-11 14:04:44,1.126s,PASSED
click,Chrome 67.0.3396.99,,2018-07-11 14:04:44,2018-07-11 14:04:44,0.145s,PASSED
waitForElementPresent,Chrome 67.0.3396.99,,2018-07-11 14:04:44,2018-07-11 14:04:44,0.025s,PASSED
waitForElementPresent,Chrome 67.0.3396.99,,2018-07-11 14:04:44,2018-07-11 14:04:44,0.028s,PASSED
waitForElementPresent,Chrome 67.0.3396.99,,2018-07-11 14:04:44,2018-07-11 14:04:44,0.020s,PASSED
waitForElementPresent,Chrome 67.0.3396.99,,2018-07-11 14:04:44,2018-07-11 14:04:44,0.021s,PASSED
sendKeys,Chrome 67.0.3396.99,,2018-07-11 14:04:44,2018-07-11 14:04:44,0.096s,PASSED
waitForElementVisible,Chrome 67.0.3396.99,,2018-07-11 14:04:44,2018-07-11 14:04:46,1.157s,PASSED
Statement - driver = com.kms.katalon.core.webui.driver.DriverFactory.getWebDriver(),Chrome 67.0.3396.99,,2018-07-11 14:04:46,2018-07-11 14:04:46,0.000s,PASSED
"Statement - Table = driver.findElement(org.openqa.selenium.By.xpath(""//table[@class='mainTable']""))",Chrome 67.0.3396.99,,2018-07-11 14:04:46,2018-07-11 14:04:46,0.026s,PASSED
"Statement - rows_table = Table.findElements(org.openqa.selenium.By.tagName(""tr""))",Chrome 67.0.3396.99,,2018-07-11 14:04:46,2018-07-11 14:04:46,0.016s,PASSED
"Statement - For ([i = 0, i < arrayLength, (i++)])",Chrome 67.0.3396.99,,2018-07-11 14:04:46,2018-07-11 14:04:46,0.112s,PASSED
Statement - timeTypeValue = workday_time[i][0].toString(),Chrome 67.0.3396.99,,2018-07-11 14:04:46,2018-07-11 14:04:46,0.004s,PASSED
Statement - charLength = timeTypeValue.length(),Chrome 67.0.3396.99,,2018-07-11 14:04:46,2018-07-11 14:04:46,0.000s,PASSED
click,Chrome 67.0.3396.99,,2018-07-11 14:04:46,2018-07-11 14:04:46,0.151s,PASSED
"Statement - For ([x = 0, x < charLength, (x++)])",Chrome 67.0.3396.99,,2018-07-11 14:04:46,2018-07-11 14:04:48,2.089s,PASSED
sendKeys,Chrome 67.0.3396.99,,2018-07-11 14:04:48,2018-07-11 14:04:48,0.048s,PASSED
waitForElementPresent,Chrome 67.0.3396.99,,2018-07-11 14:04:48,2018-07-11 14:05:08,20.458s,PASSED
click,Chrome 67.0.3396.99,,2018-07-11 14:05:08,2018-07-11 14:05:09,0.087s,PASSED
sendKeys,Chrome 67.0.3396.99,,2018-07-11 14:05:09,2018-07-11 14:05:09,0.090s,PASSED
click,Chrome 67.0.3396.99,,2018-07-11 14:05:09,2018-07-11 14:05:09,0.083s,PASSED
sendKeys,Chrome 67.0.3396.99,,2018-07-11 14:05:09,2018-07-11 14:05:09,0.092s,PASSED
click,Chrome 67.0.3396.99,,2018-07-11 14:05:09,2018-07-11 14:05:09,0.087s,PASSED
sendKeys,Chrome 67.0.3396.99,,2018-07-11 14:05:09,2018-07-11 14:05:09,0.054s,PASSED
click,Chrome 67.0.3396.99,,2018-07-11 14:05:09,2018-07-11 14:05:09,0.079s,PASSED
sendKeys,Chrome 67.0.3396.99,,2018-07-11 14:05:09,2018-07-11 14:05:09,0.063s,PASSED
click,Chrome 67.0.3396.99,,2018-07-11 14:05:09,2018-07-11 14:05:09,0.085s,PASSED
sendKeys,Chrome 67.0.3396.99,,2018-07-11 14:05:09,2018-07-11 14:05:09,0.204s,PASSED
Statement - timeTypeValue = workday_time[i][0].toString(),Chrome 67.0.3396.99,,2018-07-11 14:05:09,2018-07-11 14:05:09,0.000s,PASSED
Statement - charLength = timeTypeValue.length(),Chrome 67.0.3396.99,,2018-07-11 14:05:09,2018-07-11 14:05:09,0.000s,PASSED
click,Chrome 67.0.3396.99,,2018-07-11 14:05:09,2018-07-11 14:05:09,0.102s,PASSED
"Statement - For ([x = 0, x < charLength, (x++)])",Chrome 67.0.3396.99,,2018-07-11 14:05:09,2018-07-11 14:05:11,1.844s,PASSED
sendKeys,Chrome 67.0.3396.99,,2018-07-11 14:05:11,2018-07-11 14:05:11,0.041s,PASSED
waitForElementPresent,Chrome 67.0.3396.99,,2018-07-11 14:05:11,2018-07-11 14:05:32,20.447s,PASSED
click,Chrome 67.0.3396.99,,2018-07-11 14:05:32,2018-07-11 14:05:32,0.092s,PASSED
sendKeys,Chrome 67.0.3396.99,,2018-07-11 14:05:32,2018-07-11 14:05:32,0.087s,PASSED
click,Chrome 67.0.3396.99,,2018-07-11 14:05:32,2018-07-11 14:05:32,0.081s,PASSED
sendKeys,Chrome 67.0.3396.99,,2018-07-11 14:05:32,2018-07-11 14:05:32,0.061s,PASSED
click,Chrome 67.0.3396.99,,2018-07-11 14:05:32,2018-07-11 14:05:32,0.085s,PASSED
sendKeys,Chrome 67.0.3396.99,,2018-07-11 14:05:32,2018-07-11 14:05:32,0.047s,PASSED
click,Chrome 67.0.3396.99,,2018-07-11 14:05:32,2018-07-11 14:05:32,0.075s,PASSED
sendKeys,Chrome 67.0.3396.99,,2018-07-11 14:05:32,2018-07-11 14:05:32,0.044s,PASSED
click,Chrome 67.0.3396.99,,2018-07-11 14:05:32,2018-07-11 14:05:32,0.067s,PASSED
sendKeys,Chrome 67.0.3396.99,,2018-07-11 14:05:32,2018-07-11 14:05:33,0.051s,PASSED
