Suite/Test/Step Name,Browser,Description,Start time,End time,Duration,Status
Timesheet,Chrome 67.0.3396.99,,2018-07-10 14:00:23,2018-07-10 14:02:03,1m - 39.240s,ERROR
,,,,,,
Test Cases/Login to Navision,Chrome 67.0.3396.99,,2018-07-10 14:00:24,2018-07-10 14:00:59,35.618s,PASSED
openBrowser,Chrome 67.0.3396.99,,2018-07-10 14:00:24,2018-07-10 14:00:55,31.022s,PASSED
waitForElementPresent,Chrome 67.0.3396.99,,2018-07-10 14:00:55,2018-07-10 14:00:55,0.083s,PASSED
navigateToUrl,Chrome 67.0.3396.99,,2018-07-10 14:00:55,2018-07-10 14:00:56,0.213s,PASSED
waitForElementPresent,Chrome 67.0.3396.99,,2018-07-10 14:00:56,2018-07-10 14:00:56,0.023s,PASSED
maximizeWindow,Chrome 67.0.3396.99,,2018-07-10 14:00:56,2018-07-10 14:00:57,1.137s,PASSED
click,Chrome 67.0.3396.99,,2018-07-10 14:00:57,2018-07-10 14:00:57,0.086s,PASSED
click,Chrome 67.0.3396.99,,2018-07-10 14:00:57,2018-07-10 14:00:57,0.588s,PASSED
waitForElementPresent,Chrome 67.0.3396.99,,2018-07-10 14:00:57,2018-07-10 14:00:58,0.536s,PASSED
switchToFrame,Chrome 67.0.3396.99,,2018-07-10 14:00:58,2018-07-10 14:00:58,0.069s,PASSED
Statement - driver = com.kms.katalon.core.webui.driver.DriverFactory.getWebDriver(),Chrome 67.0.3396.99,To locate table,2018-07-10 14:00:58,2018-07-10 14:00:58,0.010s,PASSED
"Statement - Table = driver.findElement(org.openqa.selenium.By.xpath(""//table[(@summary = 'Time Sheet')]//tbody""))",Chrome 67.0.3396.99,,2018-07-10 14:00:58,2018-07-10 14:00:58,0.045s,PASSED
"Statement - rows_table = Table.findElements(org.openqa.selenium.By.tagName(""tr""))",Chrome 67.0.3396.99,To locate rows of table it will Capture all the rows available in the table,2018-07-10 14:00:58,2018-07-10 14:00:58,0.025s,PASSED
Statement - rows_count = rows_table.size() - 1,Chrome 67.0.3396.99,To calculate no of rows In table,2018-07-10 14:00:58,2018-07-10 14:00:58,0.003s,PASSED
"Statement - println(""No. of rows: "" + rows_count)",Chrome 67.0.3396.99,,2018-07-10 14:00:58,2018-07-10 14:00:58,0.003s,PASSED
Statement - workday_time = <not implemented yet for class: org.codehaus.groovy.ast.expr.EmptyExpression>,Chrome 67.0.3396.99,,2018-07-10 14:00:58,2018-07-10 14:00:58,0.001s,PASSED
Statement - workday_time = [],Chrome 67.0.3396.99,,2018-07-10 14:00:58,2018-07-10 14:00:58,0.001s,PASSED
"Statement - For ([i = 0, i < rows_count, (i++)])",Chrome 67.0.3396.99,Loop will execute for all the rows of the table,2018-07-10 14:00:58,2018-07-10 14:00:59,0.536s,PASSED
Statement - arrayLength = workday_time.size(),Chrome 67.0.3396.99,,2018-07-10 14:00:59,2018-07-10 14:00:59,0.002s,PASSED
Statement - arrayLength = arrayLength,Chrome 67.0.3396.99,,2018-07-10 14:00:59,2018-07-10 14:00:59,0.011s,PASSED
Statement - workday_time = workday_time,Chrome 67.0.3396.99,,2018-07-10 14:00:59,2018-07-10 14:00:59,0.001s,PASSED
Statement - println(workday_time),Chrome 67.0.3396.99,,2018-07-10 14:00:59,2018-07-10 14:00:59,0.000s,PASSED
Statement - println(arrayLength),Chrome 67.0.3396.99,,2018-07-10 14:00:59,2018-07-10 14:00:59,0.000s,PASSED
closeBrowser,Chrome 67.0.3396.99,,2018-07-10 14:00:59,2018-07-10 14:00:59,0.682s,PASSED
,,,,,,
Test Cases/Login in to workday,Chrome 67.0.3396.99,,2018-07-10 14:00:59,2018-07-10 14:02:02,1m - 2.579s,ERROR
openBrowser,Chrome 67.0.3396.99,,2018-07-10 14:01:00,2018-07-10 14:01:26,26.650s,PASSED
navigateToUrl,Chrome 67.0.3396.99,,2018-07-10 14:01:26,2018-07-10 14:01:28,1.146s,PASSED
setText,Chrome 67.0.3396.99,,2018-07-10 14:01:28,2018-07-10 14:01:33,5.089s,PASSED
setText,Chrome 67.0.3396.99,,2018-07-10 14:01:33,2018-07-10 14:01:33,0.118s,PASSED
click,Chrome 67.0.3396.99,,2018-07-10 14:01:33,2018-07-10 14:01:33,0.091s,PASSED
click,Chrome 67.0.3396.99,,2018-07-10 14:01:33,2018-07-10 14:01:38,4.640s,PASSED
maximizeWindow,Chrome 67.0.3396.99,,2018-07-10 14:01:38,2018-07-10 14:01:39,1.131s,PASSED
click,Chrome 67.0.3396.99,,2018-07-10 14:01:39,2018-07-10 14:01:39,0.122s,PASSED
click,Chrome 67.0.3396.99,,2018-07-10 14:01:39,2018-07-10 14:01:40,1.170s,PASSED
click,Chrome 67.0.3396.99,,2018-07-10 14:01:40,2018-07-10 14:01:41,1.105s,PASSED
click,Chrome 67.0.3396.99,,2018-07-10 14:01:41,2018-07-10 14:01:41,0.144s,PASSED
"Statement - element = com.kms.katalon.core.webui.common.WebUiCommonHelper.findWebElement(com.kms.katalon.core.testobject.ObjectRepository.findTestObject(Object Repository/Page_Home - Workday/enterTime), 20)",Chrome 67.0.3396.99,,2018-07-10 14:01:41,2018-07-10 14:01:41,0.031s,PASSED
executeJavaScript,Chrome 67.0.3396.99,,2018-07-10 14:01:41,2018-07-10 14:01:41,0.023s,PASSED
waitForElementVisible,Chrome 67.0.3396.99,,2018-07-10 14:01:41,2018-07-10 14:01:41,0.059s,PASSED
sendKeys,Chrome 67.0.3396.99,,2018-07-10 14:01:41,2018-07-10 14:01:41,0.071s,PASSED
waitForElementVisible,Chrome 67.0.3396.99,,2018-07-10 14:01:41,2018-07-10 14:02:02,20.410s,PASSED
Statement - driver = com.kms.katalon.core.webui.driver.DriverFactory.getWebDriver(),Chrome 67.0.3396.99,,2018-07-10 14:02:02,2018-07-10 14:02:02,0.001s,PASSED
"Statement - Table = driver.findElement(org.openqa.selenium.By.xpath(""//table[@class='mainTable']""))",Chrome 67.0.3396.99,,2018-07-10 14:02:02,2018-07-10 14:02:02,0.031s,PASSED
