Suite/Test/Step Name,Browser,Description,Start time,End time,Duration,Status
Timesheet,Chrome 67.0.3396.99,,2018-07-10 13:35:01,2018-07-10 13:37:50,2m - 49.160s,ERROR
,,,,,,
Test Cases/Login to Navision,Chrome 67.0.3396.99,,2018-07-10 13:35:01,2018-07-10 13:37:08,2m - 6.670s,PASSED
openBrowser,Chrome 67.0.3396.99,,2018-07-10 13:35:02,2018-07-10 13:37:04,2m - 2.151s,PASSED
waitForElementPresent,Chrome 67.0.3396.99,,2018-07-10 13:37:04,2018-07-10 13:37:04,0.086s,PASSED
navigateToUrl,Chrome 67.0.3396.99,,2018-07-10 13:37:04,2018-07-10 13:37:04,0.244s,PASSED
waitForElementPresent,Chrome 67.0.3396.99,,2018-07-10 13:37:04,2018-07-10 13:37:04,0.022s,PASSED
maximizeWindow,Chrome 67.0.3396.99,,2018-07-10 13:37:04,2018-07-10 13:37:05,1.139s,PASSED
click,Chrome 67.0.3396.99,,2018-07-10 13:37:05,2018-07-10 13:37:05,0.088s,PASSED
click,Chrome 67.0.3396.99,,2018-07-10 13:37:05,2018-07-10 13:37:06,0.592s,PASSED
waitForElementPresent,Chrome 67.0.3396.99,,2018-07-10 13:37:06,2018-07-10 13:37:06,0.535s,PASSED
switchToFrame,Chrome 67.0.3396.99,,2018-07-10 13:37:06,2018-07-10 13:37:07,0.054s,PASSED
Statement - driver = com.kms.katalon.core.webui.driver.DriverFactory.getWebDriver(),Chrome 67.0.3396.99,To locate table,2018-07-10 13:37:07,2018-07-10 13:37:07,0.007s,PASSED
"Statement - Table = driver.findElement(org.openqa.selenium.By.xpath(""//table[(@summary = 'Time Sheet')]//tbody""))",Chrome 67.0.3396.99,,2018-07-10 13:37:07,2018-07-10 13:37:07,0.037s,PASSED
"Statement - rows_table = Table.findElements(org.openqa.selenium.By.tagName(""tr""))",Chrome 67.0.3396.99,To locate rows of table it will Capture all the rows available in the table,2018-07-10 13:37:07,2018-07-10 13:37:07,0.022s,PASSED
Statement - rows_count = rows_table.size() - 1,Chrome 67.0.3396.99,To calculate no of rows In table,2018-07-10 13:37:07,2018-07-10 13:37:07,0.003s,PASSED
"Statement - println(""No. of rows: "" + rows_count)",Chrome 67.0.3396.99,,2018-07-10 13:37:07,2018-07-10 13:37:07,0.003s,PASSED
Statement - workday_time = <not implemented yet for class: org.codehaus.groovy.ast.expr.EmptyExpression>,Chrome 67.0.3396.99,,2018-07-10 13:37:07,2018-07-10 13:37:07,0.001s,PASSED
Statement - workday_time = [],Chrome 67.0.3396.99,,2018-07-10 13:37:07,2018-07-10 13:37:07,0.000s,PASSED
"Statement - For ([i = 0, i < rows_count, (i++)])",Chrome 67.0.3396.99,Loop will execute for all the rows of the table,2018-07-10 13:37:07,2018-07-10 13:37:07,0.526s,PASSED
Statement - arrayLength = workday_time.size(),Chrome 67.0.3396.99,,2018-07-10 13:37:07,2018-07-10 13:37:07,0.002s,PASSED
Statement - arrayLength = arrayLength,Chrome 67.0.3396.99,,2018-07-10 13:37:07,2018-07-10 13:37:07,0.010s,PASSED
Statement - workday_time = workday_time,Chrome 67.0.3396.99,,2018-07-10 13:37:07,2018-07-10 13:37:07,0.000s,PASSED
Statement - println(workday_time),Chrome 67.0.3396.99,,2018-07-10 13:37:07,2018-07-10 13:37:07,0.000s,PASSED
Statement - println(arrayLength),Chrome 67.0.3396.99,,2018-07-10 13:37:07,2018-07-10 13:37:07,0.001s,PASSED
closeBrowser,Chrome 67.0.3396.99,,2018-07-10 13:37:07,2018-07-10 13:37:08,0.684s,PASSED
,,,,,,
Test Cases/Login in to workday,Chrome 67.0.3396.99,,2018-07-10 13:37:08,2018-07-10 13:37:49,41.371s,ERROR
openBrowser,Chrome 67.0.3396.99,,2018-07-10 13:37:08,2018-07-10 13:37:35,26.772s,PASSED
navigateToUrl,Chrome 67.0.3396.99,,2018-07-10 13:37:35,2018-07-10 13:37:36,1.180s,PASSED
setText,Chrome 67.0.3396.99,,2018-07-10 13:37:36,2018-07-10 13:37:39,2.354s,PASSED
setText,Chrome 67.0.3396.99,,2018-07-10 13:37:39,2018-07-10 13:37:39,0.126s,PASSED
click,Chrome 67.0.3396.99,,2018-07-10 13:37:39,2018-07-10 13:37:39,0.083s,PASSED
click,Chrome 67.0.3396.99,,2018-07-10 13:37:39,2018-07-10 13:37:44,4.654s,PASSED
maximizeWindow,Chrome 67.0.3396.99,,2018-07-10 13:37:44,2018-07-10 13:37:45,1.134s,PASSED
click,Chrome 67.0.3396.99,,2018-07-10 13:37:45,2018-07-10 13:37:45,0.597s,PASSED
click,Chrome 67.0.3396.99,,2018-07-10 13:37:45,2018-07-10 13:37:46,1.104s,PASSED
click,Chrome 67.0.3396.99,,2018-07-10 13:37:46,2018-07-10 13:37:47,1.110s,PASSED
click,Chrome 67.0.3396.99,,2018-07-10 13:37:47,2018-07-10 13:37:48,0.148s,PASSED
waitForElementVisible,Chrome 67.0.3396.99,,2018-07-10 13:37:48,2018-07-10 13:37:48,0.067s,PASSED
"Statement - element = com.kms.katalon.core.webui.common.WebUiCommonHelper.findWebElement(com.kms.katalon.core.testobject.ObjectRepository.findTestObject(Object Repository/Page_Home - Workday/enterTime), 20)",Chrome 67.0.3396.99,,2018-07-10 13:37:48,2018-07-10 13:37:48,0.024s,PASSED
executeJavaScript,Chrome 67.0.3396.99,,2018-07-10 13:37:48,2018-07-10 13:37:48,0.022s,PASSED
waitForElementVisible,Chrome 67.0.3396.99,,2018-07-10 13:37:48,2018-07-10 13:37:48,0.029s,PASSED
sendKeys,Chrome 67.0.3396.99,,2018-07-10 13:37:48,2018-07-10 13:37:48,0.071s,PASSED
waitForElementVisible,Chrome 67.0.3396.99,,2018-07-10 13:37:48,2018-07-10 13:37:49,1.061s,PASSED
Statement - driver = com.kms.katalon.core.webui.driver.DriverFactory.getWebDriver(),Chrome 67.0.3396.99,,2018-07-10 13:37:49,2018-07-10 13:37:49,0.001s,PASSED
"Statement - Table = driver.findElement(org.openqa.selenium.By.xpath(""//table[@class='mainTable']""))",Chrome 67.0.3396.99,,2018-07-10 13:37:49,2018-07-10 13:37:49,0.019s,PASSED
"Statement - rows_table = Table.findElements(org.openqa.selenium.By.tagName(""tr""))",Chrome 67.0.3396.99,,2018-07-10 13:37:49,2018-07-10 13:37:49,0.019s,PASSED
"Statement - For ([i = 0, i < arrayLength, (i++)])",Chrome 67.0.3396.99,,2018-07-10 13:37:49,2018-07-10 13:37:49,0.102s,PASSED
Statement - timeTypeValue = workday_time[i][0].toString(),Chrome 67.0.3396.99,,2018-07-10 13:37:49,2018-07-10 13:37:49,0.005s,PASSED
Statement - charLength = timeTypeValue.length(),Chrome 67.0.3396.99,,2018-07-10 13:37:49,2018-07-10 13:37:49,0.001s,PASSED
click,Chrome 67.0.3396.99,,2018-07-10 13:37:49,2018-07-10 13:37:49,0.136s,PASSED
"Statement - For ([x = 0, x < charLength, (x++)])",Chrome 67.0.3396.99,,2018-07-10 13:37:49,2018-07-10 13:37:49,0.007s,PASSED
