Suite/Test/Step Name,Browser,Description,Start time,End time,Duration,Status
Timesheet,Chrome 67.0.3396.99,,2018-07-12 08:50:22,2018-07-12 08:52:42,2m - 20.401s,FAILED
,,,,,,
Test Cases/Login to Navision,Chrome 67.0.3396.99,,2018-07-12 08:50:22,2018-07-12 08:51:00,37.742s,PASSED
openBrowser,Chrome 67.0.3396.99,,2018-07-12 08:50:23,2018-07-12 08:50:55,32.146s,PASSED
waitForElementPresent,Chrome 67.0.3396.99,,2018-07-12 08:50:55,2018-07-12 08:50:55,0.090s,PASSED
navigateToUrl,Chrome 67.0.3396.99,,2018-07-12 08:50:55,2018-07-12 08:50:55,0.197s,PASSED
waitForElementPresent,Chrome 67.0.3396.99,,2018-07-12 08:50:55,2018-07-12 08:50:55,0.025s,PASSED
maximizeWindow,Chrome 67.0.3396.99,,2018-07-12 08:50:55,2018-07-12 08:50:56,1.144s,PASSED
click,Chrome 67.0.3396.99,,2018-07-12 08:50:56,2018-07-12 08:50:56,0.087s,PASSED
click,Chrome 67.0.3396.99,,2018-07-12 08:50:56,2018-07-12 08:50:57,0.591s,PASSED
waitForElementPresent,Chrome 67.0.3396.99,,2018-07-12 08:50:57,2018-07-12 08:50:58,0.538s,PASSED
switchToFrame,Chrome 67.0.3396.99,,2018-07-12 08:50:58,2018-07-12 08:50:58,0.055s,PASSED
Statement - driver = com.kms.katalon.core.webui.driver.DriverFactory.getWebDriver(),Chrome 67.0.3396.99,To locate table,2018-07-12 08:50:58,2018-07-12 08:50:58,0.007s,PASSED
"Statement - Table = driver.findElement(org.openqa.selenium.By.xpath(""//table[(@summary = 'Time Sheet')]//tbody""))",Chrome 67.0.3396.99,,2018-07-12 08:50:58,2018-07-12 08:50:58,0.038s,PASSED
"Statement - rows_table = Table.findElements(org.openqa.selenium.By.tagName(""tr""))",Chrome 67.0.3396.99,To locate rows of table it will Capture all the rows available in the table,2018-07-12 08:50:58,2018-07-12 08:50:58,0.024s,PASSED
Statement - rows_count = rows_table.size() - 1,Chrome 67.0.3396.99,To calculate no of rows In table,2018-07-12 08:50:58,2018-07-12 08:50:58,0.002s,PASSED
"Statement - println(""No. of rows: "" + rows_count)",Chrome 67.0.3396.99,,2018-07-12 08:50:58,2018-07-12 08:50:58,0.003s,PASSED
Statement - workday_time = <not implemented yet for class: org.codehaus.groovy.ast.expr.EmptyExpression>,Chrome 67.0.3396.99,,2018-07-12 08:50:58,2018-07-12 08:50:58,0.001s,PASSED
Statement - workday_time = [],Chrome 67.0.3396.99,,2018-07-12 08:50:58,2018-07-12 08:50:58,0.001s,PASSED
"Statement - For ([i = 0, i < rows_count, (i++)])",Chrome 67.0.3396.99,Loop will execute for all the rows of the table,2018-07-12 08:50:58,2018-07-12 08:50:59,1.622s,PASSED
Statement - arrayLength = workday_time.size(),Chrome 67.0.3396.99,,2018-07-12 08:50:59,2018-07-12 08:50:59,0.002s,PASSED
Statement - arrayLength = arrayLength,Chrome 67.0.3396.99,,2018-07-12 08:50:59,2018-07-12 08:50:59,0.008s,PASSED
Statement - workday_time = workday_time,Chrome 67.0.3396.99,,2018-07-12 08:50:59,2018-07-12 08:50:59,0.000s,PASSED
Statement - println(workday_time),Chrome 67.0.3396.99,,2018-07-12 08:50:59,2018-07-12 08:50:59,0.001s,PASSED
Statement - println(arrayLength),Chrome 67.0.3396.99,,2018-07-12 08:50:59,2018-07-12 08:50:59,0.000s,PASSED
closeBrowser,Chrome 67.0.3396.99,,2018-07-12 08:50:59,2018-07-12 08:51:00,0.698s,PASSED
,,,,,,
Test Cases/Login in to workday,Chrome 67.0.3396.99,,2018-07-12 08:51:00,2018-07-12 08:52:42,1m - 41.585s,FAILED
openBrowser,Chrome 67.0.3396.99,,2018-07-12 08:51:00,2018-07-12 08:51:27,26.958s,PASSED
navigateToUrl,Chrome 67.0.3396.99,,2018-07-12 08:51:27,2018-07-12 08:51:28,1.043s,PASSED
setText,Chrome 67.0.3396.99,,2018-07-12 08:51:28,2018-07-12 08:51:31,2.364s,PASSED
setText,Chrome 67.0.3396.99,,2018-07-12 08:51:31,2018-07-12 08:51:31,0.153s,PASSED
click,Chrome 67.0.3396.99,,2018-07-12 08:51:31,2018-07-12 08:51:31,0.077s,PASSED
click,Chrome 67.0.3396.99,,2018-07-12 08:51:31,2018-07-12 08:51:36,4.605s,PASSED
maximizeWindow,Chrome 67.0.3396.99,,2018-07-12 08:51:36,2018-07-12 08:51:37,1.129s,PASSED
click,Chrome 67.0.3396.99,,2018-07-12 08:51:37,2018-07-12 08:51:37,0.090s,PASSED
click,Chrome 67.0.3396.99,,2018-07-12 08:51:37,2018-07-12 08:51:38,1.602s,PASSED
click,Chrome 67.0.3396.99,,2018-07-12 08:51:38,2018-07-12 08:51:40,1.276s,PASSED
click,Chrome 67.0.3396.99,,2018-07-12 08:51:40,2018-07-12 08:51:40,0.144s,PASSED
waitForElementPresent,Chrome 67.0.3396.99,,2018-07-12 08:51:40,2018-07-12 08:51:40,0.030s,PASSED
waitForElementPresent,Chrome 67.0.3396.99,,2018-07-12 08:51:40,2018-07-12 08:51:40,0.024s,PASSED
waitForElementPresent,Chrome 67.0.3396.99,,2018-07-12 08:51:40,2018-07-12 08:51:40,0.017s,PASSED
waitForElementPresent,Chrome 67.0.3396.99,,2018-07-12 08:51:40,2018-07-12 08:51:40,0.025s,PASSED
sendKeys,Chrome 67.0.3396.99,,2018-07-12 08:51:40,2018-07-12 08:51:40,0.085s,PASSED
waitForElementVisible,Chrome 67.0.3396.99,,2018-07-12 08:51:40,2018-07-12 08:51:41,1.138s,PASSED
Statement - driver = com.kms.katalon.core.webui.driver.DriverFactory.getWebDriver(),Chrome 67.0.3396.99,,2018-07-12 08:51:41,2018-07-12 08:51:41,0.001s,PASSED
"Statement - Table = driver.findElement(org.openqa.selenium.By.xpath(""//table[@class='mainTable']""))",Chrome 67.0.3396.99,,2018-07-12 08:51:41,2018-07-12 08:51:41,0.028s,PASSED
Statement - arrayLength = arrayLength,Chrome 67.0.3396.99,,2018-07-12 08:51:41,2018-07-12 08:51:41,0.001s,PASSED
"Statement - For ([i = 0, i < arrayLength, (i++)])",Chrome 67.0.3396.99,,2018-07-12 08:51:41,2018-07-12 08:51:43,2.107s,PASSED
Statement - timeTypeValue = workday_time[i][0].toString(),Chrome 67.0.3396.99,,2018-07-12 08:51:43,2018-07-12 08:51:43,0.005s,PASSED
click,Chrome 67.0.3396.99,,2018-07-12 08:51:43,2018-07-12 08:51:43,0.126s,PASSED
focus,Chrome 67.0.3396.99,,2018-07-12 08:51:43,2018-07-12 08:51:44,0.090s,PASSED
delay,Chrome 67.0.3396.99,,2018-07-12 08:51:44,2018-07-12 08:51:45,1.001s,PASSED
sendKeys,Chrome 67.0.3396.99,,2018-07-12 08:51:45,2018-07-12 08:51:45,0.461s,PASSED
sendKeys,Chrome 67.0.3396.99,,2018-07-12 08:51:45,2018-07-12 08:51:45,0.038s,PASSED
waitForElementPresent,Chrome 67.0.3396.99,,2018-07-12 08:51:45,2018-07-12 08:51:46,0.539s,PASSED
click,Chrome 67.0.3396.99,,2018-07-12 08:51:46,2018-07-12 08:51:46,0.128s,PASSED
sendKeys,Chrome 67.0.3396.99,,2018-07-12 08:51:46,2018-07-12 08:51:46,0.098s,PASSED
click,Chrome 67.0.3396.99,,2018-07-12 08:51:46,2018-07-12 08:51:46,0.129s,PASSED
sendKeys,Chrome 67.0.3396.99,,2018-07-12 08:51:46,2018-07-12 08:51:46,0.085s,PASSED
click,Chrome 67.0.3396.99,,2018-07-12 08:51:46,2018-07-12 08:51:46,0.089s,PASSED
sendKeys,Chrome 67.0.3396.99,,2018-07-12 08:51:46,2018-07-12 08:51:46,0.055s,PASSED
click,Chrome 67.0.3396.99,,2018-07-12 08:51:46,2018-07-12 08:51:46,0.075s,PASSED
sendKeys,Chrome 67.0.3396.99,,2018-07-12 08:51:46,2018-07-12 08:51:46,0.068s,PASSED
click,Chrome 67.0.3396.99,,2018-07-12 08:51:46,2018-07-12 08:51:46,0.102s,PASSED
sendKeys,Chrome 67.0.3396.99,,2018-07-12 08:51:46,2018-07-12 08:51:49,2.135s,PASSED
Statement - timeTypeValue = workday_time[i][0].toString(),Chrome 67.0.3396.99,,2018-07-12 08:51:49,2018-07-12 08:51:49,0.000s,PASSED
click,Chrome 67.0.3396.99,,2018-07-12 08:51:49,2018-07-12 08:51:49,0.099s,PASSED
focus,Chrome 67.0.3396.99,,2018-07-12 08:51:49,2018-07-12 08:51:49,0.079s,PASSED
delay,Chrome 67.0.3396.99,,2018-07-12 08:51:49,2018-07-12 08:51:50,1.001s,PASSED
sendKeys,Chrome 67.0.3396.99,,2018-07-12 08:51:50,2018-07-12 08:51:50,0.423s,PASSED
sendKeys,Chrome 67.0.3396.99,,2018-07-12 08:51:50,2018-07-12 08:51:50,0.044s,PASSED
waitForElementPresent,Chrome 67.0.3396.99,,2018-07-12 08:51:50,2018-07-12 08:51:51,0.534s,PASSED
click,Chrome 67.0.3396.99,,2018-07-12 08:51:51,2018-07-12 08:51:51,0.077s,PASSED
sendKeys,Chrome 67.0.3396.99,,2018-07-12 08:51:51,2018-07-12 08:51:51,0.148s,PASSED
click,Chrome 67.0.3396.99,,2018-07-12 08:51:51,2018-07-12 08:51:51,0.110s,PASSED
sendKeys,Chrome 67.0.3396.99,,2018-07-12 08:51:51,2018-07-12 08:51:51,0.049s,PASSED
click,Chrome 67.0.3396.99,,2018-07-12 08:51:51,2018-07-12 08:51:51,0.074s,PASSED
sendKeys,Chrome 67.0.3396.99,,2018-07-12 08:51:51,2018-07-12 08:51:51,0.084s,PASSED
click,Chrome 67.0.3396.99,,2018-07-12 08:51:51,2018-07-12 08:51:51,0.067s,PASSED
sendKeys,Chrome 67.0.3396.99,,2018-07-12 08:51:51,2018-07-12 08:51:51,0.061s,PASSED
click,Chrome 67.0.3396.99,,2018-07-12 08:51:51,2018-07-12 08:51:52,0.073s,PASSED
sendKeys,Chrome 67.0.3396.99,,2018-07-12 08:51:52,2018-07-12 08:51:54,2.103s,PASSED
Statement - timeTypeValue = workday_time[i][0].toString(),Chrome 67.0.3396.99,,2018-07-12 08:51:54,2018-07-12 08:51:54,0.000s,PASSED
click,Chrome 67.0.3396.99,,2018-07-12 08:51:54,2018-07-12 08:51:54,0.085s,PASSED
focus,Chrome 67.0.3396.99,,2018-07-12 08:51:54,2018-07-12 08:51:54,0.078s,PASSED
delay,Chrome 67.0.3396.99,,2018-07-12 08:51:54,2018-07-12 08:51:55,1.002s,PASSED
sendKeys,Chrome 67.0.3396.99,,2018-07-12 08:51:55,2018-07-12 08:51:55,0.408s,PASSED
sendKeys,Chrome 67.0.3396.99,,2018-07-12 08:51:55,2018-07-12 08:51:55,0.041s,PASSED
waitForElementPresent,Chrome 67.0.3396.99,,2018-07-12 08:51:55,2018-07-12 08:51:55,0.017s,PASSED
click,Chrome 67.0.3396.99,,2018-07-12 08:51:55,2018-07-12 08:51:55,0.073s,PASSED
sendKeys,Chrome 67.0.3396.99,,2018-07-12 08:51:55,2018-07-12 08:51:55,0.054s,PASSED
click,Chrome 67.0.3396.99,,2018-07-12 08:51:55,2018-07-12 08:51:55,0.078s,PASSED
sendKeys,Chrome 67.0.3396.99,,2018-07-12 08:51:55,2018-07-12 08:51:56,0.091s,PASSED
click,Chrome 67.0.3396.99,,2018-07-12 08:51:56,2018-07-12 08:51:56,0.077s,PASSED
sendKeys,Chrome 67.0.3396.99,,2018-07-12 08:51:56,2018-07-12 08:51:56,0.105s,PASSED
click,Chrome 67.0.3396.99,,2018-07-12 08:51:56,2018-07-12 08:51:56,0.119s,PASSED
sendKeys,Chrome 67.0.3396.99,,2018-07-12 08:51:56,2018-07-12 08:51:56,0.050s,PASSED
click,Chrome 67.0.3396.99,,2018-07-12 08:51:56,2018-07-12 08:51:56,0.076s,PASSED
sendKeys,Chrome 67.0.3396.99,,2018-07-12 08:51:56,2018-07-12 08:51:58,2.122s,PASSED
Statement - timeTypeValue = workday_time[i][0].toString(),Chrome 67.0.3396.99,,2018-07-12 08:51:58,2018-07-12 08:51:58,0.000s,PASSED
click,Chrome 67.0.3396.99,,2018-07-12 08:51:58,2018-07-12 08:51:58,0.099s,PASSED
focus,Chrome 67.0.3396.99,,2018-07-12 08:51:58,2018-07-12 08:51:58,0.075s,PASSED
delay,Chrome 67.0.3396.99,,2018-07-12 08:51:58,2018-07-12 08:51:59,1.001s,PASSED
sendKeys,Chrome 67.0.3396.99,,2018-07-12 08:51:59,2018-07-12 08:52:00,0.366s,PASSED
sendKeys,Chrome 67.0.3396.99,,2018-07-12 08:52:00,2018-07-12 08:52:00,0.040s,PASSED
waitForElementPresent,Chrome 67.0.3396.99,,2018-07-12 08:52:00,2018-07-12 08:52:00,0.016s,PASSED
click,Chrome 67.0.3396.99,,2018-07-12 08:52:00,2018-07-12 08:52:00,0.071s,PASSED
sendKeys,Chrome 67.0.3396.99,,2018-07-12 08:52:00,2018-07-12 08:52:00,0.053s,PASSED
click,Chrome 67.0.3396.99,,2018-07-12 08:52:00,2018-07-12 08:52:00,0.078s,PASSED
sendKeys,Chrome 67.0.3396.99,,2018-07-12 08:52:00,2018-07-12 08:52:00,0.093s,PASSED
click,Chrome 67.0.3396.99,,2018-07-12 08:52:00,2018-07-12 08:52:00,0.075s,PASSED
sendKeys,Chrome 67.0.3396.99,,2018-07-12 08:52:00,2018-07-12 08:52:00,0.051s,PASSED
click,Chrome 67.0.3396.99,,2018-07-12 08:52:00,2018-07-12 08:52:00,0.117s,PASSED
sendKeys,Chrome 67.0.3396.99,,2018-07-12 08:52:00,2018-07-12 08:52:00,0.056s,PASSED
click,Chrome 67.0.3396.99,,2018-07-12 08:52:00,2018-07-12 08:52:00,0.103s,PASSED
sendKeys,Chrome 67.0.3396.99,,2018-07-12 08:52:00,2018-07-12 08:52:03,2.125s,PASSED
Statement - timeTypeValue = workday_time[i][0].toString(),Chrome 67.0.3396.99,,2018-07-12 08:52:03,2018-07-12 08:52:03,0.001s,PASSED
click,Chrome 67.0.3396.99,,2018-07-12 08:52:03,2018-07-12 08:52:03,0.080s,PASSED
focus,Chrome 67.0.3396.99,,2018-07-12 08:52:03,2018-07-12 08:52:03,0.065s,PASSED
delay,Chrome 67.0.3396.99,,2018-07-12 08:52:03,2018-07-12 08:52:04,1.001s,PASSED
sendKeys,Chrome 67.0.3396.99,,2018-07-12 08:52:04,2018-07-12 08:52:04,0.311s,PASSED
sendKeys,Chrome 67.0.3396.99,,2018-07-12 08:52:04,2018-07-12 08:52:04,0.043s,PASSED
waitForElementPresent,Chrome 67.0.3396.99,,2018-07-12 08:52:04,2018-07-12 08:52:04,0.017s,PASSED
click,Chrome 67.0.3396.99,,2018-07-12 08:52:04,2018-07-12 08:52:04,0.072s,PASSED
sendKeys,Chrome 67.0.3396.99,,2018-07-12 08:52:04,2018-07-12 08:52:04,0.051s,PASSED
click,Chrome 67.0.3396.99,,2018-07-12 08:52:04,2018-07-12 08:52:04,0.082s,PASSED
sendKeys,Chrome 67.0.3396.99,,2018-07-12 08:52:04,2018-07-12 08:52:04,0.049s,PASSED
click,Chrome 67.0.3396.99,,2018-07-12 08:52:04,2018-07-12 08:52:04,0.084s,PASSED
sendKeys,Chrome 67.0.3396.99,,2018-07-12 08:52:04,2018-07-12 08:52:05,0.140s,PASSED
click,Chrome 67.0.3396.99,,2018-07-12 08:52:05,2018-07-12 08:52:05,0.077s,PASSED
sendKeys,Chrome 67.0.3396.99,,2018-07-12 08:52:05,2018-07-12 08:52:05,0.052s,PASSED
click,Chrome 67.0.3396.99,,2018-07-12 08:52:05,2018-07-12 08:52:05,0.083s,PASSED
sendKeys,Chrome 67.0.3396.99,,2018-07-12 08:52:05,2018-07-12 08:52:07,2.115s,PASSED
Statement - timeTypeValue = workday_time[i][0].toString(),Chrome 67.0.3396.99,,2018-07-12 08:52:07,2018-07-12 08:52:07,0.001s,PASSED
click,Chrome 67.0.3396.99,,2018-07-12 08:52:07,2018-07-12 08:52:07,0.098s,PASSED
focus,Chrome 67.0.3396.99,,2018-07-12 08:52:07,2018-07-12 08:52:07,0.084s,PASSED
delay,Chrome 67.0.3396.99,,2018-07-12 08:52:07,2018-07-12 08:52:08,1.001s,PASSED
sendKeys,Chrome 67.0.3396.99,,2018-07-12 08:52:08,2018-07-12 08:52:08,0.232s,PASSED
sendKeys,Chrome 67.0.3396.99,,2018-07-12 08:52:08,2018-07-12 08:52:08,0.044s,PASSED
waitForElementPresent,Chrome 67.0.3396.99,,2018-07-12 08:52:08,2018-07-12 08:52:09,0.534s,PASSED
click,Chrome 67.0.3396.99,,2018-07-12 08:52:09,2018-07-12 08:52:09,0.088s,PASSED
sendKeys,Chrome 67.0.3396.99,,2018-07-12 08:52:09,2018-07-12 08:52:09,0.051s,PASSED
click,Chrome 67.0.3396.99,,2018-07-12 08:52:09,2018-07-12 08:52:09,0.078s,PASSED
sendKeys,Chrome 67.0.3396.99,,2018-07-12 08:52:09,2018-07-12 08:52:09,0.195s,PASSED
click,Chrome 67.0.3396.99,,2018-07-12 08:52:09,2018-07-12 08:52:09,0.094s,PASSED
sendKeys,Chrome 67.0.3396.99,,2018-07-12 08:52:09,2018-07-12 08:52:09,0.090s,PASSED
click,Chrome 67.0.3396.99,,2018-07-12 08:52:09,2018-07-12 08:52:09,0.068s,PASSED
sendKeys,Chrome 67.0.3396.99,,2018-07-12 08:52:09,2018-07-12 08:52:10,0.052s,PASSED
click,Chrome 67.0.3396.99,,2018-07-12 08:52:10,2018-07-12 08:52:10,0.083s,PASSED
sendKeys,Chrome 67.0.3396.99,,2018-07-12 08:52:10,2018-07-12 08:52:10,0.046s,PASSED
"Statement - rows_table = Table.findElements(org.openqa.selenium.By.tagName(""tr""))",Chrome 67.0.3396.99,,2018-07-12 08:52:10,2018-07-12 08:52:10,0.015s,PASSED
Statement - rowSize = rows_table.size(),Chrome 67.0.3396.99,,2018-07-12 08:52:10,2018-07-12 08:52:10,0.000s,PASSED
Statement - If (rowSize > arrayLength),Chrome 67.0.3396.99,,2018-07-12 08:52:10,2018-07-12 08:52:42,31.889s,FAILED
