Suite/Test/Step Name,Browser,Description,Start time,End time,Duration,Status
Timesheet,Chrome 67.0.3396.99,,2018-07-27 15:42:07,2018-07-27 15:44:26,2m - 18.150s,ERROR
,,,,,,
Test Cases/Login to Navision,Chrome 67.0.3396.99,,2018-07-27 15:42:08,2018-07-27 15:43:40,1m - 32.205s,PASSED
openBrowser,Chrome 67.0.3396.99,,2018-07-27 15:42:08,2018-07-27 15:43:36,1m - 27.350s,PASSED
waitForElementPresent,Chrome 67.0.3396.99,,2018-07-27 15:43:36,2018-07-27 15:43:36,0.076s,PASSED
navigateToUrl,Chrome 67.0.3396.99,,2018-07-27 15:43:36,2018-07-27 15:43:36,0.249s,PASSED
waitForElementPresent,Chrome 67.0.3396.99,,2018-07-27 15:43:36,2018-07-27 15:43:36,0.021s,PASSED
maximizeWindow,Chrome 67.0.3396.99,,2018-07-27 15:43:36,2018-07-27 15:43:37,1.138s,PASSED
click,Chrome 67.0.3396.99,,2018-07-27 15:43:37,2018-07-27 15:43:37,0.079s,PASSED
click,Chrome 67.0.3396.99,,2018-07-27 15:43:37,2018-07-27 15:43:38,0.589s,PASSED
waitForElementPresent,Chrome 67.0.3396.99,,2018-07-27 15:43:38,2018-07-27 15:43:38,0.534s,PASSED
switchToFrame,Chrome 67.0.3396.99,,2018-07-27 15:43:38,2018-07-27 15:43:38,0.050s,PASSED
Statement - driver = com.kms.katalon.core.webui.driver.DriverFactory.getWebDriver(),Chrome 67.0.3396.99,To locate table,2018-07-27 15:43:38,2018-07-27 15:43:38,0.007s,PASSED
"Statement - Table = driver.findElement(org.openqa.selenium.By.xpath(""//table[(@summary = 'Time Sheet')]//tbody""))",Chrome 67.0.3396.99,,2018-07-27 15:43:38,2018-07-27 15:43:38,0.035s,PASSED
"Statement - rows_table = Table.findElements(org.openqa.selenium.By.tagName(""tr""))",Chrome 67.0.3396.99,To locate rows of table it will Capture all the rows available in the table,2018-07-27 15:43:38,2018-07-27 15:43:38,0.020s,PASSED
Statement - rows_count = rows_table.size() - 1,Chrome 67.0.3396.99,To calculate no of rows In table,2018-07-27 15:43:38,2018-07-27 15:43:38,0.002s,PASSED
"Statement - println(""No. of rows: "" + rows_count)",Chrome 67.0.3396.99,,2018-07-27 15:43:38,2018-07-27 15:43:38,0.002s,PASSED
Statement - workday_time = <not implemented yet for class: org.codehaus.groovy.ast.expr.EmptyExpression>,Chrome 67.0.3396.99,,2018-07-27 15:43:38,2018-07-27 15:43:38,0.001s,PASSED
Statement - workday_time = [],Chrome 67.0.3396.99,,2018-07-27 15:43:38,2018-07-27 15:43:38,0.000s,PASSED
"Statement - For ([i = 0, i < rows_count, (i++)])",Chrome 67.0.3396.99,Loop will execute for all the rows of the table,2018-07-27 15:43:38,2018-07-27 15:43:39,0.804s,PASSED
Statement - arrayLength = workday_time.size(),Chrome 67.0.3396.99,,2018-07-27 15:43:39,2018-07-27 15:43:39,0.002s,PASSED
Statement - arrayLength = arrayLength,Chrome 67.0.3396.99,,2018-07-27 15:43:39,2018-07-27 15:43:39,0.008s,PASSED
Statement - workday_time = workday_time,Chrome 67.0.3396.99,,2018-07-27 15:43:39,2018-07-27 15:43:39,0.001s,PASSED
Statement - println(workday_time),Chrome 67.0.3396.99,,2018-07-27 15:43:39,2018-07-27 15:43:39,0.001s,PASSED
Statement - println(arrayLength),Chrome 67.0.3396.99,,2018-07-27 15:43:39,2018-07-27 15:43:39,0.000s,PASSED
closeBrowser,Chrome 67.0.3396.99,,2018-07-27 15:43:39,2018-07-27 15:43:40,0.752s,PASSED
,,,,,,
Test Cases/Login in to workday,Chrome 67.0.3396.99,,2018-07-27 15:43:40,2018-07-27 15:44:25,44.834s,ERROR
openBrowser,Chrome 67.0.3396.99,,2018-07-27 15:43:40,2018-07-27 15:44:07,26.947s,PASSED
navigateToUrl,Chrome 67.0.3396.99,,2018-07-27 15:44:07,2018-07-27 15:44:09,1.181s,PASSED
setText,Chrome 67.0.3396.99,,2018-07-27 15:44:09,2018-07-27 15:44:11,2.416s,PASSED
setText,Chrome 67.0.3396.99,,2018-07-27 15:44:11,2018-07-27 15:44:11,0.125s,PASSED
click,Chrome 67.0.3396.99,,2018-07-27 15:44:11,2018-07-27 15:44:11,0.091s,PASSED
click,Chrome 67.0.3396.99,,2018-07-27 15:44:11,2018-07-27 15:44:16,4.894s,PASSED
maximizeWindow,Chrome 67.0.3396.99,,2018-07-27 15:44:16,2018-07-27 15:44:17,1.144s,PASSED
click,Chrome 67.0.3396.99,,2018-07-27 15:44:17,2018-07-27 15:44:18,0.606s,PASSED
click,Chrome 67.0.3396.99,,2018-07-27 15:44:18,2018-07-27 15:44:19,1.103s,PASSED
focus,Chrome 67.0.3396.99,,2018-07-27 15:44:19,2018-07-27 15:44:20,1.212s,PASSED
delay,Chrome 67.0.3396.99,,2018-07-27 15:44:20,2018-07-27 15:44:21,1.017s,PASSED
click,Chrome 67.0.3396.99,,2018-07-27 15:44:21,2018-07-27 15:44:21,0.094s,PASSED
delay,Chrome 67.0.3396.99,,2018-07-27 15:44:21,2018-07-27 15:44:22,1.001s,PASSED
click,Chrome 67.0.3396.99,,2018-07-27 15:44:22,2018-07-27 15:44:22,0.083s,PASSED
waitForElementVisible,Chrome 67.0.3396.99,,2018-07-27 15:44:22,2018-07-27 15:44:23,1.079s,PASSED
Statement - rowSize_before = getTableRowCount(),Chrome 67.0.3396.99,,2018-07-27 15:44:23,2018-07-27 15:44:23,0.000s,PASSED
Statement - driver = com.kms.katalon.core.webui.driver.DriverFactory.getWebDriver(),Chrome 67.0.3396.99,,2018-07-27 15:44:23,2018-07-27 15:44:23,0.000s,PASSED
"Statement - Table = driver.findElement(org.openqa.selenium.By.xpath(""//table[@class='mainTable']""))",Chrome 67.0.3396.99,,2018-07-27 15:44:23,2018-07-27 15:44:23,0.018s,PASSED
"Statement - rows_table = Table.findElements(org.openqa.selenium.By.tagName(""tr""))",Chrome 67.0.3396.99,,2018-07-27 15:44:23,2018-07-27 15:44:23,0.014s,PASSED
Statement - return (rows_table.size() - 2),Chrome 67.0.3396.99,,2018-07-27 15:44:23,2018-07-27 15:44:23,0.000s,PASSED
Statement - arrayLength = arrayLength,Chrome 67.0.3396.99,,2018-07-27 15:44:23,2018-07-27 15:44:24,0.001s,PASSED
Statement - rows_size_refined = getTableRowCount(),Chrome 67.0.3396.99,,2018-07-27 15:44:24,2018-07-27 15:44:24,0.000s,PASSED
Statement - driver = com.kms.katalon.core.webui.driver.DriverFactory.getWebDriver(),Chrome 67.0.3396.99,,2018-07-27 15:44:24,2018-07-27 15:44:24,0.000s,PASSED
"Statement - Table = driver.findElement(org.openqa.selenium.By.xpath(""//table[@class='mainTable']""))",Chrome 67.0.3396.99,,2018-07-27 15:44:24,2018-07-27 15:44:24,0.010s,PASSED
"Statement - rows_table = Table.findElements(org.openqa.selenium.By.tagName(""tr""))",Chrome 67.0.3396.99,,2018-07-27 15:44:24,2018-07-27 15:44:24,0.009s,PASSED
Statement - return (rows_table.size() - 2),Chrome 67.0.3396.99,,2018-07-27 15:44:24,2018-07-27 15:44:24,0.000s,PASSED
Statement - existing_tasks = <not implemented yet for class: org.codehaus.groovy.ast.expr.EmptyExpression>,Chrome 67.0.3396.99,,2018-07-27 15:44:24,2018-07-27 15:44:24,0.001s,PASSED
Statement - existing_tasks = [],Chrome 67.0.3396.99,,2018-07-27 15:44:24,2018-07-27 15:44:24,0.001s,PASSED
"Statement - For ([x = 1, x <= rows_size_refined, (x++)])",Chrome 67.0.3396.99,,2018-07-27 15:44:24,2018-07-27 15:44:24,0.142s,PASSED
"Statement - For ([i = 0, i < arrayLength, (i++)])",Chrome 67.0.3396.99,,2018-07-27 15:44:24,2018-07-27 15:44:25,1.003s,PASSED
Statement - timeTypeValue = workday_time[i][0].toString(),Chrome 67.0.3396.99,,2018-07-27 15:44:25,2018-07-27 15:44:25,0.003s,PASSED
"Statement - result = verifyTaskIsPresent(timeTypeValue, rows, existing_tasks)",Chrome 67.0.3396.99,,2018-07-27 15:44:25,2018-07-27 15:44:25,0.000s,PASSED
"Statement - For ([x = 0, x < rows_size, (x++)])",Chrome 67.0.3396.99,,2018-07-27 15:44:25,2018-07-27 15:44:25,0.002s,PASSED
"Statement - tok = new java.util.StringTokenizer(timeType_navision.toLowerCase(),  )",Chrome 67.0.3396.99,,2018-07-27 15:44:25,2018-07-27 15:44:25,0.003s,PASSED
Statement - result = true,Chrome 67.0.3396.99,,2018-07-27 15:44:25,2018-07-27 15:44:25,0.000s,PASSED
Statement - While (tok.hasMoreTokens() && result == true),Chrome 67.0.3396.99,,2018-07-27 15:44:25,2018-07-27 15:44:25,0.006s,PASSED
Statement - driver = com.kms.katalon.core.webui.driver.DriverFactory.getWebDriver(),Chrome 67.0.3396.99,,2018-07-27 15:44:25,2018-07-27 15:44:25,0.001s,PASSED
"Statement - Table = driver.findElement(org.openqa.selenium.By.xpath(""//table[@class='mainTable']""))",Chrome 67.0.3396.99,,2018-07-27 15:44:25,2018-07-27 15:44:25,0.009s,PASSED
"Statement - rows_table = Table.findElements(org.openqa.selenium.By.tagName(""tr""))",Chrome 67.0.3396.99,,2018-07-27 15:44:25,2018-07-27 15:44:25,0.009s,PASSED
Statement - return (rows_table.size() - 2),Chrome 67.0.3396.99,,2018-07-27 15:44:25,2018-07-27 15:44:25,0.000s,PASSED
Statement - println(result),Chrome 67.0.3396.99,,2018-07-27 15:44:25,2018-07-27 15:44:25,0.000s,PASSED
Statement - If (result != 0),Chrome 67.0.3396.99,,2018-07-27 15:44:25,2018-07-27 15:44:25,0.000s,PASSED
"Statement - setTableValues(4, i, 1)",Chrome 67.0.3396.99,Monday column,2018-07-27 15:44:25,2018-07-27 15:44:25,0.001s,PASSED
click,Chrome 67.0.3396.99,,2018-07-27 15:44:25,2018-07-27 15:44:25,0.129s,PASSED
sendKeys,Chrome 67.0.3396.99,,2018-07-27 15:44:25,2018-07-27 15:44:25,0.003s,PASSED
