Suite/Test/Step Name,Browser,Description,Start time,End time,Duration,Status
Timesheet,Chrome 67.0.3396.99,,2018-08-03 12:49:35,2018-08-03 12:51:05,1m - 29.761s,ERROR
,,,,,,
Test Cases/Login to Navision,Chrome 67.0.3396.99,,2018-08-03 12:49:35,2018-08-03 12:50:15,39.534s,PASSED
openBrowser,Chrome 67.0.3396.99,,2018-08-03 12:49:36,2018-08-03 12:50:09,33.128s,PASSED
waitForElementPresent,Chrome 67.0.3396.99,,2018-08-03 12:50:09,2018-08-03 12:50:09,0.103s,PASSED
navigateToUrl,Chrome 67.0.3396.99,,2018-08-03 12:50:09,2018-08-03 12:50:09,0.471s,PASSED
waitForElementPresent,Chrome 67.0.3396.99,,2018-08-03 12:50:09,2018-08-03 12:50:10,0.023s,PASSED
maximizeWindow,Chrome 67.0.3396.99,,2018-08-03 12:50:10,2018-08-03 12:50:11,1.154s,PASSED
click,Chrome 67.0.3396.99,,2018-08-03 12:50:11,2018-08-03 12:50:11,0.102s,PASSED
click,Chrome 67.0.3396.99,,2018-08-03 12:50:11,2018-08-03 12:50:11,0.599s,PASSED
waitForElementPresent,Chrome 67.0.3396.99,,2018-08-03 12:50:11,2018-08-03 12:50:12,0.537s,PASSED
switchToFrame,Chrome 67.0.3396.99,,2018-08-03 12:50:12,2018-08-03 12:50:12,0.054s,PASSED
Statement - driver = com.kms.katalon.core.webui.driver.DriverFactory.getWebDriver(),Chrome 67.0.3396.99,To locate table,2018-08-03 12:50:12,2018-08-03 12:50:12,0.010s,PASSED
"Statement - Table = driver.findElement(org.openqa.selenium.By.xpath(""//table[(@summary = 'Time Sheet')]//tbody""))",Chrome 67.0.3396.99,,2018-08-03 12:50:12,2018-08-03 12:50:12,0.051s,PASSED
"Statement - rows_table = Table.findElements(org.openqa.selenium.By.tagName(""tr""))",Chrome 67.0.3396.99,To locate rows of table it will Capture all the rows available in the table,2018-08-03 12:50:12,2018-08-03 12:50:12,0.029s,PASSED
Statement - rows_count = rows_table.size() - 1,Chrome 67.0.3396.99,To calculate no of rows In table,2018-08-03 12:50:12,2018-08-03 12:50:12,0.003s,PASSED
"Statement - println(""No. of rows: "" + rows_count)",Chrome 67.0.3396.99,,2018-08-03 12:50:12,2018-08-03 12:50:12,0.002s,PASSED
Statement - workday_time = <not implemented yet for class: org.codehaus.groovy.ast.expr.EmptyExpression>,Chrome 67.0.3396.99,,2018-08-03 12:50:12,2018-08-03 12:50:12,0.000s,PASSED
Statement - workday_time = [],Chrome 67.0.3396.99,,2018-08-03 12:50:12,2018-08-03 12:50:12,0.001s,PASSED
"Statement - For ([i = 0, i < rows_count, (i++)])",Chrome 67.0.3396.99,Loop will execute for all the rows of the table,2018-08-03 12:50:12,2018-08-03 12:50:14,1.956s,PASSED
Statement - arrayLength = workday_time.size(),Chrome 67.0.3396.99,,2018-08-03 12:50:14,2018-08-03 12:50:14,0.002s,PASSED
Statement - arrayLength = arrayLength,Chrome 67.0.3396.99,,2018-08-03 12:50:14,2018-08-03 12:50:14,0.009s,PASSED
Statement - workday_time = workday_time,Chrome 67.0.3396.99,,2018-08-03 12:50:14,2018-08-03 12:50:14,0.000s,PASSED
Statement - println(workday_time),Chrome 67.0.3396.99,,2018-08-03 12:50:14,2018-08-03 12:50:14,0.004s,PASSED
Statement - println(arrayLength),Chrome 67.0.3396.99,,2018-08-03 12:50:14,2018-08-03 12:50:14,0.001s,PASSED
closeBrowser,Chrome 67.0.3396.99,,2018-08-03 12:50:14,2018-08-03 12:50:15,0.773s,PASSED
,,,,,,
Test Cases/Login in to workday,Chrome 67.0.3396.99,,2018-08-03 12:50:15,2018-08-03 12:51:04,49.013s,ERROR
openBrowser,Chrome 67.0.3396.99,,2018-08-03 12:50:15,2018-08-03 12:50:42,27.073s,PASSED
navigateToUrl,Chrome 67.0.3396.99,,2018-08-03 12:50:42,2018-08-03 12:50:44,1.173s,PASSED
setText,Chrome 67.0.3396.99,,2018-08-03 12:50:44,2018-08-03 12:50:48,4.308s,PASSED
setText,Chrome 67.0.3396.99,,2018-08-03 12:50:48,2018-08-03 12:50:48,0.133s,PASSED
click,Chrome 67.0.3396.99,,2018-08-03 12:50:48,2018-08-03 12:50:48,0.102s,PASSED
click,Chrome 67.0.3396.99,,2018-08-03 12:50:48,2018-08-03 12:50:53,4.849s,PASSED
maximizeWindow,Chrome 67.0.3396.99,,2018-08-03 12:50:53,2018-08-03 12:50:54,1.142s,PASSED
click,Chrome 67.0.3396.99,,2018-08-03 12:50:54,2018-08-03 12:50:54,0.074s,PASSED
click,Chrome 67.0.3396.99,,2018-08-03 12:50:54,2018-08-03 12:50:55,1.103s,PASSED
focus,Chrome 67.0.3396.99,,2018-08-03 12:50:55,2018-08-03 12:50:57,1.279s,PASSED
delay,Chrome 67.0.3396.99,,2018-08-03 12:50:57,2018-08-03 12:50:58,1.021s,PASSED
click,Chrome 67.0.3396.99,,2018-08-03 12:50:58,2018-08-03 12:50:58,0.073s,PASSED
delay,Chrome 67.0.3396.99,,2018-08-03 12:50:58,2018-08-03 12:50:59,1.000s,PASSED
click,Chrome 67.0.3396.99,,2018-08-03 12:50:59,2018-08-03 12:50:59,0.085s,PASSED
waitForElementVisible,Chrome 67.0.3396.99,,2018-08-03 12:50:59,2018-08-03 12:51:00,1.328s,PASSED
Statement - rowSize_before = getTableRowCount(),Chrome 67.0.3396.99,,2018-08-03 12:51:00,2018-08-03 12:51:00,0.000s,PASSED
Statement - driver = com.kms.katalon.core.webui.driver.DriverFactory.getWebDriver(),Chrome 67.0.3396.99,,2018-08-03 12:51:00,2018-08-03 12:51:00,0.001s,PASSED
"Statement - Table = driver.findElement(org.openqa.selenium.By.xpath(""//table[@class='mainTable']""))",Chrome 67.0.3396.99,,2018-08-03 12:51:00,2018-08-03 12:51:00,0.023s,PASSED
"Statement - rows_table = Table.findElements(org.openqa.selenium.By.tagName(""tr""))",Chrome 67.0.3396.99,,2018-08-03 12:51:00,2018-08-03 12:51:00,0.017s,PASSED
Statement - return (rows_table.size() - 2),Chrome 67.0.3396.99,,2018-08-03 12:51:00,2018-08-03 12:51:00,0.000s,PASSED
Statement - arrayLength = arrayLength,Chrome 67.0.3396.99,,2018-08-03 12:51:00,2018-08-03 12:51:00,0.001s,PASSED
Statement - rows_size_refined = getTableRowCount(),Chrome 67.0.3396.99,,2018-08-03 12:51:00,2018-08-03 12:51:00,0.000s,PASSED
Statement - driver = com.kms.katalon.core.webui.driver.DriverFactory.getWebDriver(),Chrome 67.0.3396.99,,2018-08-03 12:51:00,2018-08-03 12:51:00,0.001s,PASSED
"Statement - Table = driver.findElement(org.openqa.selenium.By.xpath(""//table[@class='mainTable']""))",Chrome 67.0.3396.99,,2018-08-03 12:51:00,2018-08-03 12:51:00,0.011s,PASSED
"Statement - rows_table = Table.findElements(org.openqa.selenium.By.tagName(""tr""))",Chrome 67.0.3396.99,,2018-08-03 12:51:00,2018-08-03 12:51:00,0.010s,PASSED
Statement - return (rows_table.size() - 2),Chrome 67.0.3396.99,,2018-08-03 12:51:00,2018-08-03 12:51:00,0.001s,PASSED
Statement - existing_tasks = <not implemented yet for class: org.codehaus.groovy.ast.expr.EmptyExpression>,Chrome 67.0.3396.99,,2018-08-03 12:51:00,2018-08-03 12:51:00,0.000s,PASSED
Statement - existing_tasks = [],Chrome 67.0.3396.99,,2018-08-03 12:51:00,2018-08-03 12:51:00,0.001s,PASSED
Statement - existing_tasks_size = <not implemented yet for class: org.codehaus.groovy.ast.expr.EmptyExpression>,Chrome 67.0.3396.99,,2018-08-03 12:51:00,2018-08-03 12:51:00,0.000s,PASSED
"Statement - For ([x = 1, x <= rows_size_refined, (x++)])",Chrome 67.0.3396.99,,2018-08-03 12:51:00,2018-08-03 12:51:01,0.476s,PASSED
Statement - If (existing_tasks == [null]),Chrome 67.0.3396.99,,2018-08-03 12:51:01,2018-08-03 12:51:01,0.000s,PASSED
Statement - Else,Chrome 67.0.3396.99,,2018-08-03 12:51:01,2018-08-03 12:51:01,0.001s,PASSED
"Statement - For ([i = 0, i < arrayLength, (i++)])",Chrome 67.0.3396.99,,2018-08-03 12:51:01,2018-08-03 12:51:02,1.004s,PASSED
Statement - timeTypeValue = workday_time[i][0].toString(),Chrome 67.0.3396.99,,2018-08-03 12:51:02,2018-08-03 12:51:02,0.003s,PASSED
"Statement - result = verifyTaskIsPresent(timeTypeValue, rows, existing_tasks)",Chrome 67.0.3396.99,,2018-08-03 12:51:02,2018-08-03 12:51:02,0.000s,PASSED
"Statement - navision_job_split = timeType_navision.split("" "")",Chrome 67.0.3396.99,,2018-08-03 12:51:02,2018-08-03 12:51:02,0.001s,PASSED
Statement - arraySize = navision_job_split.size(),Chrome 67.0.3396.99,,2018-08-03 12:51:02,2018-08-03 12:51:02,0.000s,PASSED
Statement - result = <not implemented yet for class: org.codehaus.groovy.ast.expr.EmptyExpression>,Chrome 67.0.3396.99,,2018-08-03 12:51:02,2018-08-03 12:51:02,0.001s,PASSED
Statement - println(timeType_navision),Chrome 67.0.3396.99,,2018-08-03 12:51:02,2018-08-03 12:51:02,0.001s,PASSED
Statement - println(rows_size),Chrome 67.0.3396.99,,2018-08-03 12:51:02,2018-08-03 12:51:02,0.000s,PASSED
Statement - println(existing_tasks),Chrome 67.0.3396.99,,2018-08-03 12:51:02,2018-08-03 12:51:02,0.000s,PASSED
"Statement - For ([x = <not implemented yet for class: org.codehaus.groovy.ast.expr.EmptyExpression>, x < rows_size, (x++)])",Chrome 67.0.3396.99,,2018-08-03 12:51:02,2018-08-03 12:51:02,0.014s,PASSED
"Statement - setTableValues(4, i, 1)",Chrome 67.0.3396.99,Monday column,2018-08-03 12:51:02,2018-08-03 12:51:02,0.000s,PASSED
click,Chrome 67.0.3396.99,,2018-08-03 12:51:02,2018-08-03 12:51:02,0.111s,PASSED
"Statement - If (!(workday_time[i][j].equals("""") || workday_time[i][j].equals(null)))",Chrome 67.0.3396.99,,2018-08-03 12:51:02,2018-08-03 12:51:02,0.002s,PASSED
"Statement - setTableValues(5, i, 2)",Chrome 67.0.3396.99,Tuesday column,2018-08-03 12:51:02,2018-08-03 12:51:02,0.000s,PASSED
click,Chrome 67.0.3396.99,,2018-08-03 12:51:02,2018-08-03 12:51:02,0.086s,PASSED
"Statement - If (!(workday_time[i][j].equals("""") || workday_time[i][j].equals(null)))",Chrome 67.0.3396.99,,2018-08-03 12:51:02,2018-08-03 12:51:02,0.001s,PASSED
"Statement - setTableValues(6, i, 3)",Chrome 67.0.3396.99,Wednesday column,2018-08-03 12:51:02,2018-08-03 12:51:02,0.000s,PASSED
click,Chrome 67.0.3396.99,,2018-08-03 12:51:02,2018-08-03 12:51:02,0.104s,PASSED
"Statement - If (!(workday_time[i][j].equals("""") || workday_time[i][j].equals(null)))",Chrome 67.0.3396.99,,2018-08-03 12:51:02,2018-08-03 12:51:02,0.001s,PASSED
"Statement - setTableValues(7, i, 4)",Chrome 67.0.3396.99,Thursday column,2018-08-03 12:51:02,2018-08-03 12:51:02,0.001s,PASSED
click,Chrome 67.0.3396.99,,2018-08-03 12:51:02,2018-08-03 12:51:02,0.091s,PASSED
"Statement - If (!(workday_time[i][j].equals("""") || workday_time[i][j].equals(null)))",Chrome 67.0.3396.99,,2018-08-03 12:51:02,2018-08-03 12:51:02,0.001s,PASSED
"Statement - setTableValues(8, i, 5)",Chrome 67.0.3396.99,Friday column,2018-08-03 12:51:02,2018-08-03 12:51:02,0.000s,PASSED
click,Chrome 67.0.3396.99,,2018-08-03 12:51:02,2018-08-03 12:51:02,0.082s,PASSED
"Statement - If (!(workday_time[i][j].equals("""") || workday_time[i][j].equals(null)))",Chrome 67.0.3396.99,,2018-08-03 12:51:02,2018-08-03 12:51:02,0.007s,PASSED
"Statement - setTableValues(4, i, 1)",Chrome 67.0.3396.99,Monday column,2018-08-03 12:51:02,2018-08-03 12:51:02,0.001s,PASSED
click,Chrome 67.0.3396.99,,2018-08-03 12:51:02,2018-08-03 12:51:02,0.059s,PASSED
"Statement - If (!(workday_time[i][j].equals("""") || workday_time[i][j].equals(null)))",Chrome 67.0.3396.99,,2018-08-03 12:51:02,2018-08-03 12:51:02,0.001s,PASSED
"Statement - setTableValues(5, i, 2)",Chrome 67.0.3396.99,Tuesday column,2018-08-03 12:51:02,2018-08-03 12:51:02,0.000s,PASSED
click,Chrome 67.0.3396.99,,2018-08-03 12:51:02,2018-08-03 12:51:02,0.049s,PASSED
"Statement - If (!(workday_time[i][j].equals("""") || workday_time[i][j].equals(null)))",Chrome 67.0.3396.99,,2018-08-03 12:51:02,2018-08-03 12:51:02,0.000s,PASSED
"Statement - setTableValues(6, i, 3)",Chrome 67.0.3396.99,Wednesday column,2018-08-03 12:51:02,2018-08-03 12:51:02,0.000s,PASSED
click,Chrome 67.0.3396.99,,2018-08-03 12:51:02,2018-08-03 12:51:02,0.051s,PASSED
"Statement - If (!(workday_time[i][j].equals("""") || workday_time[i][j].equals(null)))",Chrome 67.0.3396.99,,2018-08-03 12:51:02,2018-08-03 12:51:02,0.000s,PASSED
"Statement - setTableValues(7, i, 4)",Chrome 67.0.3396.99,Thursday column,2018-08-03 12:51:02,2018-08-03 12:51:02,0.001s,PASSED
click,Chrome 67.0.3396.99,,2018-08-03 12:51:02,2018-08-03 12:51:02,0.065s,PASSED
"Statement - If (!(workday_time[i][j].equals("""") || workday_time[i][j].equals(null)))",Chrome 67.0.3396.99,,2018-08-03 12:51:02,2018-08-03 12:51:02,0.000s,PASSED
"Statement - setTableValues(8, i, 5)",Chrome 67.0.3396.99,Friday column,2018-08-03 12:51:02,2018-08-03 12:51:02,0.000s,PASSED
click,Chrome 67.0.3396.99,,2018-08-03 12:51:02,2018-08-03 12:51:02,0.049s,PASSED
"Statement - If (!(workday_time[i][j].equals("""") || workday_time[i][j].equals(null)))",Chrome 67.0.3396.99,,2018-08-03 12:51:02,2018-08-03 12:51:02,0.006s,PASSED
"Statement - setTableValues(4, i, 1)",Chrome 67.0.3396.99,Monday column,2018-08-03 12:51:02,2018-08-03 12:51:02,0.001s,PASSED
click,Chrome 67.0.3396.99,,2018-08-03 12:51:02,2018-08-03 12:51:02,0.061s,PASSED
"Statement - If (!(workday_time[i][j].equals("""") || workday_time[i][j].equals(null)))",Chrome 67.0.3396.99,,2018-08-03 12:51:02,2018-08-03 12:51:02,0.000s,PASSED
"Statement - setTableValues(5, i, 2)",Chrome 67.0.3396.99,Tuesday column,2018-08-03 12:51:02,2018-08-03 12:51:02,0.000s,PASSED
click,Chrome 67.0.3396.99,,2018-08-03 12:51:02,2018-08-03 12:51:03,0.062s,PASSED
"Statement - If (!(workday_time[i][j].equals("""") || workday_time[i][j].equals(null)))",Chrome 67.0.3396.99,,2018-08-03 12:51:03,2018-08-03 12:51:03,0.000s,PASSED
"Statement - setTableValues(6, i, 3)",Chrome 67.0.3396.99,Wednesday column,2018-08-03 12:51:03,2018-08-03 12:51:03,0.000s,PASSED
click,Chrome 67.0.3396.99,,2018-08-03 12:51:03,2018-08-03 12:51:03,0.049s,PASSED
"Statement - If (!(workday_time[i][j].equals("""") || workday_time[i][j].equals(null)))",Chrome 67.0.3396.99,,2018-08-03 12:51:03,2018-08-03 12:51:03,0.001s,PASSED
"Statement - setTableValues(7, i, 4)",Chrome 67.0.3396.99,Thursday column,2018-08-03 12:51:03,2018-08-03 12:51:03,0.000s,PASSED
click,Chrome 67.0.3396.99,,2018-08-03 12:51:03,2018-08-03 12:51:03,0.065s,PASSED
"Statement - If (!(workday_time[i][j].equals("""") || workday_time[i][j].equals(null)))",Chrome 67.0.3396.99,,2018-08-03 12:51:03,2018-08-03 12:51:03,0.000s,PASSED
"Statement - setTableValues(8, i, 5)",Chrome 67.0.3396.99,Friday column,2018-08-03 12:51:03,2018-08-03 12:51:03,0.000s,PASSED
click,Chrome 67.0.3396.99,,2018-08-03 12:51:03,2018-08-03 12:51:03,0.049s,PASSED
"Statement - If (!(workday_time[i][j].equals("""") || workday_time[i][j].equals(null)))",Chrome 67.0.3396.99,,2018-08-03 12:51:03,2018-08-03 12:51:03,0.005s,PASSED
"Statement - setTableValues(4, i, 1)",Chrome 67.0.3396.99,Monday column,2018-08-03 12:51:03,2018-08-03 12:51:03,0.000s,PASSED
click,Chrome 67.0.3396.99,,2018-08-03 12:51:03,2018-08-03 12:51:03,0.060s,PASSED
"Statement - If (!(workday_time[i][j].equals("""") || workday_time[i][j].equals(null)))",Chrome 67.0.3396.99,,2018-08-03 12:51:03,2018-08-03 12:51:03,0.001s,PASSED
"Statement - setTableValues(5, i, 2)",Chrome 67.0.3396.99,Tuesday column,2018-08-03 12:51:03,2018-08-03 12:51:03,0.000s,PASSED
click,Chrome 67.0.3396.99,,2018-08-03 12:51:03,2018-08-03 12:51:03,0.051s,PASSED
"Statement - If (!(workday_time[i][j].equals("""") || workday_time[i][j].equals(null)))",Chrome 67.0.3396.99,,2018-08-03 12:51:03,2018-08-03 12:51:03,0.000s,PASSED
"Statement - setTableValues(6, i, 3)",Chrome 67.0.3396.99,Wednesday column,2018-08-03 12:51:03,2018-08-03 12:51:03,0.000s,PASSED
click,Chrome 67.0.3396.99,,2018-08-03 12:51:03,2018-08-03 12:51:03,0.046s,PASSED
"Statement - If (!(workday_time[i][j].equals("""") || workday_time[i][j].equals(null)))",Chrome 67.0.3396.99,,2018-08-03 12:51:03,2018-08-03 12:51:03,0.000s,PASSED
"Statement - setTableValues(7, i, 4)",Chrome 67.0.3396.99,Thursday column,2018-08-03 12:51:03,2018-08-03 12:51:03,0.000s,PASSED
click,Chrome 67.0.3396.99,,2018-08-03 12:51:03,2018-08-03 12:51:03,0.049s,PASSED
"Statement - If (!(workday_time[i][j].equals("""") || workday_time[i][j].equals(null)))",Chrome 67.0.3396.99,,2018-08-03 12:51:03,2018-08-03 12:51:03,0.000s,PASSED
"Statement - setTableValues(8, i, 5)",Chrome 67.0.3396.99,Friday column,2018-08-03 12:51:03,2018-08-03 12:51:03,0.000s,PASSED
click,Chrome 67.0.3396.99,,2018-08-03 12:51:03,2018-08-03 12:51:03,0.051s,PASSED
"Statement - If (!(workday_time[i][j].equals("""") || workday_time[i][j].equals(null)))",Chrome 67.0.3396.99,,2018-08-03 12:51:03,2018-08-03 12:51:03,0.004s,PASSED
"Statement - setTableValues(4, i, 1)",Chrome 67.0.3396.99,Monday column,2018-08-03 12:51:03,2018-08-03 12:51:03,0.001s,PASSED
click,Chrome 67.0.3396.99,,2018-08-03 12:51:03,2018-08-03 12:51:03,0.045s,PASSED
"Statement - If (!(workday_time[i][j].equals("""") || workday_time[i][j].equals(null)))",Chrome 67.0.3396.99,,2018-08-03 12:51:03,2018-08-03 12:51:03,0.001s,PASSED
"Statement - setTableValues(5, i, 2)",Chrome 67.0.3396.99,Tuesday column,2018-08-03 12:51:03,2018-08-03 12:51:03,0.000s,PASSED
click,Chrome 67.0.3396.99,,2018-08-03 12:51:03,2018-08-03 12:51:03,0.049s,PASSED
"Statement - If (!(workday_time[i][j].equals("""") || workday_time[i][j].equals(null)))",Chrome 67.0.3396.99,,2018-08-03 12:51:03,2018-08-03 12:51:03,0.000s,PASSED
"Statement - setTableValues(6, i, 3)",Chrome 67.0.3396.99,Wednesday column,2018-08-03 12:51:03,2018-08-03 12:51:03,0.000s,PASSED
click,Chrome 67.0.3396.99,,2018-08-03 12:51:03,2018-08-03 12:51:03,0.049s,PASSED
"Statement - If (!(workday_time[i][j].equals("""") || workday_time[i][j].equals(null)))",Chrome 67.0.3396.99,,2018-08-03 12:51:03,2018-08-03 12:51:03,0.000s,PASSED
"Statement - setTableValues(7, i, 4)",Chrome 67.0.3396.99,Thursday column,2018-08-03 12:51:03,2018-08-03 12:51:03,0.000s,PASSED
click,Chrome 67.0.3396.99,,2018-08-03 12:51:03,2018-08-03 12:51:03,0.050s,PASSED
"Statement - If (!(workday_time[i][j].equals("""") || workday_time[i][j].equals(null)))",Chrome 67.0.3396.99,,2018-08-03 12:51:03,2018-08-03 12:51:03,0.000s,PASSED
"Statement - setTableValues(8, i, 5)",Chrome 67.0.3396.99,Friday column,2018-08-03 12:51:03,2018-08-03 12:51:03,0.000s,PASSED
click,Chrome 67.0.3396.99,,2018-08-03 12:51:03,2018-08-03 12:51:03,0.047s,PASSED
"Statement - If (!(workday_time[i][j].equals("""") || workday_time[i][j].equals(null)))",Chrome 67.0.3396.99,,2018-08-03 12:51:03,2018-08-03 12:51:03,0.005s,PASSED
"Statement - setTableValues(4, i, 1)",Chrome 67.0.3396.99,Monday column,2018-08-03 12:51:03,2018-08-03 12:51:03,0.000s,PASSED
click,Chrome 67.0.3396.99,,2018-08-03 12:51:03,2018-08-03 12:51:03,0.062s,PASSED
"Statement - If (!(workday_time[i][j].equals("""") || workday_time[i][j].equals(null)))",Chrome 67.0.3396.99,,2018-08-03 12:51:03,2018-08-03 12:51:03,0.001s,PASSED
"Statement - setTableValues(5, i, 2)",Chrome 67.0.3396.99,Tuesday column,2018-08-03 12:51:03,2018-08-03 12:51:03,0.000s,PASSED
click,Chrome 67.0.3396.99,,2018-08-03 12:51:03,2018-08-03 12:51:03,0.050s,PASSED
"Statement - If (!(workday_time[i][j].equals("""") || workday_time[i][j].equals(null)))",Chrome 67.0.3396.99,,2018-08-03 12:51:03,2018-08-03 12:51:03,0.001s,PASSED
"Statement - setTableValues(6, i, 3)",Chrome 67.0.3396.99,Wednesday column,2018-08-03 12:51:03,2018-08-03 12:51:03,0.000s,PASSED
click,Chrome 67.0.3396.99,,2018-08-03 12:51:03,2018-08-03 12:51:03,0.049s,PASSED
"Statement - If (!(workday_time[i][j].equals("""") || workday_time[i][j].equals(null)))",Chrome 67.0.3396.99,,2018-08-03 12:51:03,2018-08-03 12:51:03,0.000s,PASSED
"Statement - setTableValues(7, i, 4)",Chrome 67.0.3396.99,Thursday column,2018-08-03 12:51:03,2018-08-03 12:51:03,0.000s,PASSED
click,Chrome 67.0.3396.99,,2018-08-03 12:51:03,2018-08-03 12:51:03,0.066s,PASSED
"Statement - If (!(workday_time[i][j].equals("""") || workday_time[i][j].equals(null)))",Chrome 67.0.3396.99,,2018-08-03 12:51:03,2018-08-03 12:51:03,0.000s,PASSED
"Statement - setTableValues(8, i, 5)",Chrome 67.0.3396.99,Friday column,2018-08-03 12:51:03,2018-08-03 12:51:03,0.000s,PASSED
click,Chrome 67.0.3396.99,,2018-08-03 12:51:03,2018-08-03 12:51:04,0.049s,PASSED
"Statement - If (!(workday_time[i][j].equals("""") || workday_time[i][j].equals(null)))",Chrome 67.0.3396.99,,2018-08-03 12:51:04,2018-08-03 12:51:04,0.004s,PASSED
"Statement - setTableValues(4, i, 1)",Chrome 67.0.3396.99,Monday column,2018-08-03 12:51:04,2018-08-03 12:51:04,0.000s,PASSED
click,Chrome 67.0.3396.99,,2018-08-03 12:51:04,2018-08-03 12:51:04,0.063s,PASSED
"Statement - If (!(workday_time[i][j].equals("""") || workday_time[i][j].equals(null)))",Chrome 67.0.3396.99,,2018-08-03 12:51:04,2018-08-03 12:51:04,0.000s,PASSED
"Statement - setTableValues(5, i, 2)",Chrome 67.0.3396.99,Tuesday column,2018-08-03 12:51:04,2018-08-03 12:51:04,0.000s,PASSED
click,Chrome 67.0.3396.99,,2018-08-03 12:51:04,2018-08-03 12:51:04,0.069s,PASSED
"Statement - If (!(workday_time[i][j].equals("""") || workday_time[i][j].equals(null)))",Chrome 67.0.3396.99,,2018-08-03 12:51:04,2018-08-03 12:51:04,0.000s,PASSED
"Statement - setTableValues(6, i, 3)",Chrome 67.0.3396.99,Wednesday column,2018-08-03 12:51:04,2018-08-03 12:51:04,0.000s,PASSED
click,Chrome 67.0.3396.99,,2018-08-03 12:51:04,2018-08-03 12:51:04,0.064s,PASSED
"Statement - If (!(workday_time[i][j].equals("""") || workday_time[i][j].equals(null)))",Chrome 67.0.3396.99,,2018-08-03 12:51:04,2018-08-03 12:51:04,0.000s,PASSED
"Statement - setTableValues(7, i, 4)",Chrome 67.0.3396.99,Thursday column,2018-08-03 12:51:04,2018-08-03 12:51:04,0.000s,PASSED
click,Chrome 67.0.3396.99,,2018-08-03 12:51:04,2018-08-03 12:51:04,0.065s,PASSED
"Statement - If (!(workday_time[i][j].equals("""") || workday_time[i][j].equals(null)))",Chrome 67.0.3396.99,,2018-08-03 12:51:04,2018-08-03 12:51:04,0.001s,PASSED
"Statement - setTableValues(8, i, 5)",Chrome 67.0.3396.99,Friday column,2018-08-03 12:51:04,2018-08-03 12:51:04,0.000s,PASSED
click,Chrome 67.0.3396.99,,2018-08-03 12:51:04,2018-08-03 12:51:04,0.049s,PASSED
"Statement - If (!(workday_time[i][j].equals("""") || workday_time[i][j].equals(null)))",Chrome 67.0.3396.99,,2018-08-03 12:51:04,2018-08-03 12:51:04,0.001s,PASSED
