Suite/Test/Step Name,Browser,Description,Start time,End time,Duration,Status
Timesheet,Chrome 67.0.3396.87,,2018-07-03 14:38:40,2018-07-03 14:40:31,1m - 51.468s,ERROR
,,,,,,
Test Cases/Login to Navision,Chrome 67.0.3396.87,,2018-07-03 14:38:40,2018-07-03 14:39:48,1m - 7.465s,ERROR
openBrowser,Chrome 67.0.3396.87,,2018-07-03 14:38:41,2018-07-03 14:39:45,1m - 3.932s,PASSED
waitForElementPresent,Chrome 67.0.3396.87,,2018-07-03 14:39:45,2018-07-03 14:39:45,0.138s,PASSED
navigateToUrl,Chrome 67.0.3396.87,,2018-07-03 14:39:45,2018-07-03 14:39:45,0.369s,PASSED
waitForElementPresent,Chrome 67.0.3396.87,,2018-07-03 14:39:45,2018-07-03 14:39:45,0.024s,PASSED
maximizeWindow,Chrome 67.0.3396.87,,2018-07-03 14:39:45,2018-07-03 14:39:46,1.136s,PASSED
click,Chrome 67.0.3396.87,,2018-07-03 14:39:46,2018-07-03 14:39:46,0.089s,PASSED
click,Chrome 67.0.3396.87,,2018-07-03 14:39:46,2018-07-03 14:39:47,0.590s,PASSED
waitForElementPresent,Chrome 67.0.3396.87,,2018-07-03 14:39:47,2018-07-03 14:39:47,0.536s,PASSED
switchToFrame,Chrome 67.0.3396.87,,2018-07-03 14:39:47,2018-07-03 14:39:48,0.071s,PASSED
Statement - driver = com.kms.katalon.core.webui.driver.DriverFactory.getWebDriver(),Chrome 67.0.3396.87,To locate table,2018-07-03 14:39:48,2018-07-03 14:39:48,0.009s,PASSED
"Statement - Table = driver.findElement(org.openqa.selenium.By.xpath(""//table[(@summary = 'Time Sheet')]//tbody""))",Chrome 67.0.3396.87,,2018-07-03 14:39:48,2018-07-03 14:39:48,0.068s,PASSED
"Statement - rows_table = Table.findElements(org.openqa.selenium.By.tagName(""tr""))",Chrome 67.0.3396.87,To locate rows of table it will Capture all the rows available in the table,2018-07-03 14:39:48,2018-07-03 14:39:48,0.021s,PASSED
Statement - rows_count = rows_table.size() - 1,Chrome 67.0.3396.87,To calculate no of rows In table,2018-07-03 14:39:48,2018-07-03 14:39:48,0.002s,PASSED
"Statement - println(""No. of rows: "" + rows_count)",Chrome 67.0.3396.87,,2018-07-03 14:39:48,2018-07-03 14:39:48,0.003s,PASSED
Statement - [[Ljava.lang.String;.call(workday_time),Chrome 67.0.3396.87,,2018-07-03 14:39:48,2018-07-03 14:39:48,0.010s,PASSED
,,,,,,
Test Cases/Login in to workday,Chrome 67.0.3396.87,,2018-07-03 14:39:48,2018-07-03 14:40:31,43.412s,PASSED
openBrowser,Chrome 67.0.3396.87,,2018-07-03 14:39:48,2018-07-03 14:40:16,27.824s,PASSED
navigateToUrl,Chrome 67.0.3396.87,,2018-07-03 14:40:16,2018-07-03 14:40:17,0.967s,PASSED
setText,Chrome 67.0.3396.87,,2018-07-03 14:40:17,2018-07-03 14:40:19,1.838s,PASSED
setText,Chrome 67.0.3396.87,,2018-07-03 14:40:19,2018-07-03 14:40:19,0.179s,PASSED
click,Chrome 67.0.3396.87,,2018-07-03 14:40:19,2018-07-03 14:40:19,0.112s,PASSED
click,Chrome 67.0.3396.87,,2018-07-03 14:40:19,2018-07-03 14:40:24,5.437s,PASSED
maximizeWindow,Chrome 67.0.3396.87,,2018-07-03 14:40:24,2018-07-03 14:40:26,1.129s,PASSED
click,Chrome 67.0.3396.87,,2018-07-03 14:40:26,2018-07-03 14:40:26,0.155s,PASSED
click,Chrome 67.0.3396.87,,2018-07-03 14:40:26,2018-07-03 14:40:27,1.622s,PASSED
click,Chrome 67.0.3396.87,,2018-07-03 14:40:27,2018-07-03 14:40:29,1.127s,PASSED
click,Chrome 67.0.3396.87,,2018-07-03 14:40:29,2018-07-03 14:40:29,0.178s,PASSED
waitForElementVisible,Chrome 67.0.3396.87,,2018-07-03 14:40:29,2018-07-03 14:40:29,0.066s,PASSED
click,Chrome 67.0.3396.87,,2018-07-03 14:40:29,2018-07-03 14:40:29,0.045s,PASSED
waitForElementVisible,Chrome 67.0.3396.87,,2018-07-03 14:40:29,2018-07-03 14:40:29,0.023s,PASSED
sendKeys,Chrome 67.0.3396.87,,2018-07-03 14:40:29,2018-07-03 14:40:29,0.083s,PASSED
waitForElementVisible,Chrome 67.0.3396.87,,2018-07-03 14:40:29,2018-07-03 14:40:30,1.227s,PASSED
Statement - driver = com.kms.katalon.core.webui.driver.DriverFactory.getWebDriver(),Chrome 67.0.3396.87,,2018-07-03 14:40:30,2018-07-03 14:40:30,0.001s,PASSED
"Statement - Table = driver.findElement(org.openqa.selenium.By.xpath(""//table[@class='mainTable']""))",Chrome 67.0.3396.87,,2018-07-03 14:40:30,2018-07-03 14:40:30,0.019s,PASSED
"Statement - rows_table = Table.findElements(org.openqa.selenium.By.tagName(""tr""))",Chrome 67.0.3396.87,,2018-07-03 14:40:30,2018-07-03 14:40:30,0.019s,PASSED
Statement - arrayLength = arrayLength,Chrome 67.0.3396.87,,2018-07-03 14:40:30,2018-07-03 14:40:30,0.000s,PASSED
Statement - workday_time = workday_time,Chrome 67.0.3396.87,,2018-07-03 14:40:30,2018-07-03 14:40:30,0.001s,PASSED
Statement - println(arrayLength),Chrome 67.0.3396.87,,2018-07-03 14:40:30,2018-07-03 14:40:30,0.001s,PASSED
Statement - println(workday_time),Chrome 67.0.3396.87,,2018-07-03 14:40:30,2018-07-03 14:40:30,0.001s,PASSED
"Statement - For ([i = 0, i < arrayLength, (i++)])",Chrome 67.0.3396.87,,2018-07-03 14:40:30,2018-07-03 14:40:30,0.000s,PASSED
click,Chrome 67.0.3396.87,,2018-07-03 14:40:30,2018-07-03 14:40:30,0.096s,PASSED
closeBrowser,Chrome 67.0.3396.87,,2018-07-03 14:40:30,2018-07-03 14:40:31,0.815s,PASSED
