Suite/Test/Step Name,Browser,Description,Start time,End time,Duration,Status
Timesheet,Chrome 67.0.3396.99,,2018-07-26 09:26:46,2018-07-26 09:27:27,41.225s,INCOMPLETE
,,,,,,
Test Cases/Login to Navision,Chrome 67.0.3396.99,,2018-07-26 09:26:47,2018-07-26 09:27:27,40.855s,PASSED
openBrowser,Chrome 67.0.3396.99,,2018-07-26 09:26:47,2018-07-26 09:27:23,36.066s,PASSED
waitForElementPresent,Chrome 67.0.3396.99,,2018-07-26 09:27:23,2018-07-26 09:27:23,0.101s,PASSED
navigateToUrl,Chrome 67.0.3396.99,,2018-07-26 09:27:23,2018-07-26 09:27:23,0.226s,PASSED
waitForElementPresent,Chrome 67.0.3396.99,,2018-07-26 09:27:23,2018-07-26 09:27:23,0.028s,PASSED
maximizeWindow,Chrome 67.0.3396.99,,2018-07-26 09:27:23,2018-07-26 09:27:25,1.144s,PASSED
click,Chrome 67.0.3396.99,,2018-07-26 09:27:25,2018-07-26 09:27:25,0.090s,PASSED
click,Chrome 67.0.3396.99,,2018-07-26 09:27:25,2018-07-26 09:27:25,0.585s,PASSED
waitForElementPresent,Chrome 67.0.3396.99,,2018-07-26 09:27:25,2018-07-26 09:27:26,0.540s,PASSED
switchToFrame,Chrome 67.0.3396.99,,2018-07-26 09:27:26,2018-07-26 09:27:26,0.054s,PASSED
Statement - driver = com.kms.katalon.core.webui.driver.DriverFactory.getWebDriver(),Chrome 67.0.3396.99,To locate table,2018-07-26 09:27:26,2018-07-26 09:27:26,0.007s,PASSED
"Statement - Table = driver.findElement(org.openqa.selenium.By.xpath(""//table[(@summary = 'Time Sheet')]//tbody""))",Chrome 67.0.3396.99,,2018-07-26 09:27:26,2018-07-26 09:27:26,0.036s,PASSED
"Statement - rows_table = Table.findElements(org.openqa.selenium.By.tagName(""tr""))",Chrome 67.0.3396.99,To locate rows of table it will Capture all the rows available in the table,2018-07-26 09:27:26,2018-07-26 09:27:26,0.021s,PASSED
Statement - rows_count = rows_table.size() - 1,Chrome 67.0.3396.99,To calculate no of rows In table,2018-07-26 09:27:26,2018-07-26 09:27:26,0.003s,PASSED
"Statement - println(""No. of rows: "" + rows_count)",Chrome 67.0.3396.99,,2018-07-26 09:27:26,2018-07-26 09:27:26,0.003s,PASSED
Statement - workday_time = <not implemented yet for class: org.codehaus.groovy.ast.expr.EmptyExpression>,Chrome 67.0.3396.99,,2018-07-26 09:27:26,2018-07-26 09:27:26,0.001s,PASSED
Statement - workday_time = [],Chrome 67.0.3396.99,,2018-07-26 09:27:26,2018-07-26 09:27:26,0.000s,PASSED
"Statement - For ([i = 0, i < rows_count, (i++)])",Chrome 67.0.3396.99,Loop will execute for all the rows of the table,2018-07-26 09:27:26,2018-07-26 09:27:27,0.800s,PASSED
Statement - arrayLength = workday_time.size(),Chrome 67.0.3396.99,,2018-07-26 09:27:27,2018-07-26 09:27:27,0.004s,PASSED
Statement - arrayLength = arrayLength,Chrome 67.0.3396.99,,2018-07-26 09:27:27,2018-07-26 09:27:27,0.009s,PASSED
Statement - workday_time = workday_time,Chrome 67.0.3396.99,,2018-07-26 09:27:27,2018-07-26 09:27:27,0.001s,PASSED
Statement - println(workday_time),Chrome 67.0.3396.99,,2018-07-26 09:27:27,2018-07-26 09:27:27,0.001s,PASSED
Statement - println(arrayLength),Chrome 67.0.3396.99,,2018-07-26 09:27:27,2018-07-26 09:27:27,0.001s,PASSED
closeBrowser,Chrome 67.0.3396.99,,2018-07-26 09:27:27,2018-07-26 09:27:27,0.710s,PASSED
,,,,,,
Test Cases/Login in to workday,Chrome 67.0.3396.99,,2018-07-26 09:27:27,2018-07-26 09:27:27,0.023s,PASSED
