Suite/Test/Step Name,Browser,Description,Start time,End time,Duration,Status
Timesheet,Chrome 67.0.3396.99,,2018-07-26 14:44:41,2018-07-26 14:46:05,1m - 24.004s,FAILED
,,,,,,
Test Cases/Login to Navision,Chrome 67.0.3396.99,,2018-07-26 14:44:41,2018-07-26 14:45:18,37.407s,PASSED
openBrowser,Chrome 67.0.3396.99,,2018-07-26 14:44:41,2018-07-26 14:45:14,32.637s,PASSED
waitForElementPresent,Chrome 67.0.3396.99,,2018-07-26 14:45:14,2018-07-26 14:45:14,0.085s,PASSED
navigateToUrl,Chrome 67.0.3396.99,,2018-07-26 14:45:14,2018-07-26 14:45:14,0.226s,PASSED
waitForElementPresent,Chrome 67.0.3396.99,,2018-07-26 14:45:14,2018-07-26 14:45:14,0.019s,PASSED
maximizeWindow,Chrome 67.0.3396.99,,2018-07-26 14:45:14,2018-07-26 14:45:15,1.147s,PASSED
click,Chrome 67.0.3396.99,,2018-07-26 14:45:15,2018-07-26 14:45:15,0.095s,PASSED
click,Chrome 67.0.3396.99,,2018-07-26 14:45:15,2018-07-26 14:45:16,0.606s,PASSED
waitForElementPresent,Chrome 67.0.3396.99,,2018-07-26 14:45:16,2018-07-26 14:45:16,0.540s,PASSED
switchToFrame,Chrome 67.0.3396.99,,2018-07-26 14:45:16,2018-07-26 14:45:17,0.051s,PASSED
Statement - driver = com.kms.katalon.core.webui.driver.DriverFactory.getWebDriver(),Chrome 67.0.3396.99,To locate table,2018-07-26 14:45:17,2018-07-26 14:45:17,0.006s,PASSED
"Statement - Table = driver.findElement(org.openqa.selenium.By.xpath(""//table[(@summary = 'Time Sheet')]//tbody""))",Chrome 67.0.3396.99,,2018-07-26 14:45:17,2018-07-26 14:45:17,0.032s,PASSED
"Statement - rows_table = Table.findElements(org.openqa.selenium.By.tagName(""tr""))",Chrome 67.0.3396.99,To locate rows of table it will Capture all the rows available in the table,2018-07-26 14:45:17,2018-07-26 14:45:17,0.025s,PASSED
Statement - rows_count = rows_table.size() - 1,Chrome 67.0.3396.99,To calculate no of rows In table,2018-07-26 14:45:17,2018-07-26 14:45:17,0.002s,PASSED
"Statement - println(""No. of rows: "" + rows_count)",Chrome 67.0.3396.99,,2018-07-26 14:45:17,2018-07-26 14:45:17,0.003s,PASSED
Statement - workday_time = <not implemented yet for class: org.codehaus.groovy.ast.expr.EmptyExpression>,Chrome 67.0.3396.99,,2018-07-26 14:45:17,2018-07-26 14:45:17,0.001s,PASSED
Statement - workday_time = [],Chrome 67.0.3396.99,,2018-07-26 14:45:17,2018-07-26 14:45:17,0.001s,PASSED
"Statement - For ([i = 0, i < rows_count, (i++)])",Chrome 67.0.3396.99,Loop will execute for all the rows of the table,2018-07-26 14:45:17,2018-07-26 14:45:17,0.808s,PASSED
Statement - arrayLength = workday_time.size(),Chrome 67.0.3396.99,,2018-07-26 14:45:17,2018-07-26 14:45:17,0.001s,PASSED
Statement - arrayLength = arrayLength,Chrome 67.0.3396.99,,2018-07-26 14:45:17,2018-07-26 14:45:17,0.008s,PASSED
Statement - workday_time = workday_time,Chrome 67.0.3396.99,,2018-07-26 14:45:17,2018-07-26 14:45:17,0.000s,PASSED
Statement - println(workday_time),Chrome 67.0.3396.99,,2018-07-26 14:45:17,2018-07-26 14:45:17,0.001s,PASSED
Statement - println(arrayLength),Chrome 67.0.3396.99,,2018-07-26 14:45:17,2018-07-26 14:45:17,0.001s,PASSED
closeBrowser,Chrome 67.0.3396.99,,2018-07-26 14:45:17,2018-07-26 14:45:18,0.752s,PASSED
,,,,,,
Test Cases/Login in to workday,Chrome 67.0.3396.99,,2018-07-26 14:45:18,2018-07-26 14:46:04,45.552s,FAILED
openBrowser,Chrome 67.0.3396.99,,2018-07-26 14:45:19,2018-07-26 14:45:46,26.979s,PASSED
navigateToUrl,Chrome 67.0.3396.99,,2018-07-26 14:45:46,2018-07-26 14:45:47,1.156s,PASSED
setText,Chrome 67.0.3396.99,,2018-07-26 14:45:47,2018-07-26 14:45:49,2.437s,PASSED
setText,Chrome 67.0.3396.99,,2018-07-26 14:45:49,2018-07-26 14:45:49,0.131s,PASSED
click,Chrome 67.0.3396.99,,2018-07-26 14:45:49,2018-07-26 14:45:49,0.072s,PASSED
click,Chrome 67.0.3396.99,,2018-07-26 14:45:49,2018-07-26 14:45:54,4.715s,PASSED
maximizeWindow,Chrome 67.0.3396.99,,2018-07-26 14:45:54,2018-07-26 14:45:55,1.143s,PASSED
click,Chrome 67.0.3396.99,,2018-07-26 14:45:55,2018-07-26 14:45:56,0.604s,PASSED
click,Chrome 67.0.3396.99,,2018-07-26 14:45:56,2018-07-26 14:45:57,1.103s,PASSED
focus,Chrome 67.0.3396.99,,2018-07-26 14:45:57,2018-07-26 14:45:58,1.227s,PASSED
delay,Chrome 67.0.3396.99,,2018-07-26 14:45:58,2018-07-26 14:45:59,1.020s,PASSED
click,Chrome 67.0.3396.99,,2018-07-26 14:45:59,2018-07-26 14:45:59,0.077s,PASSED
delay,Chrome 67.0.3396.99,,2018-07-26 14:45:59,2018-07-26 14:46:00,1.002s,PASSED
click,Chrome 67.0.3396.99,,2018-07-26 14:46:00,2018-07-26 14:46:00,0.079s,PASSED
waitForElementVisible,Chrome 67.0.3396.99,,2018-07-26 14:46:00,2018-07-26 14:46:02,1.136s,PASSED
Statement - rowSize_before = getTableRowCount(),Chrome 67.0.3396.99,,2018-07-26 14:46:02,2018-07-26 14:46:02,0.000s,PASSED
Statement - driver = com.kms.katalon.core.webui.driver.DriverFactory.getWebDriver(),Chrome 67.0.3396.99,,2018-07-26 14:46:02,2018-07-26 14:46:02,0.000s,PASSED
"Statement - Table = driver.findElement(org.openqa.selenium.By.xpath(""//table[@class='mainTable']""))",Chrome 67.0.3396.99,,2018-07-26 14:46:02,2018-07-26 14:46:02,0.018s,PASSED
"Statement - rows_table = Table.findElements(org.openqa.selenium.By.tagName(""tr""))",Chrome 67.0.3396.99,,2018-07-26 14:46:02,2018-07-26 14:46:02,0.017s,PASSED
Statement - return rows_table.size(),Chrome 67.0.3396.99,,2018-07-26 14:46:02,2018-07-26 14:46:02,0.000s,PASSED
Statement - arrayLength = arrayLength,Chrome 67.0.3396.99,,2018-07-26 14:46:02,2018-07-26 14:46:02,0.000s,PASSED
"Statement - For ([i = 0, i < arrayLength, (i++)])",Chrome 67.0.3396.99,,2018-07-26 14:46:02,2018-07-26 14:46:04,2.085s,PASSED
Statement - timeTypeValue = workday_time[i][0].toString(),Chrome 67.0.3396.99,,2018-07-26 14:46:04,2018-07-26 14:46:04,0.003s,PASSED
Statement - If (verifyTaskIsPresent(timeTypeValue) != 0),Chrome 67.0.3396.99,,2018-07-26 14:46:04,2018-07-26 14:46:04,0.000s,PASSED
Statement - rows_size = getTableRowCount() - 2,Chrome 67.0.3396.99,,2018-07-26 14:46:04,2018-07-26 14:46:04,0.000s,PASSED
Statement - driver = com.kms.katalon.core.webui.driver.DriverFactory.getWebDriver(),Chrome 67.0.3396.99,,2018-07-26 14:46:04,2018-07-26 14:46:04,0.000s,PASSED
"Statement - Table = driver.findElement(org.openqa.selenium.By.xpath(""//table[@class='mainTable']""))",Chrome 67.0.3396.99,,2018-07-26 14:46:04,2018-07-26 14:46:04,0.011s,PASSED
"Statement - rows_table = Table.findElements(org.openqa.selenium.By.tagName(""tr""))",Chrome 67.0.3396.99,,2018-07-26 14:46:04,2018-07-26 14:46:04,0.011s,PASSED
Statement - return rows_table.size(),Chrome 67.0.3396.99,,2018-07-26 14:46:04,2018-07-26 14:46:04,0.000s,PASSED
"Statement - For ([x = 1, x <= rows_size, (x++)])",Chrome 67.0.3396.99,,2018-07-26 14:46:04,2018-07-26 14:46:04,0.075s,PASSED
"Statement - tok = new java.util.StringTokenizer(timeType_navision.toLowerCase(),  )",Chrome 67.0.3396.99,,2018-07-26 14:46:04,2018-07-26 14:46:04,0.003s,PASSED
Statement - While (tok.hasMoreTokens()),Chrome 67.0.3396.99,,2018-07-26 14:46:04,2018-07-26 14:46:04,0.014s,FAILED
