Suite/Test/Step Name,Browser,Description,Start time,End time,Duration,Status
Timesheet,Chrome 67.0.3396.99,,2018-07-11 12:57:29,2018-07-11 12:59:16,1m - 47.028s,ERROR
,,,,,,
Test Cases/Login to Navision,Chrome 67.0.3396.99,,2018-07-11 12:57:29,2018-07-11 12:58:05,35.195s,PASSED
openBrowser,Chrome 67.0.3396.99,,2018-07-11 12:57:30,2018-07-11 12:57:59,29.289s,PASSED
waitForElementPresent,Chrome 67.0.3396.99,,2018-07-11 12:57:59,2018-07-11 12:57:59,0.086s,PASSED
navigateToUrl,Chrome 67.0.3396.99,,2018-07-11 12:57:59,2018-07-11 12:57:59,0.239s,PASSED
waitForElementPresent,Chrome 67.0.3396.99,,2018-07-11 12:57:59,2018-07-11 12:57:59,0.021s,PASSED
maximizeWindow,Chrome 67.0.3396.99,,2018-07-11 12:57:59,2018-07-11 12:58:01,1.139s,PASSED
click,Chrome 67.0.3396.99,,2018-07-11 12:58:01,2018-07-11 12:58:01,0.088s,PASSED
click,Chrome 67.0.3396.99,,2018-07-11 12:58:01,2018-07-11 12:58:01,0.596s,PASSED
waitForElementPresent,Chrome 67.0.3396.99,,2018-07-11 12:58:01,2018-07-11 12:58:02,0.538s,PASSED
switchToFrame,Chrome 67.0.3396.99,,2018-07-11 12:58:02,2018-07-11 12:58:02,0.054s,PASSED
Statement - driver = com.kms.katalon.core.webui.driver.DriverFactory.getWebDriver(),Chrome 67.0.3396.99,To locate table,2018-07-11 12:58:02,2018-07-11 12:58:02,0.007s,PASSED
"Statement - Table = driver.findElement(org.openqa.selenium.By.xpath(""//table[(@summary = 'Time Sheet')]//tbody""))",Chrome 67.0.3396.99,,2018-07-11 12:58:02,2018-07-11 12:58:02,0.035s,PASSED
"Statement - rows_table = Table.findElements(org.openqa.selenium.By.tagName(""tr""))",Chrome 67.0.3396.99,To locate rows of table it will Capture all the rows available in the table,2018-07-11 12:58:02,2018-07-11 12:58:02,0.026s,PASSED
Statement - rows_count = rows_table.size() - 1,Chrome 67.0.3396.99,To calculate no of rows In table,2018-07-11 12:58:02,2018-07-11 12:58:02,0.003s,PASSED
"Statement - println(""No. of rows: "" + rows_count)",Chrome 67.0.3396.99,,2018-07-11 12:58:02,2018-07-11 12:58:02,0.003s,PASSED
Statement - workday_time = <not implemented yet for class: org.codehaus.groovy.ast.expr.EmptyExpression>,Chrome 67.0.3396.99,,2018-07-11 12:58:02,2018-07-11 12:58:02,0.001s,PASSED
Statement - workday_time = [],Chrome 67.0.3396.99,,2018-07-11 12:58:02,2018-07-11 12:58:02,0.001s,PASSED
"Statement - For ([i = 0, i < rows_count, (i++)])",Chrome 67.0.3396.99,Loop will execute for all the rows of the table,2018-07-11 12:58:02,2018-07-11 12:58:04,1.871s,PASSED
Statement - arrayLength = workday_time.size(),Chrome 67.0.3396.99,,2018-07-11 12:58:04,2018-07-11 12:58:04,0.002s,PASSED
Statement - arrayLength = arrayLength,Chrome 67.0.3396.99,,2018-07-11 12:58:04,2018-07-11 12:58:04,0.009s,PASSED
Statement - workday_time = workday_time,Chrome 67.0.3396.99,,2018-07-11 12:58:04,2018-07-11 12:58:04,0.000s,PASSED
Statement - println(workday_time),Chrome 67.0.3396.99,,2018-07-11 12:58:04,2018-07-11 12:58:04,0.001s,PASSED
Statement - println(arrayLength),Chrome 67.0.3396.99,,2018-07-11 12:58:04,2018-07-11 12:58:04,0.000s,PASSED
closeBrowser,Chrome 67.0.3396.99,,2018-07-11 12:58:04,2018-07-11 12:58:05,0.693s,PASSED
,,,,,,
Test Cases/Login in to workday,Chrome 67.0.3396.99,,2018-07-11 12:58:05,2018-07-11 12:59:15,1m - 10.783s,ERROR
openBrowser,Chrome 67.0.3396.99,,2018-07-11 12:58:05,2018-07-11 12:58:32,26.888s,PASSED
navigateToUrl,Chrome 67.0.3396.99,,2018-07-11 12:58:32,2018-07-11 12:58:33,1.145s,PASSED
setText,Chrome 67.0.3396.99,,2018-07-11 12:58:33,2018-07-11 12:58:38,5.048s,PASSED
setText,Chrome 67.0.3396.99,,2018-07-11 12:58:38,2018-07-11 12:58:38,0.126s,PASSED
click,Chrome 67.0.3396.99,,2018-07-11 12:58:38,2018-07-11 12:58:38,0.101s,PASSED
click,Chrome 67.0.3396.99,,2018-07-11 12:58:38,2018-07-11 12:58:43,4.815s,PASSED
maximizeWindow,Chrome 67.0.3396.99,,2018-07-11 12:58:43,2018-07-11 12:58:44,1.135s,PASSED
click,Chrome 67.0.3396.99,,2018-07-11 12:58:44,2018-07-11 12:58:44,0.083s,PASSED
click,Chrome 67.0.3396.99,,2018-07-11 12:58:44,2018-07-11 12:58:46,1.101s,PASSED
click,Chrome 67.0.3396.99,,2018-07-11 12:58:46,2018-07-11 12:58:47,1.106s,PASSED
click,Chrome 67.0.3396.99,,2018-07-11 12:58:47,2018-07-11 12:58:47,0.132s,PASSED
waitForElementPresent,Chrome 67.0.3396.99,,2018-07-11 12:58:47,2018-07-11 12:58:47,0.027s,PASSED
waitForElementPresent,Chrome 67.0.3396.99,,2018-07-11 12:58:47,2018-07-11 12:58:47,0.024s,PASSED
waitForElementPresent,Chrome 67.0.3396.99,,2018-07-11 12:58:47,2018-07-11 12:58:47,0.016s,PASSED
waitForElementPresent,Chrome 67.0.3396.99,,2018-07-11 12:58:47,2018-07-11 12:58:47,0.026s,PASSED
sendKeys,Chrome 67.0.3396.99,,2018-07-11 12:58:47,2018-07-11 12:58:47,0.090s,PASSED
waitForElementVisible,Chrome 67.0.3396.99,,2018-07-11 12:58:47,2018-07-11 12:58:48,1.109s,PASSED
Statement - driver = com.kms.katalon.core.webui.driver.DriverFactory.getWebDriver(),Chrome 67.0.3396.99,,2018-07-11 12:58:48,2018-07-11 12:58:48,0.000s,PASSED
"Statement - Table = driver.findElement(org.openqa.selenium.By.xpath(""//table[@class='mainTable']""))",Chrome 67.0.3396.99,,2018-07-11 12:58:48,2018-07-11 12:58:48,0.018s,PASSED
"Statement - rows_table = Table.findElements(org.openqa.selenium.By.tagName(""tr""))",Chrome 67.0.3396.99,,2018-07-11 12:58:48,2018-07-11 12:58:48,0.017s,PASSED
"Statement - For ([i = 0, i < arrayLength, (i++)])",Chrome 67.0.3396.99,,2018-07-11 12:58:48,2018-07-11 12:58:48,0.113s,PASSED
Statement - timeTypeValue = workday_time[i][0].toString(),Chrome 67.0.3396.99,,2018-07-11 12:58:48,2018-07-11 12:58:48,0.004s,PASSED
Statement - charLength = timeTypeValue.length(),Chrome 67.0.3396.99,,2018-07-11 12:58:48,2018-07-11 12:58:48,0.001s,PASSED
waitForAngularLoad,Chrome 67.0.3396.99,,2018-07-11 12:58:48,2018-07-11 12:58:48,0.023s,PASSED
click,Chrome 67.0.3396.99,,2018-07-11 12:58:48,2018-07-11 12:58:48,0.144s,PASSED
"Statement - For ([x = 0, x < charLength, (x++)])",Chrome 67.0.3396.99,,2018-07-11 12:58:48,2018-07-11 12:58:51,2.272s,PASSED
sendKeys,Chrome 67.0.3396.99,,2018-07-11 12:58:51,2018-07-11 12:58:51,0.039s,PASSED
waitForElementPresent,Chrome 67.0.3396.99,,2018-07-11 12:58:51,2018-07-11 12:58:51,0.535s,PASSED
waitForAngularLoad,Chrome 67.0.3396.99,,2018-07-11 12:58:51,2018-07-11 12:58:51,0.006s,PASSED
click,Chrome 67.0.3396.99,,2018-07-11 12:58:51,2018-07-11 12:58:51,0.074s,PASSED
sendKeys,Chrome 67.0.3396.99,,2018-07-11 12:58:51,2018-07-11 12:58:51,0.083s,PASSED
click,Chrome 67.0.3396.99,,2018-07-11 12:58:51,2018-07-11 12:58:51,0.084s,PASSED
sendKeys,Chrome 67.0.3396.99,,2018-07-11 12:58:51,2018-07-11 12:58:52,0.110s,PASSED
click,Chrome 67.0.3396.99,,2018-07-11 12:58:52,2018-07-11 12:58:52,0.070s,PASSED
sendKeys,Chrome 67.0.3396.99,,2018-07-11 12:58:52,2018-07-11 12:58:52,0.049s,PASSED
click,Chrome 67.0.3396.99,,2018-07-11 12:58:52,2018-07-11 12:58:52,0.068s,PASSED
sendKeys,Chrome 67.0.3396.99,,2018-07-11 12:58:52,2018-07-11 12:58:52,0.049s,PASSED
click,Chrome 67.0.3396.99,,2018-07-11 12:58:52,2018-07-11 12:58:52,0.101s,PASSED
sendKeys,Chrome 67.0.3396.99,,2018-07-11 12:58:52,2018-07-11 12:58:52,0.134s,PASSED
Statement - timeTypeValue = workday_time[i][0].toString(),Chrome 67.0.3396.99,,2018-07-11 12:58:52,2018-07-11 12:58:52,0.001s,PASSED
Statement - charLength = timeTypeValue.length(),Chrome 67.0.3396.99,,2018-07-11 12:58:52,2018-07-11 12:58:52,0.000s,PASSED
waitForAngularLoad,Chrome 67.0.3396.99,,2018-07-11 12:58:52,2018-07-11 12:58:52,0.008s,PASSED
click,Chrome 67.0.3396.99,,2018-07-11 12:58:52,2018-07-11 12:58:52,0.075s,PASSED
"Statement - For ([x = 0, x < charLength, (x++)])",Chrome 67.0.3396.99,,2018-07-11 12:58:52,2018-07-11 12:58:54,1.894s,PASSED
sendKeys,Chrome 67.0.3396.99,,2018-07-11 12:58:54,2018-07-11 12:58:54,0.040s,PASSED
waitForElementPresent,Chrome 67.0.3396.99,,2018-07-11 12:58:54,2018-07-11 12:59:15,20.465s,PASSED
waitForAngularLoad,Chrome 67.0.3396.99,,2018-07-11 12:59:15,2018-07-11 12:59:15,0.009s,PASSED
click,Chrome 67.0.3396.99,,2018-07-11 12:59:15,2018-07-11 12:59:15,0.097s,PASSED
sendKeys,Chrome 67.0.3396.99,,2018-07-11 12:59:15,2018-07-11 12:59:15,0.096s,PASSED
click,Chrome 67.0.3396.99,,2018-07-11 12:59:15,2018-07-11 12:59:15,0.101s,PASSED
sendKeys,Chrome 67.0.3396.99,,2018-07-11 12:59:15,2018-07-11 12:59:15,0.054s,PASSED
click,Chrome 67.0.3396.99,,2018-07-11 12:59:15,2018-07-11 12:59:15,0.083s,PASSED
sendKeys,Chrome 67.0.3396.99,,2018-07-11 12:59:15,2018-07-11 12:59:15,0.075s,PASSED
click,Chrome 67.0.3396.99,,2018-07-11 12:59:15,2018-07-11 12:59:15,0.075s,PASSED
sendKeys,Chrome 67.0.3396.99,,2018-07-11 12:59:15,2018-07-11 12:59:15,0.052s,PASSED
click,Chrome 67.0.3396.99,,2018-07-11 12:59:15,2018-07-11 12:59:15,0.082s,PASSED
sendKeys,Chrome 67.0.3396.99,,2018-07-11 12:59:15,2018-07-11 12:59:15,0.051s,PASSED
