Suite/Test/Step Name,Browser,Description,Start time,End time,Duration,Status
Timesheet,Chrome 67.0.3396.87,,2018-07-03 15:45:35,2018-07-03 15:46:59,1m - 24.399s,ERROR
,,,,,,
Test Cases/Login to Navision,Chrome 67.0.3396.87,,2018-07-03 15:45:35,2018-07-03 15:46:16,40.641s,PASSED
openBrowser,Chrome 67.0.3396.87,,2018-07-03 15:45:36,2018-07-03 15:46:11,35.083s,PASSED
waitForElementPresent,Chrome 67.0.3396.87,,2018-07-03 15:46:11,2018-07-03 15:46:11,0.124s,PASSED
navigateToUrl,Chrome 67.0.3396.87,,2018-07-03 15:46:11,2018-07-03 15:46:11,0.404s,PASSED
waitForElementPresent,Chrome 67.0.3396.87,,2018-07-03 15:46:11,2018-07-03 15:46:11,0.021s,PASSED
maximizeWindow,Chrome 67.0.3396.87,,2018-07-03 15:46:11,2018-07-03 15:46:12,1.147s,PASSED
click,Chrome 67.0.3396.87,,2018-07-03 15:46:12,2018-07-03 15:46:13,0.080s,PASSED
click,Chrome 67.0.3396.87,,2018-07-03 15:46:13,2018-07-03 15:46:13,0.591s,PASSED
waitForElementPresent,Chrome 67.0.3396.87,,2018-07-03 15:46:13,2018-07-03 15:46:14,0.536s,PASSED
switchToFrame,Chrome 67.0.3396.87,,2018-07-03 15:46:14,2018-07-03 15:46:14,0.051s,PASSED
Statement - driver = com.kms.katalon.core.webui.driver.DriverFactory.getWebDriver(),Chrome 67.0.3396.87,To locate table,2018-07-03 15:46:14,2018-07-03 15:46:14,0.006s,PASSED
"Statement - Table = driver.findElement(org.openqa.selenium.By.xpath(""//table[(@summary = 'Time Sheet')]//tbody""))",Chrome 67.0.3396.87,,2018-07-03 15:46:14,2018-07-03 15:46:14,0.047s,PASSED
"Statement - rows_table = Table.findElements(org.openqa.selenium.By.tagName(""tr""))",Chrome 67.0.3396.87,To locate rows of table it will Capture all the rows available in the table,2018-07-03 15:46:14,2018-07-03 15:46:14,0.024s,PASSED
Statement - rows_count = rows_table.size() - 1,Chrome 67.0.3396.87,To calculate no of rows In table,2018-07-03 15:46:14,2018-07-03 15:46:14,0.002s,PASSED
"Statement - println(""No. of rows: "" + rows_count)",Chrome 67.0.3396.87,,2018-07-03 15:46:14,2018-07-03 15:46:14,0.003s,PASSED
Statement - workday_time = <not implemented yet for class: org.codehaus.groovy.ast.expr.EmptyExpression>,Chrome 67.0.3396.87,,2018-07-03 15:46:14,2018-07-03 15:46:14,0.001s,PASSED
Statement - workday_time = [],Chrome 67.0.3396.87,,2018-07-03 15:46:14,2018-07-03 15:46:14,0.001s,PASSED
"Statement - For ([i = 0, i < rows_count, (i++)])",Chrome 67.0.3396.87,Loop will execute for all the rows of the table,2018-07-03 15:46:14,2018-07-03 15:46:15,1.141s,PASSED
Statement - arrayLength = workday_time.size(),Chrome 67.0.3396.87,,2018-07-03 15:46:15,2018-07-03 15:46:15,0.013s,PASSED
Statement - workday_time = workday_time,Chrome 67.0.3396.87,,2018-07-03 15:46:15,2018-07-03 15:46:15,0.001s,PASSED
Statement - println(workday_time),Chrome 67.0.3396.87,,2018-07-03 15:46:15,2018-07-03 15:46:15,0.000s,PASSED
Statement - println(arrayLength),Chrome 67.0.3396.87,,2018-07-03 15:46:15,2018-07-03 15:46:15,0.001s,PASSED
closeBrowser,Chrome 67.0.3396.87,,2018-07-03 15:46:15,2018-07-03 15:46:16,0.848s,PASSED
,,,,,,
Test Cases/Login in to workday,Chrome 67.0.3396.87,,2018-07-03 15:46:16,2018-07-03 15:46:58,42.450s,ERROR
openBrowser,Chrome 67.0.3396.87,,2018-07-03 15:46:16,2018-07-03 15:46:43,27.078s,PASSED
navigateToUrl,Chrome 67.0.3396.87,,2018-07-03 15:46:43,2018-07-03 15:46:44,1.144s,PASSED
setText,Chrome 67.0.3396.87,,2018-07-03 15:46:44,2018-07-03 15:46:47,2.522s,PASSED
setText,Chrome 67.0.3396.87,,2018-07-03 15:46:47,2018-07-03 15:46:47,0.128s,PASSED
click,Chrome 67.0.3396.87,,2018-07-03 15:46:47,2018-07-03 15:46:47,0.113s,PASSED
click,Chrome 67.0.3396.87,,2018-07-03 15:46:47,2018-07-03 15:46:53,5.650s,PASSED
maximizeWindow,Chrome 67.0.3396.87,,2018-07-03 15:46:53,2018-07-03 15:46:54,1.131s,PASSED
click,Chrome 67.0.3396.87,,2018-07-03 15:46:54,2018-07-03 15:46:54,0.262s,PASSED
click,Chrome 67.0.3396.87,,2018-07-03 15:46:54,2018-07-03 15:46:55,1.159s,PASSED
click,Chrome 67.0.3396.87,,2018-07-03 15:46:55,2018-07-03 15:46:57,1.122s,PASSED
click,Chrome 67.0.3396.87,,2018-07-03 15:46:57,2018-07-03 15:46:57,0.176s,PASSED
waitForElementVisible,Chrome 67.0.3396.87,,2018-07-03 15:46:57,2018-07-03 15:46:57,0.064s,PASSED
click,Chrome 67.0.3396.87,,2018-07-03 15:46:57,2018-07-03 15:46:57,0.087s,PASSED
waitForElementVisible,Chrome 67.0.3396.87,,2018-07-03 15:46:57,2018-07-03 15:46:57,0.077s,PASSED
sendKeys,Chrome 67.0.3396.87,,2018-07-03 15:46:57,2018-07-03 15:46:57,0.077s,PASSED
waitForElementVisible,Chrome 67.0.3396.87,,2018-07-03 15:46:57,2018-07-03 15:46:58,1.145s,PASSED
Statement - driver = com.kms.katalon.core.webui.driver.DriverFactory.getWebDriver(),Chrome 67.0.3396.87,,2018-07-03 15:46:58,2018-07-03 15:46:58,0.000s,PASSED
"Statement - Table = driver.findElement(org.openqa.selenium.By.xpath(""//table[@class='mainTable']""))",Chrome 67.0.3396.87,,2018-07-03 15:46:58,2018-07-03 15:46:58,0.017s,PASSED
"Statement - rows_table = Table.findElements(org.openqa.selenium.By.tagName(""tr""))",Chrome 67.0.3396.87,,2018-07-03 15:46:58,2018-07-03 15:46:58,0.019s,PASSED
Statement - println(arrayLength),Chrome 67.0.3396.87,,2018-07-03 15:46:58,2018-07-03 15:46:58,0.001s,PASSED
Statement - println(workday_time),Chrome 67.0.3396.87,,2018-07-03 15:46:58,2018-07-03 15:46:58,0.001s,PASSED
"Statement - For ([i = 0, i < arrayLength, (i++)])",Chrome 67.0.3396.87,,2018-07-03 15:46:58,2018-07-03 15:46:58,0.038s,PASSED
