Suite/Test/Step Name,Browser,Description,Start time,End time,Duration,Status
Timesheet,Chrome 67.0.3396.87,,2018-07-03 14:52:06,2018-07-03 14:53:31,1m - 25.445s,FAILED
,,,,,,
Test Cases/Login to Navision,Chrome 67.0.3396.87,,2018-07-03 14:52:06,2018-07-03 14:52:46,39.276s,PASSED
openBrowser,Chrome 67.0.3396.87,,2018-07-03 14:52:07,2018-07-03 14:52:41,33.665s,PASSED
waitForElementPresent,Chrome 67.0.3396.87,,2018-07-03 14:52:41,2018-07-03 14:52:41,0.116s,PASSED
navigateToUrl,Chrome 67.0.3396.87,,2018-07-03 14:52:41,2018-07-03 14:52:41,0.371s,PASSED
waitForElementPresent,Chrome 67.0.3396.87,,2018-07-03 14:52:41,2018-07-03 14:52:41,0.022s,PASSED
maximizeWindow,Chrome 67.0.3396.87,,2018-07-03 14:52:41,2018-07-03 14:52:42,1.144s,PASSED
click,Chrome 67.0.3396.87,,2018-07-03 14:52:42,2018-07-03 14:52:42,0.096s,PASSED
click,Chrome 67.0.3396.87,,2018-07-03 14:52:42,2018-07-03 14:52:43,0.591s,PASSED
waitForElementPresent,Chrome 67.0.3396.87,,2018-07-03 14:52:43,2018-07-03 14:52:44,0.542s,PASSED
switchToFrame,Chrome 67.0.3396.87,,2018-07-03 14:52:44,2018-07-03 14:52:44,0.050s,PASSED
Statement - driver = com.kms.katalon.core.webui.driver.DriverFactory.getWebDriver(),Chrome 67.0.3396.87,To locate table,2018-07-03 14:52:44,2018-07-03 14:52:44,0.006s,PASSED
"Statement - Table = driver.findElement(org.openqa.selenium.By.xpath(""//table[(@summary = 'Time Sheet')]//tbody""))",Chrome 67.0.3396.87,,2018-07-03 14:52:44,2018-07-03 14:52:44,0.047s,PASSED
"Statement - rows_table = Table.findElements(org.openqa.selenium.By.tagName(""tr""))",Chrome 67.0.3396.87,To locate rows of table it will Capture all the rows available in the table,2018-07-03 14:52:44,2018-07-03 14:52:44,0.034s,PASSED
Statement - rows_count = rows_table.size() - 1,Chrome 67.0.3396.87,To calculate no of rows In table,2018-07-03 14:52:44,2018-07-03 14:52:44,0.003s,PASSED
"Statement - println(""No. of rows: "" + rows_count)",Chrome 67.0.3396.87,,2018-07-03 14:52:44,2018-07-03 14:52:44,0.003s,PASSED
Statement - workday_time = <not implemented yet for class: org.codehaus.groovy.ast.expr.EmptyExpression>,Chrome 67.0.3396.87,,2018-07-03 14:52:44,2018-07-03 14:52:44,0.002s,PASSED
Statement - workday_time = [],Chrome 67.0.3396.87,,2018-07-03 14:52:44,2018-07-03 14:52:44,0.001s,PASSED
"Statement - For ([i = 0, i < rows_count, (i++)])",Chrome 67.0.3396.87,Loop will execute for all the rows of the table,2018-07-03 14:52:44,2018-07-03 14:52:45,1.179s,PASSED
Statement - arrayLength = workday_time.size(),Chrome 67.0.3396.87,,2018-07-03 14:52:45,2018-07-03 14:52:45,0.001s,PASSED
Statement - println(workday_time),Chrome 67.0.3396.87,,2018-07-03 14:52:45,2018-07-03 14:52:45,0.000s,PASSED
Statement - println(arrayLength),Chrome 67.0.3396.87,,2018-07-03 14:52:45,2018-07-03 14:52:45,0.001s,PASSED
closeBrowser,Chrome 67.0.3396.87,,2018-07-03 14:52:45,2018-07-03 14:52:46,0.819s,PASSED
,,,,,,
Test Cases/Login in to workday,Chrome 67.0.3396.87,,2018-07-03 14:52:46,2018-07-03 14:53:31,44.905s,FAILED
openBrowser,Chrome 67.0.3396.87,,2018-07-03 14:52:46,2018-07-03 14:53:13,26.994s,PASSED
navigateToUrl,Chrome 67.0.3396.87,,2018-07-03 14:53:13,2018-07-03 14:53:14,1.149s,PASSED
setText,Chrome 67.0.3396.87,,2018-07-03 14:53:14,2018-07-03 14:53:20,5.462s,PASSED
setText,Chrome 67.0.3396.87,,2018-07-03 14:53:20,2018-07-03 14:53:20,0.136s,PASSED
click,Chrome 67.0.3396.87,,2018-07-03 14:53:20,2018-07-03 14:53:20,0.086s,PASSED
click,Chrome 67.0.3396.87,,2018-07-03 14:53:20,2018-07-03 14:53:25,5.117s,PASSED
maximizeWindow,Chrome 67.0.3396.87,,2018-07-03 14:53:25,2018-07-03 14:53:26,1.129s,PASSED
click,Chrome 67.0.3396.87,,2018-07-03 14:53:26,2018-07-03 14:53:27,0.588s,PASSED
click,Chrome 67.0.3396.87,,2018-07-03 14:53:27,2018-07-03 14:53:28,1.137s,PASSED
click,Chrome 67.0.3396.87,,2018-07-03 14:53:28,2018-07-03 14:53:29,1.129s,PASSED
click,Chrome 67.0.3396.87,,2018-07-03 14:53:29,2018-07-03 14:53:29,0.131s,PASSED
waitForElementVisible,Chrome 67.0.3396.87,,2018-07-03 14:53:29,2018-07-03 14:53:29,0.080s,PASSED
click,Chrome 67.0.3396.87,,2018-07-03 14:53:29,2018-07-03 14:53:29,0.060s,PASSED
waitForElementVisible,Chrome 67.0.3396.87,,2018-07-03 14:53:29,2018-07-03 14:53:29,0.021s,PASSED
sendKeys,Chrome 67.0.3396.87,,2018-07-03 14:53:29,2018-07-03 14:53:29,0.072s,PASSED
waitForElementVisible,Chrome 67.0.3396.87,,2018-07-03 14:53:29,2018-07-03 14:53:30,1.072s,PASSED
Statement - driver = com.kms.katalon.core.webui.driver.DriverFactory.getWebDriver(),Chrome 67.0.3396.87,,2018-07-03 14:53:30,2018-07-03 14:53:30,0.001s,PASSED
"Statement - Table = driver.findElement(org.openqa.selenium.By.xpath(""//table[@class='mainTable']""))",Chrome 67.0.3396.87,,2018-07-03 14:53:30,2018-07-03 14:53:30,0.016s,PASSED
"Statement - rows_table = Table.findElements(org.openqa.selenium.By.tagName(""tr""))",Chrome 67.0.3396.87,,2018-07-03 14:53:30,2018-07-03 14:53:30,0.020s,PASSED
Statement - arrayLength = <not implemented yet for class: org.codehaus.groovy.ast.expr.EmptyExpression>,Chrome 67.0.3396.87,,2018-07-03 14:53:30,2018-07-03 14:53:30,0.001s,PASSED
Statement - workday_time = <not implemented yet for class: org.codehaus.groovy.ast.expr.EmptyExpression>,Chrome 67.0.3396.87,,2018-07-03 14:53:30,2018-07-03 14:53:30,0.000s,PASSED
callTestCase,Chrome 67.0.3396.87,,2018-07-03 14:53:30,2018-07-03 14:53:31,0.126s,FAILED
