Suite/Test/Step Name,Browser,Description,Start time,End time,Duration,Status
Timesheet,Chrome 67.0.3396.99,,2018-08-03 12:31:13,2018-08-03 12:32:46,1m - 33.323s,ERROR
,,,,,,
Test Cases/Login to Navision,Chrome 67.0.3396.99,,2018-08-03 12:31:13,2018-08-03 12:32:01,47.785s,PASSED
openBrowser,Chrome 67.0.3396.99,,2018-08-03 12:31:14,2018-08-03 12:31:56,41.637s,PASSED
waitForElementPresent,Chrome 67.0.3396.99,,2018-08-03 12:31:56,2018-08-03 12:31:56,0.105s,PASSED
navigateToUrl,Chrome 67.0.3396.99,,2018-08-03 12:31:56,2018-08-03 12:31:56,0.253s,PASSED
waitForElementPresent,Chrome 67.0.3396.99,,2018-08-03 12:31:56,2018-08-03 12:31:56,0.027s,PASSED
maximizeWindow,Chrome 67.0.3396.99,,2018-08-03 12:31:56,2018-08-03 12:31:57,1.146s,PASSED
click,Chrome 67.0.3396.99,,2018-08-03 12:31:57,2018-08-03 12:31:57,0.099s,PASSED
click,Chrome 67.0.3396.99,,2018-08-03 12:31:57,2018-08-03 12:31:58,0.587s,PASSED
waitForElementPresent,Chrome 67.0.3396.99,,2018-08-03 12:31:58,2018-08-03 12:31:58,0.616s,PASSED
switchToFrame,Chrome 67.0.3396.99,,2018-08-03 12:31:58,2018-08-03 12:31:58,0.072s,PASSED
Statement - driver = com.kms.katalon.core.webui.driver.DriverFactory.getWebDriver(),Chrome 67.0.3396.99,To locate table,2018-08-03 12:31:58,2018-08-03 12:31:58,0.010s,PASSED
"Statement - Table = driver.findElement(org.openqa.selenium.By.xpath(""//table[(@summary = 'Time Sheet')]//tbody""))",Chrome 67.0.3396.99,,2018-08-03 12:31:58,2018-08-03 12:31:58,0.039s,PASSED
"Statement - rows_table = Table.findElements(org.openqa.selenium.By.tagName(""tr""))",Chrome 67.0.3396.99,To locate rows of table it will Capture all the rows available in the table,2018-08-03 12:31:58,2018-08-03 12:31:58,0.023s,PASSED
Statement - rows_count = rows_table.size() - 1,Chrome 67.0.3396.99,To calculate no of rows In table,2018-08-03 12:31:58,2018-08-03 12:31:58,0.003s,PASSED
"Statement - println(""No. of rows: "" + rows_count)",Chrome 67.0.3396.99,,2018-08-03 12:31:58,2018-08-03 12:31:58,0.003s,PASSED
Statement - workday_time = <not implemented yet for class: org.codehaus.groovy.ast.expr.EmptyExpression>,Chrome 67.0.3396.99,,2018-08-03 12:31:58,2018-08-03 12:31:58,0.002s,PASSED
Statement - workday_time = [],Chrome 67.0.3396.99,,2018-08-03 12:31:58,2018-08-03 12:31:58,0.001s,PASSED
"Statement - For ([i = 0, i < rows_count, (i++)])",Chrome 67.0.3396.99,Loop will execute for all the rows of the table,2018-08-03 12:31:58,2018-08-03 12:32:00,1.959s,PASSED
Statement - arrayLength = workday_time.size(),Chrome 67.0.3396.99,,2018-08-03 12:32:00,2018-08-03 12:32:00,0.002s,PASSED
Statement - arrayLength = arrayLength,Chrome 67.0.3396.99,,2018-08-03 12:32:00,2018-08-03 12:32:00,0.008s,PASSED
Statement - workday_time = workday_time,Chrome 67.0.3396.99,,2018-08-03 12:32:00,2018-08-03 12:32:00,0.000s,PASSED
Statement - println(workday_time),Chrome 67.0.3396.99,,2018-08-03 12:32:00,2018-08-03 12:32:00,0.003s,PASSED
Statement - println(arrayLength),Chrome 67.0.3396.99,,2018-08-03 12:32:00,2018-08-03 12:32:00,0.000s,PASSED
closeBrowser,Chrome 67.0.3396.99,,2018-08-03 12:32:00,2018-08-03 12:32:01,0.759s,PASSED
,,,,,,
Test Cases/Login in to workday,Chrome 67.0.3396.99,,2018-08-03 12:32:01,2018-08-03 12:32:46,44.376s,ERROR
openBrowser,Chrome 67.0.3396.99,,2018-08-03 12:32:02,2018-08-03 12:32:29,27.089s,PASSED
navigateToUrl,Chrome 67.0.3396.99,,2018-08-03 12:32:29,2018-08-03 12:32:30,1.146s,PASSED
setText,Chrome 67.0.3396.99,,2018-08-03 12:32:30,2018-08-03 12:32:32,1.954s,PASSED
setText,Chrome 67.0.3396.99,,2018-08-03 12:32:32,2018-08-03 12:32:32,0.151s,PASSED
click,Chrome 67.0.3396.99,,2018-08-03 12:32:32,2018-08-03 12:32:32,0.095s,PASSED
click,Chrome 67.0.3396.99,,2018-08-03 12:32:32,2018-08-03 12:32:37,4.644s,PASSED
maximizeWindow,Chrome 67.0.3396.99,,2018-08-03 12:32:37,2018-08-03 12:32:38,1.141s,PASSED
click,Chrome 67.0.3396.99,,2018-08-03 12:32:38,2018-08-03 12:32:38,0.155s,PASSED
click,Chrome 67.0.3396.99,,2018-08-03 12:32:38,2018-08-03 12:32:39,1.172s,PASSED
focus,Chrome 67.0.3396.99,,2018-08-03 12:32:39,2018-08-03 12:32:41,1.296s,PASSED
delay,Chrome 67.0.3396.99,,2018-08-03 12:32:41,2018-08-03 12:32:42,1.022s,PASSED
click,Chrome 67.0.3396.99,,2018-08-03 12:32:42,2018-08-03 12:32:42,0.089s,PASSED
delay,Chrome 67.0.3396.99,,2018-08-03 12:32:42,2018-08-03 12:32:43,1.001s,PASSED
click,Chrome 67.0.3396.99,,2018-08-03 12:32:43,2018-08-03 12:32:43,0.081s,PASSED
waitForElementVisible,Chrome 67.0.3396.99,,2018-08-03 12:32:43,2018-08-03 12:32:44,1.356s,PASSED
Statement - rowSize_before = getTableRowCount(),Chrome 67.0.3396.99,,2018-08-03 12:32:44,2018-08-03 12:32:44,0.001s,PASSED
Statement - driver = com.kms.katalon.core.webui.driver.DriverFactory.getWebDriver(),Chrome 67.0.3396.99,,2018-08-03 12:32:44,2018-08-03 12:32:44,0.001s,PASSED
"Statement - Table = driver.findElement(org.openqa.selenium.By.xpath(""//table[@class='mainTable']""))",Chrome 67.0.3396.99,,2018-08-03 12:32:44,2018-08-03 12:32:44,0.016s,PASSED
"Statement - rows_table = Table.findElements(org.openqa.selenium.By.tagName(""tr""))",Chrome 67.0.3396.99,,2018-08-03 12:32:44,2018-08-03 12:32:44,0.015s,PASSED
Statement - return (rows_table.size() - 2),Chrome 67.0.3396.99,,2018-08-03 12:32:44,2018-08-03 12:32:44,0.000s,PASSED
Statement - arrayLength = arrayLength,Chrome 67.0.3396.99,,2018-08-03 12:32:44,2018-08-03 12:32:44,0.001s,PASSED
Statement - rows_size_refined = getTableRowCount(),Chrome 67.0.3396.99,,2018-08-03 12:32:44,2018-08-03 12:32:44,0.000s,PASSED
Statement - driver = com.kms.katalon.core.webui.driver.DriverFactory.getWebDriver(),Chrome 67.0.3396.99,,2018-08-03 12:32:44,2018-08-03 12:32:44,0.000s,PASSED
"Statement - Table = driver.findElement(org.openqa.selenium.By.xpath(""//table[@class='mainTable']""))",Chrome 67.0.3396.99,,2018-08-03 12:32:44,2018-08-03 12:32:44,0.011s,PASSED
"Statement - rows_table = Table.findElements(org.openqa.selenium.By.tagName(""tr""))",Chrome 67.0.3396.99,,2018-08-03 12:32:44,2018-08-03 12:32:44,0.014s,PASSED
Statement - return (rows_table.size() - 2),Chrome 67.0.3396.99,,2018-08-03 12:32:44,2018-08-03 12:32:44,0.000s,PASSED
Statement - existing_tasks = <not implemented yet for class: org.codehaus.groovy.ast.expr.EmptyExpression>,Chrome 67.0.3396.99,,2018-08-03 12:32:44,2018-08-03 12:32:44,0.001s,PASSED
Statement - existing_tasks = [],Chrome 67.0.3396.99,,2018-08-03 12:32:44,2018-08-03 12:32:44,0.000s,PASSED
Statement - existing_tasks_size = <not implemented yet for class: org.codehaus.groovy.ast.expr.EmptyExpression>,Chrome 67.0.3396.99,,2018-08-03 12:32:44,2018-08-03 12:32:44,0.001s,PASSED
"Statement - For ([x = 1, x <= rows_size_refined, (x++)])",Chrome 67.0.3396.99,,2018-08-03 12:32:44,2018-08-03 12:32:45,0.396s,PASSED
Statement - If (existing_tasks == [null]),Chrome 67.0.3396.99,,2018-08-03 12:32:45,2018-08-03 12:32:45,0.001s,PASSED
Statement - Else,Chrome 67.0.3396.99,,2018-08-03 12:32:45,2018-08-03 12:32:45,0.000s,PASSED
"Statement - For ([i = 0, i < arrayLength, (i++)])",Chrome 67.0.3396.99,,2018-08-03 12:32:45,2018-08-03 12:32:46,1.002s,PASSED
Statement - timeTypeValue = workday_time[i][0].toString(),Chrome 67.0.3396.99,,2018-08-03 12:32:46,2018-08-03 12:32:46,0.004s,PASSED
"Statement - result = verifyTaskIsPresent(timeTypeValue, rows, existing_tasks)",Chrome 67.0.3396.99,,2018-08-03 12:32:46,2018-08-03 12:32:46,0.000s,PASSED
"Statement - navision_job_split = timeType_navision.split("" "")",Chrome 67.0.3396.99,,2018-08-03 12:32:46,2018-08-03 12:32:46,0.001s,PASSED
Statement - arraySize = navision_job_split.size(),Chrome 67.0.3396.99,,2018-08-03 12:32:46,2018-08-03 12:32:46,0.001s,PASSED
Statement - result = <not implemented yet for class: org.codehaus.groovy.ast.expr.EmptyExpression>,Chrome 67.0.3396.99,,2018-08-03 12:32:46,2018-08-03 12:32:46,0.000s,PASSED
Statement - println(timeType_navision),Chrome 67.0.3396.99,,2018-08-03 12:32:46,2018-08-03 12:32:46,0.001s,PASSED
Statement - println(rows_size),Chrome 67.0.3396.99,,2018-08-03 12:32:46,2018-08-03 12:32:46,0.001s,PASSED
Statement - println(existing_tasks),Chrome 67.0.3396.99,,2018-08-03 12:32:46,2018-08-03 12:32:46,0.001s,PASSED
"Statement - For ([x = <not implemented yet for class: org.codehaus.groovy.ast.expr.EmptyExpression>, x < rows_size, (x++)])",Chrome 67.0.3396.99,,2018-08-03 12:32:46,2018-08-03 12:32:46,0.004s,PASSED
