Suite/Test/Step Name,Browser,Description,Start time,End time,Duration,Status
Timesheet,Chrome 67.0.3396.99,,2018-07-26 14:49:32,2018-07-26 14:50:56,1m - 23.651s,FAILED
,,,,,,
Test Cases/Login to Navision,Chrome 67.0.3396.99,,2018-07-26 14:49:32,2018-07-26 14:50:10,37.452s,PASSED
openBrowser,Chrome 67.0.3396.99,,2018-07-26 14:49:33,2018-07-26 14:50:05,32.574s,PASSED
waitForElementPresent,Chrome 67.0.3396.99,,2018-07-26 14:50:05,2018-07-26 14:50:05,0.078s,PASSED
navigateToUrl,Chrome 67.0.3396.99,,2018-07-26 14:50:05,2018-07-26 14:50:06,0.228s,PASSED
waitForElementPresent,Chrome 67.0.3396.99,,2018-07-26 14:50:06,2018-07-26 14:50:06,0.034s,PASSED
maximizeWindow,Chrome 67.0.3396.99,,2018-07-26 14:50:06,2018-07-26 14:50:07,1.143s,PASSED
click,Chrome 67.0.3396.99,,2018-07-26 14:50:07,2018-07-26 14:50:07,0.085s,PASSED
click,Chrome 67.0.3396.99,,2018-07-26 14:50:07,2018-07-26 14:50:08,0.590s,PASSED
waitForElementPresent,Chrome 67.0.3396.99,,2018-07-26 14:50:08,2018-07-26 14:50:08,0.537s,PASSED
switchToFrame,Chrome 67.0.3396.99,,2018-07-26 14:50:08,2018-07-26 14:50:08,0.051s,PASSED
Statement - driver = com.kms.katalon.core.webui.driver.DriverFactory.getWebDriver(),Chrome 67.0.3396.99,To locate table,2018-07-26 14:50:08,2018-07-26 14:50:08,0.006s,PASSED
"Statement - Table = driver.findElement(org.openqa.selenium.By.xpath(""//table[(@summary = 'Time Sheet')]//tbody""))",Chrome 67.0.3396.99,,2018-07-26 14:50:08,2018-07-26 14:50:08,0.036s,PASSED
"Statement - rows_table = Table.findElements(org.openqa.selenium.By.tagName(""tr""))",Chrome 67.0.3396.99,To locate rows of table it will Capture all the rows available in the table,2018-07-26 14:50:08,2018-07-26 14:50:08,0.035s,PASSED
Statement - rows_count = rows_table.size() - 1,Chrome 67.0.3396.99,To calculate no of rows In table,2018-07-26 14:50:08,2018-07-26 14:50:08,0.002s,PASSED
"Statement - println(""No. of rows: "" + rows_count)",Chrome 67.0.3396.99,,2018-07-26 14:50:08,2018-07-26 14:50:08,0.002s,PASSED
Statement - workday_time = <not implemented yet for class: org.codehaus.groovy.ast.expr.EmptyExpression>,Chrome 67.0.3396.99,,2018-07-26 14:50:08,2018-07-26 14:50:08,0.001s,PASSED
Statement - workday_time = [],Chrome 67.0.3396.99,,2018-07-26 14:50:08,2018-07-26 14:50:08,0.000s,PASSED
"Statement - For ([i = 0, i < rows_count, (i++)])",Chrome 67.0.3396.99,Loop will execute for all the rows of the table,2018-07-26 14:50:08,2018-07-26 14:50:09,0.811s,PASSED
Statement - arrayLength = workday_time.size(),Chrome 67.0.3396.99,,2018-07-26 14:50:09,2018-07-26 14:50:09,0.002s,PASSED
Statement - arrayLength = arrayLength,Chrome 67.0.3396.99,,2018-07-26 14:50:09,2018-07-26 14:50:09,0.011s,PASSED
Statement - workday_time = workday_time,Chrome 67.0.3396.99,,2018-07-26 14:50:09,2018-07-26 14:50:09,0.001s,PASSED
Statement - println(workday_time),Chrome 67.0.3396.99,,2018-07-26 14:50:09,2018-07-26 14:50:09,0.001s,PASSED
Statement - println(arrayLength),Chrome 67.0.3396.99,,2018-07-26 14:50:09,2018-07-26 14:50:09,0.001s,PASSED
closeBrowser,Chrome 67.0.3396.99,,2018-07-26 14:50:09,2018-07-26 14:50:10,0.749s,PASSED
,,,,,,
Test Cases/Login in to workday,Chrome 67.0.3396.99,,2018-07-26 14:50:10,2018-07-26 14:50:55,45.066s,FAILED
openBrowser,Chrome 67.0.3396.99,,2018-07-26 14:50:10,2018-07-26 14:50:37,26.952s,PASSED
navigateToUrl,Chrome 67.0.3396.99,,2018-07-26 14:50:37,2018-07-26 14:50:38,1.151s,PASSED
setText,Chrome 67.0.3396.99,,2018-07-26 14:50:38,2018-07-26 14:50:40,1.955s,PASSED
setText,Chrome 67.0.3396.99,,2018-07-26 14:50:40,2018-07-26 14:50:40,0.125s,PASSED
click,Chrome 67.0.3396.99,,2018-07-26 14:50:40,2018-07-26 14:50:40,0.081s,PASSED
click,Chrome 67.0.3396.99,,2018-07-26 14:50:40,2018-07-26 14:50:45,4.771s,PASSED
maximizeWindow,Chrome 67.0.3396.99,,2018-07-26 14:50:45,2018-07-26 14:50:46,1.130s,PASSED
click,Chrome 67.0.3396.99,,2018-07-26 14:50:46,2018-07-26 14:50:47,0.617s,PASSED
click,Chrome 67.0.3396.99,,2018-07-26 14:50:47,2018-07-26 14:50:48,1.106s,PASSED
focus,Chrome 67.0.3396.99,,2018-07-26 14:50:48,2018-07-26 14:50:49,1.261s,PASSED
delay,Chrome 67.0.3396.99,,2018-07-26 14:50:49,2018-07-26 14:50:50,1.018s,PASSED
click,Chrome 67.0.3396.99,,2018-07-26 14:50:50,2018-07-26 14:50:50,0.076s,PASSED
delay,Chrome 67.0.3396.99,,2018-07-26 14:50:50,2018-07-26 14:50:51,1.002s,PASSED
click,Chrome 67.0.3396.99,,2018-07-26 14:50:51,2018-07-26 14:50:52,0.082s,PASSED
waitForElementVisible,Chrome 67.0.3396.99,,2018-07-26 14:50:52,2018-07-26 14:50:53,1.076s,PASSED
Statement - rowSize_before = getTableRowCount(),Chrome 67.0.3396.99,,2018-07-26 14:50:53,2018-07-26 14:50:53,0.000s,PASSED
Statement - driver = com.kms.katalon.core.webui.driver.DriverFactory.getWebDriver(),Chrome 67.0.3396.99,,2018-07-26 14:50:53,2018-07-26 14:50:53,0.001s,PASSED
"Statement - Table = driver.findElement(org.openqa.selenium.By.xpath(""//table[@class='mainTable']""))",Chrome 67.0.3396.99,,2018-07-26 14:50:53,2018-07-26 14:50:53,0.017s,PASSED
"Statement - rows_table = Table.findElements(org.openqa.selenium.By.tagName(""tr""))",Chrome 67.0.3396.99,,2018-07-26 14:50:53,2018-07-26 14:50:53,0.017s,PASSED
Statement - return rows_table.size(),Chrome 67.0.3396.99,,2018-07-26 14:50:53,2018-07-26 14:50:53,0.000s,PASSED
Statement - arrayLength = arrayLength,Chrome 67.0.3396.99,,2018-07-26 14:50:53,2018-07-26 14:50:53,0.001s,PASSED
"Statement - For ([i = 0, i < arrayLength, (i++)])",Chrome 67.0.3396.99,,2018-07-26 14:50:53,2018-07-26 14:50:55,2.092s,PASSED
Statement - timeTypeValue = workday_time[i][0].toString(),Chrome 67.0.3396.99,,2018-07-26 14:50:55,2018-07-26 14:50:55,0.003s,PASSED
Statement - If (verifyTaskIsPresent(timeTypeValue) != 0),Chrome 67.0.3396.99,,2018-07-26 14:50:55,2018-07-26 14:50:55,0.000s,PASSED
Statement - rows_size = getTableRowCount() - 2,Chrome 67.0.3396.99,,2018-07-26 14:50:55,2018-07-26 14:50:55,0.001s,PASSED
Statement - driver = com.kms.katalon.core.webui.driver.DriverFactory.getWebDriver(),Chrome 67.0.3396.99,,2018-07-26 14:50:55,2018-07-26 14:50:55,0.000s,PASSED
"Statement - Table = driver.findElement(org.openqa.selenium.By.xpath(""//table[@class='mainTable']""))",Chrome 67.0.3396.99,,2018-07-26 14:50:55,2018-07-26 14:50:55,0.010s,PASSED
"Statement - rows_table = Table.findElements(org.openqa.selenium.By.tagName(""tr""))",Chrome 67.0.3396.99,,2018-07-26 14:50:55,2018-07-26 14:50:55,0.009s,PASSED
Statement - return rows_table.size(),Chrome 67.0.3396.99,,2018-07-26 14:50:55,2018-07-26 14:50:55,0.000s,PASSED
"Statement - For ([x = 1, x <= rows_size, (x++)])",Chrome 67.0.3396.99,,2018-07-26 14:50:55,2018-07-26 14:50:55,0.076s,PASSED
"Statement - tok = new java.util.StringTokenizer(timeType_navision.toLowerCase(),  )",Chrome 67.0.3396.99,,2018-07-26 14:50:55,2018-07-26 14:50:55,0.003s,PASSED
Statement - While (tok.hasMoreTokens()),Chrome 67.0.3396.99,,2018-07-26 14:50:55,2018-07-26 14:50:55,0.011s,FAILED
