Suite/Test/Step Name,Browser,Description,Start time,End time,Duration,Status
Timesheet,Chrome 67.0.3396.99,,2018-07-13 14:43:38,2018-07-13 14:45:52,2m - 13.311s,FAILED
,,,,,,
Test Cases/Login to Navision,Chrome 67.0.3396.99,,2018-07-13 14:43:39,2018-07-13 14:44:18,38.990s,PASSED
openBrowser,Chrome 67.0.3396.99,,2018-07-13 14:43:39,2018-07-13 14:44:12,32.411s,PASSED
waitForElementPresent,Chrome 67.0.3396.99,,2018-07-13 14:44:12,2018-07-13 14:44:12,0.080s,PASSED
navigateToUrl,Chrome 67.0.3396.99,,2018-07-13 14:44:12,2018-07-13 14:44:12,0.247s,PASSED
waitForElementPresent,Chrome 67.0.3396.99,,2018-07-13 14:44:12,2018-07-13 14:44:12,0.031s,PASSED
maximizeWindow,Chrome 67.0.3396.99,,2018-07-13 14:44:12,2018-07-13 14:44:13,1.141s,PASSED
click,Chrome 67.0.3396.99,,2018-07-13 14:44:13,2018-07-13 14:44:13,0.079s,PASSED
click,Chrome 67.0.3396.99,,2018-07-13 14:44:13,2018-07-13 14:44:14,0.594s,PASSED
waitForElementPresent,Chrome 67.0.3396.99,,2018-07-13 14:44:14,2018-07-13 14:44:14,0.536s,PASSED
switchToFrame,Chrome 67.0.3396.99,,2018-07-13 14:44:14,2018-07-13 14:44:14,0.053s,PASSED
Statement - driver = com.kms.katalon.core.webui.driver.DriverFactory.getWebDriver(),Chrome 67.0.3396.99,To locate table,2018-07-13 14:44:14,2018-07-13 14:44:14,0.008s,PASSED
"Statement - Table = driver.findElement(org.openqa.selenium.By.xpath(""//table[(@summary = 'Time Sheet')]//tbody""))",Chrome 67.0.3396.99,,2018-07-13 14:44:14,2018-07-13 14:44:14,0.037s,PASSED
"Statement - rows_table = Table.findElements(org.openqa.selenium.By.tagName(""tr""))",Chrome 67.0.3396.99,To locate rows of table it will Capture all the rows available in the table,2018-07-13 14:44:14,2018-07-13 14:44:14,0.023s,PASSED
Statement - rows_count = rows_table.size() - 1,Chrome 67.0.3396.99,To calculate no of rows In table,2018-07-13 14:44:14,2018-07-13 14:44:14,0.002s,PASSED
"Statement - println(""No. of rows: "" + rows_count)",Chrome 67.0.3396.99,,2018-07-13 14:44:14,2018-07-13 14:44:14,0.002s,PASSED
Statement - workday_time = <not implemented yet for class: org.codehaus.groovy.ast.expr.EmptyExpression>,Chrome 67.0.3396.99,,2018-07-13 14:44:14,2018-07-13 14:44:14,0.001s,PASSED
Statement - workday_time = [],Chrome 67.0.3396.99,,2018-07-13 14:44:14,2018-07-13 14:44:14,0.000s,PASSED
"Statement - For ([i = 0, i < rows_count, (i++)])",Chrome 67.0.3396.99,Loop will execute for all the rows of the table,2018-07-13 14:44:14,2018-07-13 14:44:17,2.498s,PASSED
Statement - arrayLength = workday_time.size(),Chrome 67.0.3396.99,,2018-07-13 14:44:17,2018-07-13 14:44:17,0.003s,PASSED
Statement - arrayLength = arrayLength,Chrome 67.0.3396.99,,2018-07-13 14:44:17,2018-07-13 14:44:17,0.009s,PASSED
Statement - workday_time = workday_time,Chrome 67.0.3396.99,,2018-07-13 14:44:17,2018-07-13 14:44:17,0.000s,PASSED
Statement - println(workday_time),Chrome 67.0.3396.99,,2018-07-13 14:44:17,2018-07-13 14:44:17,0.000s,PASSED
Statement - println(arrayLength),Chrome 67.0.3396.99,,2018-07-13 14:44:17,2018-07-13 14:44:17,0.001s,PASSED
closeBrowser,Chrome 67.0.3396.99,,2018-07-13 14:44:17,2018-07-13 14:44:18,0.772s,PASSED
,,,,,,
Test Cases/Login in to workday,Chrome 67.0.3396.99,,2018-07-13 14:44:18,2018-07-13 14:45:51,1m - 33.296s,FAILED
openBrowser,Chrome 67.0.3396.99,,2018-07-13 14:44:18,2018-07-13 14:44:45,26.952s,PASSED
navigateToUrl,Chrome 67.0.3396.99,,2018-07-13 14:44:45,2018-07-13 14:44:47,1.624s,PASSED
setText,Chrome 67.0.3396.99,,2018-07-13 14:44:47,2018-07-13 14:44:52,4.884s,PASSED
setText,Chrome 67.0.3396.99,,2018-07-13 14:44:52,2018-07-13 14:44:52,0.114s,PASSED
click,Chrome 67.0.3396.99,,2018-07-13 14:44:52,2018-07-13 14:44:52,0.083s,PASSED
click,Chrome 67.0.3396.99,,2018-07-13 14:44:52,2018-07-13 14:44:57,5.090s,PASSED
maximizeWindow,Chrome 67.0.3396.99,,2018-07-13 14:44:57,2018-07-13 14:44:58,1.133s,PASSED
click,Chrome 67.0.3396.99,,2018-07-13 14:44:58,2018-07-13 14:44:58,0.084s,PASSED
click,Chrome 67.0.3396.99,,2018-07-13 14:44:58,2018-07-13 14:44:59,1.138s,PASSED
focus,Chrome 67.0.3396.99,,2018-07-13 14:44:59,2018-07-13 14:45:00,1.231s,PASSED
delay,Chrome 67.0.3396.99,,2018-07-13 14:45:00,2018-07-13 14:45:01,1.024s,PASSED
click,Chrome 67.0.3396.99,,2018-07-13 14:45:01,2018-07-13 14:45:02,0.085s,PASSED
delay,Chrome 67.0.3396.99,,2018-07-13 14:45:02,2018-07-13 14:45:03,1.002s,PASSED
click,Chrome 67.0.3396.99,,2018-07-13 14:45:03,2018-07-13 14:45:03,0.081s,PASSED
waitForElementVisible,Chrome 67.0.3396.99,,2018-07-13 14:45:03,2018-07-13 14:45:04,1.175s,PASSED
Statement - driver = com.kms.katalon.core.webui.driver.DriverFactory.getWebDriver(),Chrome 67.0.3396.99,,2018-07-13 14:45:04,2018-07-13 14:45:04,0.001s,PASSED
"Statement - Table = driver.findElement(org.openqa.selenium.By.xpath(""//table[@class='mainTable']""))",Chrome 67.0.3396.99,,2018-07-13 14:45:04,2018-07-13 14:45:04,0.016s,PASSED
Statement - arrayLength = arrayLength,Chrome 67.0.3396.99,,2018-07-13 14:45:04,2018-07-13 14:45:04,0.000s,PASSED
"Statement - For ([i = 0, i < arrayLength, (i++)])",Chrome 67.0.3396.99,,2018-07-13 14:45:04,2018-07-13 14:45:06,2.097s,PASSED
Statement - timeTypeValue = workday_time[i][0].toString(),Chrome 67.0.3396.99,,2018-07-13 14:45:06,2018-07-13 14:45:06,0.004s,PASSED
click,Chrome 67.0.3396.99,,2018-07-13 14:45:06,2018-07-13 14:45:06,0.124s,PASSED
focus,Chrome 67.0.3396.99,,2018-07-13 14:45:06,2018-07-13 14:45:06,0.071s,PASSED
delay,Chrome 67.0.3396.99,,2018-07-13 14:45:06,2018-07-13 14:45:07,1.001s,PASSED
sendKeys,Chrome 67.0.3396.99,,2018-07-13 14:45:07,2018-07-13 14:45:08,0.517s,PASSED
sendKeys,Chrome 67.0.3396.99,,2018-07-13 14:45:08,2018-07-13 14:45:08,0.052s,PASSED
delay,Chrome 67.0.3396.99,,2018-07-13 14:45:08,2018-07-13 14:45:09,1.002s,PASSED
waitForElementPresent,Chrome 67.0.3396.99,,2018-07-13 14:45:09,2018-07-13 14:45:09,0.029s,PASSED
click,Chrome 67.0.3396.99,,2018-07-13 14:45:09,2018-07-13 14:45:09,0.105s,PASSED
sendKeys,Chrome 67.0.3396.99,,2018-07-13 14:45:09,2018-07-13 14:45:09,0.097s,PASSED
click,Chrome 67.0.3396.99,,2018-07-13 14:45:09,2018-07-13 14:45:09,0.088s,PASSED
sendKeys,Chrome 67.0.3396.99,,2018-07-13 14:45:09,2018-07-13 14:45:09,0.098s,PASSED
click,Chrome 67.0.3396.99,,2018-07-13 14:45:09,2018-07-13 14:45:09,0.085s,PASSED
sendKeys,Chrome 67.0.3396.99,,2018-07-13 14:45:09,2018-07-13 14:45:09,0.059s,PASSED
click,Chrome 67.0.3396.99,,2018-07-13 14:45:09,2018-07-13 14:45:09,0.089s,PASSED
sendKeys,Chrome 67.0.3396.99,,2018-07-13 14:45:09,2018-07-13 14:45:09,0.064s,PASSED
click,Chrome 67.0.3396.99,,2018-07-13 14:45:09,2018-07-13 14:45:09,0.085s,PASSED
sendKeys,Chrome 67.0.3396.99,,2018-07-13 14:45:09,2018-07-13 14:45:12,2.156s,PASSED
Statement - timeTypeValue = workday_time[i][0].toString(),Chrome 67.0.3396.99,,2018-07-13 14:45:12,2018-07-13 14:45:12,0.000s,PASSED
click,Chrome 67.0.3396.99,,2018-07-13 14:45:12,2018-07-13 14:45:12,0.099s,PASSED
focus,Chrome 67.0.3396.99,,2018-07-13 14:45:12,2018-07-13 14:45:12,0.068s,PASSED
delay,Chrome 67.0.3396.99,,2018-07-13 14:45:12,2018-07-13 14:45:13,1.001s,PASSED
sendKeys,Chrome 67.0.3396.99,,2018-07-13 14:45:13,2018-07-13 14:45:13,0.494s,PASSED
sendKeys,Chrome 67.0.3396.99,,2018-07-13 14:45:13,2018-07-13 14:45:13,0.050s,PASSED
delay,Chrome 67.0.3396.99,,2018-07-13 14:45:13,2018-07-13 14:45:14,1.001s,PASSED
waitForElementPresent,Chrome 67.0.3396.99,,2018-07-13 14:45:14,2018-07-13 14:45:14,0.022s,PASSED
click,Chrome 67.0.3396.99,,2018-07-13 14:45:14,2018-07-13 14:45:14,0.089s,PASSED
sendKeys,Chrome 67.0.3396.99,,2018-07-13 14:45:14,2018-07-13 14:45:15,0.086s,PASSED
click,Chrome 67.0.3396.99,,2018-07-13 14:45:15,2018-07-13 14:45:15,0.080s,PASSED
sendKeys,Chrome 67.0.3396.99,,2018-07-13 14:45:15,2018-07-13 14:45:15,0.103s,PASSED
click,Chrome 67.0.3396.99,,2018-07-13 14:45:15,2018-07-13 14:45:15,0.077s,PASSED
sendKeys,Chrome 67.0.3396.99,,2018-07-13 14:45:15,2018-07-13 14:45:15,0.082s,PASSED
click,Chrome 67.0.3396.99,,2018-07-13 14:45:15,2018-07-13 14:45:15,0.070s,PASSED
sendKeys,Chrome 67.0.3396.99,,2018-07-13 14:45:15,2018-07-13 14:45:15,0.055s,PASSED
click,Chrome 67.0.3396.99,,2018-07-13 14:45:15,2018-07-13 14:45:15,0.095s,PASSED
sendKeys,Chrome 67.0.3396.99,,2018-07-13 14:45:15,2018-07-13 14:45:17,2.119s,PASSED
Statement - timeTypeValue = workday_time[i][0].toString(),Chrome 67.0.3396.99,,2018-07-13 14:45:17,2018-07-13 14:45:17,0.001s,PASSED
click,Chrome 67.0.3396.99,,2018-07-13 14:45:17,2018-07-13 14:45:17,0.096s,PASSED
focus,Chrome 67.0.3396.99,,2018-07-13 14:45:17,2018-07-13 14:45:17,0.070s,PASSED
delay,Chrome 67.0.3396.99,,2018-07-13 14:45:17,2018-07-13 14:45:18,1.008s,PASSED
sendKeys,Chrome 67.0.3396.99,,2018-07-13 14:45:18,2018-07-13 14:45:19,0.437s,PASSED
sendKeys,Chrome 67.0.3396.99,,2018-07-13 14:45:19,2018-07-13 14:45:19,0.076s,PASSED
delay,Chrome 67.0.3396.99,,2018-07-13 14:45:19,2018-07-13 14:45:20,1.001s,PASSED
waitForElementPresent,Chrome 67.0.3396.99,,2018-07-13 14:45:20,2018-07-13 14:45:20,0.018s,PASSED
click,Chrome 67.0.3396.99,,2018-07-13 14:45:20,2018-07-13 14:45:20,0.103s,PASSED
sendKeys,Chrome 67.0.3396.99,,2018-07-13 14:45:20,2018-07-13 14:45:20,0.055s,PASSED
click,Chrome 67.0.3396.99,,2018-07-13 14:45:20,2018-07-13 14:45:20,0.086s,PASSED
sendKeys,Chrome 67.0.3396.99,,2018-07-13 14:45:20,2018-07-13 14:45:20,0.117s,PASSED
click,Chrome 67.0.3396.99,,2018-07-13 14:45:20,2018-07-13 14:45:20,0.093s,PASSED
sendKeys,Chrome 67.0.3396.99,,2018-07-13 14:45:20,2018-07-13 14:45:20,0.105s,PASSED
click,Chrome 67.0.3396.99,,2018-07-13 14:45:20,2018-07-13 14:45:21,0.073s,PASSED
sendKeys,Chrome 67.0.3396.99,,2018-07-13 14:45:21,2018-07-13 14:45:21,0.130s,PASSED
click,Chrome 67.0.3396.99,,2018-07-13 14:45:21,2018-07-13 14:45:21,0.089s,PASSED
sendKeys,Chrome 67.0.3396.99,,2018-07-13 14:45:21,2018-07-13 14:45:23,2.148s,PASSED
Statement - timeTypeValue = workday_time[i][0].toString(),Chrome 67.0.3396.99,,2018-07-13 14:45:23,2018-07-13 14:45:23,0.001s,PASSED
click,Chrome 67.0.3396.99,,2018-07-13 14:45:23,2018-07-13 14:45:23,0.106s,PASSED
focus,Chrome 67.0.3396.99,,2018-07-13 14:45:23,2018-07-13 14:45:23,0.072s,PASSED
delay,Chrome 67.0.3396.99,,2018-07-13 14:45:23,2018-07-13 14:45:24,1.001s,PASSED
sendKeys,Chrome 67.0.3396.99,,2018-07-13 14:45:24,2018-07-13 14:45:25,0.506s,PASSED
sendKeys,Chrome 67.0.3396.99,,2018-07-13 14:45:25,2018-07-13 14:45:25,0.047s,PASSED
delay,Chrome 67.0.3396.99,,2018-07-13 14:45:25,2018-07-13 14:45:26,1.002s,PASSED
waitForElementPresent,Chrome 67.0.3396.99,,2018-07-13 14:45:26,2018-07-13 14:45:26,0.017s,PASSED
click,Chrome 67.0.3396.99,,2018-07-13 14:45:26,2018-07-13 14:45:26,0.083s,PASSED
sendKeys,Chrome 67.0.3396.99,,2018-07-13 14:45:26,2018-07-13 14:45:26,0.050s,PASSED
click,Chrome 67.0.3396.99,,2018-07-13 14:45:26,2018-07-13 14:45:26,0.089s,PASSED
sendKeys,Chrome 67.0.3396.99,,2018-07-13 14:45:26,2018-07-13 14:45:26,0.109s,PASSED
click,Chrome 67.0.3396.99,,2018-07-13 14:45:26,2018-07-13 14:45:26,0.097s,PASSED
sendKeys,Chrome 67.0.3396.99,,2018-07-13 14:45:26,2018-07-13 14:45:26,0.045s,PASSED
click,Chrome 67.0.3396.99,,2018-07-13 14:45:26,2018-07-13 14:45:26,0.096s,PASSED
sendKeys,Chrome 67.0.3396.99,,2018-07-13 14:45:26,2018-07-13 14:45:26,0.044s,PASSED
click,Chrome 67.0.3396.99,,2018-07-13 14:45:26,2018-07-13 14:45:26,0.074s,PASSED
sendKeys,Chrome 67.0.3396.99,,2018-07-13 14:45:26,2018-07-13 14:45:29,2.200s,PASSED
Statement - timeTypeValue = workday_time[i][0].toString(),Chrome 67.0.3396.99,,2018-07-13 14:45:29,2018-07-13 14:45:29,0.000s,PASSED
click,Chrome 67.0.3396.99,,2018-07-13 14:45:29,2018-07-13 14:45:29,0.105s,PASSED
focus,Chrome 67.0.3396.99,,2018-07-13 14:45:29,2018-07-13 14:45:29,0.118s,PASSED
delay,Chrome 67.0.3396.99,,2018-07-13 14:45:29,2018-07-13 14:45:30,1.002s,PASSED
sendKeys,Chrome 67.0.3396.99,,2018-07-13 14:45:30,2018-07-13 14:45:30,0.450s,PASSED
sendKeys,Chrome 67.0.3396.99,,2018-07-13 14:45:30,2018-07-13 14:45:30,0.046s,PASSED
delay,Chrome 67.0.3396.99,,2018-07-13 14:45:30,2018-07-13 14:45:31,1.001s,PASSED
waitForElementPresent,Chrome 67.0.3396.99,,2018-07-13 14:45:31,2018-07-13 14:45:31,0.023s,PASSED
click,Chrome 67.0.3396.99,,2018-07-13 14:45:31,2018-07-13 14:45:31,0.085s,PASSED
sendKeys,Chrome 67.0.3396.99,,2018-07-13 14:45:31,2018-07-13 14:45:31,0.055s,PASSED
click,Chrome 67.0.3396.99,,2018-07-13 14:45:31,2018-07-13 14:45:32,0.076s,PASSED
sendKeys,Chrome 67.0.3396.99,,2018-07-13 14:45:32,2018-07-13 14:45:32,0.053s,PASSED
click,Chrome 67.0.3396.99,,2018-07-13 14:45:32,2018-07-13 14:45:32,0.131s,PASSED
sendKeys,Chrome 67.0.3396.99,,2018-07-13 14:45:32,2018-07-13 14:45:32,0.147s,PASSED
click,Chrome 67.0.3396.99,,2018-07-13 14:45:32,2018-07-13 14:45:32,0.113s,PASSED
sendKeys,Chrome 67.0.3396.99,,2018-07-13 14:45:32,2018-07-13 14:45:32,0.060s,PASSED
click,Chrome 67.0.3396.99,,2018-07-13 14:45:32,2018-07-13 14:45:32,0.076s,PASSED
sendKeys,Chrome 67.0.3396.99,,2018-07-13 14:45:32,2018-07-13 14:45:34,2.141s,PASSED
Statement - timeTypeValue = workday_time[i][0].toString(),Chrome 67.0.3396.99,,2018-07-13 14:45:34,2018-07-13 14:45:34,0.001s,PASSED
click,Chrome 67.0.3396.99,,2018-07-13 14:45:34,2018-07-13 14:45:34,0.106s,PASSED
focus,Chrome 67.0.3396.99,,2018-07-13 14:45:34,2018-07-13 14:45:34,0.068s,PASSED
delay,Chrome 67.0.3396.99,,2018-07-13 14:45:34,2018-07-13 14:45:35,1.002s,PASSED
sendKeys,Chrome 67.0.3396.99,,2018-07-13 14:45:35,2018-07-13 14:45:36,0.255s,PASSED
sendKeys,Chrome 67.0.3396.99,,2018-07-13 14:45:36,2018-07-13 14:45:36,0.049s,PASSED
delay,Chrome 67.0.3396.99,,2018-07-13 14:45:36,2018-07-13 14:45:37,1.001s,PASSED
waitForElementPresent,Chrome 67.0.3396.99,,2018-07-13 14:45:37,2018-07-13 14:45:37,0.021s,PASSED
click,Chrome 67.0.3396.99,,2018-07-13 14:45:37,2018-07-13 14:45:37,0.097s,PASSED
sendKeys,Chrome 67.0.3396.99,,2018-07-13 14:45:37,2018-07-13 14:45:37,0.052s,PASSED
click,Chrome 67.0.3396.99,,2018-07-13 14:45:37,2018-07-13 14:45:37,0.067s,PASSED
sendKeys,Chrome 67.0.3396.99,,2018-07-13 14:45:37,2018-07-13 14:45:37,0.106s,PASSED
click,Chrome 67.0.3396.99,,2018-07-13 14:45:37,2018-07-13 14:45:37,0.080s,PASSED
sendKeys,Chrome 67.0.3396.99,,2018-07-13 14:45:37,2018-07-13 14:45:37,0.098s,PASSED
click,Chrome 67.0.3396.99,,2018-07-13 14:45:37,2018-07-13 14:45:37,0.083s,PASSED
sendKeys,Chrome 67.0.3396.99,,2018-07-13 14:45:37,2018-07-13 14:45:37,0.047s,PASSED
click,Chrome 67.0.3396.99,,2018-07-13 14:45:37,2018-07-13 14:45:37,0.085s,PASSED
sendKeys,Chrome 67.0.3396.99,,2018-07-13 14:45:37,2018-07-13 14:45:40,2.107s,PASSED
Statement - timeTypeValue = workday_time[i][0].toString(),Chrome 67.0.3396.99,,2018-07-13 14:45:40,2018-07-13 14:45:40,0.000s,PASSED
click,Chrome 67.0.3396.99,,2018-07-13 14:45:40,2018-07-13 14:45:40,0.106s,PASSED
focus,Chrome 67.0.3396.99,,2018-07-13 14:45:40,2018-07-13 14:45:40,0.071s,PASSED
delay,Chrome 67.0.3396.99,,2018-07-13 14:45:40,2018-07-13 14:45:41,1.002s,PASSED
sendKeys,Chrome 67.0.3396.99,,2018-07-13 14:45:41,2018-07-13 14:45:41,0.574s,PASSED
sendKeys,Chrome 67.0.3396.99,,2018-07-13 14:45:41,2018-07-13 14:45:41,0.079s,PASSED
delay,Chrome 67.0.3396.99,,2018-07-13 14:45:41,2018-07-13 14:45:42,1.001s,PASSED
waitForElementPresent,Chrome 67.0.3396.99,,2018-07-13 14:45:42,2018-07-13 14:45:42,0.024s,PASSED
click,Chrome 67.0.3396.99,,2018-07-13 14:45:42,2018-07-13 14:45:43,0.090s,PASSED
sendKeys,Chrome 67.0.3396.99,,2018-07-13 14:45:43,2018-07-13 14:45:43,0.049s,PASSED
click,Chrome 67.0.3396.99,,2018-07-13 14:45:43,2018-07-13 14:45:43,0.095s,PASSED
sendKeys,Chrome 67.0.3396.99,,2018-07-13 14:45:43,2018-07-13 14:45:43,0.060s,PASSED
click,Chrome 67.0.3396.99,,2018-07-13 14:45:43,2018-07-13 14:45:43,0.086s,PASSED
sendKeys,Chrome 67.0.3396.99,,2018-07-13 14:45:43,2018-07-13 14:45:43,0.048s,PASSED
click,Chrome 67.0.3396.99,,2018-07-13 14:45:43,2018-07-13 14:45:43,0.067s,PASSED
sendKeys,Chrome 67.0.3396.99,,2018-07-13 14:45:43,2018-07-13 14:45:43,0.099s,PASSED
click,Chrome 67.0.3396.99,,2018-07-13 14:45:43,2018-07-13 14:45:43,0.079s,PASSED
sendKeys,Chrome 67.0.3396.99,,2018-07-13 14:45:43,2018-07-13 14:45:45,2.129s,PASSED
Statement - timeTypeValue = workday_time[i][0].toString(),Chrome 67.0.3396.99,,2018-07-13 14:45:45,2018-07-13 14:45:45,0.001s,PASSED
click,Chrome 67.0.3396.99,,2018-07-13 14:45:45,2018-07-13 14:45:45,0.106s,PASSED
focus,Chrome 67.0.3396.99,,2018-07-13 14:45:45,2018-07-13 14:45:45,0.069s,PASSED
delay,Chrome 67.0.3396.99,,2018-07-13 14:45:45,2018-07-13 14:45:46,1.000s,PASSED
sendKeys,Chrome 67.0.3396.99,,2018-07-13 14:45:46,2018-07-13 14:45:47,0.229s,PASSED
sendKeys,Chrome 67.0.3396.99,,2018-07-13 14:45:47,2018-07-13 14:45:47,0.041s,PASSED
delay,Chrome 67.0.3396.99,,2018-07-13 14:45:47,2018-07-13 14:45:48,1.001s,PASSED
waitForElementPresent,Chrome 67.0.3396.99,,2018-07-13 14:45:48,2018-07-13 14:45:48,0.024s,PASSED
click,Chrome 67.0.3396.99,,2018-07-13 14:45:48,2018-07-13 14:45:48,0.106s,PASSED
sendKeys,Chrome 67.0.3396.99,,2018-07-13 14:45:48,2018-07-13 14:45:48,0.050s,PASSED
click,Chrome 67.0.3396.99,,2018-07-13 14:45:48,2018-07-13 14:45:48,0.075s,PASSED
sendKeys,Chrome 67.0.3396.99,,2018-07-13 14:45:48,2018-07-13 14:45:48,0.054s,PASSED
click,Chrome 67.0.3396.99,,2018-07-13 14:45:48,2018-07-13 14:45:48,0.098s,PASSED
sendKeys,Chrome 67.0.3396.99,,2018-07-13 14:45:48,2018-07-13 14:45:48,0.047s,PASSED
click,Chrome 67.0.3396.99,,2018-07-13 14:45:48,2018-07-13 14:45:48,0.072s,PASSED
sendKeys,Chrome 67.0.3396.99,,2018-07-13 14:45:48,2018-07-13 14:45:48,0.049s,PASSED
click,Chrome 67.0.3396.99,,2018-07-13 14:45:48,2018-07-13 14:45:48,0.083s,PASSED
sendKeys,Chrome 67.0.3396.99,,2018-07-13 14:45:48,2018-07-13 14:45:48,0.100s,PASSED
"Statement - rows_table = Table.findElements(org.openqa.selenium.By.tagName(""tr""))",Chrome 67.0.3396.99,,2018-07-13 14:45:48,2018-07-13 14:45:48,0.016s,PASSED
Statement - rowSize = rows_table.size() - 2,Chrome 67.0.3396.99,,2018-07-13 14:45:48,2018-07-13 14:45:48,0.001s,PASSED
delay,Chrome 67.0.3396.99,,2018-07-13 14:45:48,2018-07-13 14:45:50,2.002s,PASSED
Statement - If (rowSize > arrayLength),Chrome 67.0.3396.99,,2018-07-13 14:45:50,2018-07-13 14:45:51,0.537s,FAILED
