Suite/Test/Step Name,Browser,Description,Start time,End time,Duration,Status
Timesheet,Chrome 67.0.3396.99,,2018-08-10 08:34:26,2018-08-10 08:36:53,2m - 26.770s,PASSED
,,,,,,
Test Cases/Login to Navision,Chrome 67.0.3396.99,,2018-08-10 08:34:26,2018-08-10 08:35:05,38.728s,PASSED
openBrowser,Chrome 67.0.3396.99,,2018-08-10 08:34:27,2018-08-10 08:34:59,31.735s,PASSED
waitForElementPresent,Chrome 67.0.3396.99,,2018-08-10 08:34:59,2018-08-10 08:34:59,0.137s,PASSED
navigateToUrl,Chrome 67.0.3396.99,,2018-08-10 08:34:59,2018-08-10 08:34:59,0.305s,PASSED
waitForElementPresent,Chrome 67.0.3396.99,,2018-08-10 08:34:59,2018-08-10 08:34:59,0.025s,PASSED
maximizeWindow,Chrome 67.0.3396.99,,2018-08-10 08:34:59,2018-08-10 08:35:00,1.148s,PASSED
click,Chrome 67.0.3396.99,,2018-08-10 08:35:00,2018-08-10 08:35:00,0.094s,PASSED
click,Chrome 67.0.3396.99,,2018-08-10 08:35:00,2018-08-10 08:35:01,0.598s,PASSED
waitForElementPresent,Chrome 67.0.3396.99,,2018-08-10 08:35:01,2018-08-10 08:35:01,0.541s,PASSED
switchToFrame,Chrome 67.0.3396.99,,2018-08-10 08:35:01,2018-08-10 08:35:02,0.072s,PASSED
Statement - driver = com.kms.katalon.core.webui.driver.DriverFactory.getWebDriver(),Chrome 67.0.3396.99,To locate table,2018-08-10 08:35:02,2018-08-10 08:35:02,0.012s,PASSED
"Statement - Table = driver.findElement(org.openqa.selenium.By.xpath(""//table[(@summary = 'Time Sheet')]//tbody""))",Chrome 67.0.3396.99,,2018-08-10 08:35:02,2018-08-10 08:35:02,0.050s,PASSED
"Statement - rows_table = Table.findElements(org.openqa.selenium.By.tagName(""tr""))",Chrome 67.0.3396.99,To locate rows of table it will Capture all the rows available in the table,2018-08-10 08:35:02,2018-08-10 08:35:02,0.029s,PASSED
Statement - rows_count = rows_table.size() - 1,Chrome 67.0.3396.99,To calculate no of rows In table,2018-08-10 08:35:02,2018-08-10 08:35:02,0.003s,PASSED
"Statement - println(""No. of rows: "" + rows_count)",Chrome 67.0.3396.99,,2018-08-10 08:35:02,2018-08-10 08:35:02,0.004s,PASSED
Statement - workday_time = <not implemented yet for class: org.codehaus.groovy.ast.expr.EmptyExpression>,Chrome 67.0.3396.99,,2018-08-10 08:35:02,2018-08-10 08:35:02,0.002s,PASSED
Statement - workday_time = [],Chrome 67.0.3396.99,,2018-08-10 08:35:02,2018-08-10 08:35:02,0.001s,PASSED
"Statement - For ([i = 0, i < rows_count, (i++)])",Chrome 67.0.3396.99,Loop will execute for all the rows of the table,2018-08-10 08:35:02,2018-08-10 08:35:04,2.432s,PASSED
Statement - arrayLength = workday_time.size(),Chrome 67.0.3396.99,,2018-08-10 08:35:04,2018-08-10 08:35:04,0.002s,PASSED
Statement - arrayLength = arrayLength,Chrome 67.0.3396.99,,2018-08-10 08:35:04,2018-08-10 08:35:04,0.013s,PASSED
Statement - workday_time = workday_time,Chrome 67.0.3396.99,,2018-08-10 08:35:04,2018-08-10 08:35:04,0.000s,PASSED
Statement - println(workday_time),Chrome 67.0.3396.99,,2018-08-10 08:35:04,2018-08-10 08:35:04,0.001s,PASSED
Statement - println(arrayLength),Chrome 67.0.3396.99,,2018-08-10 08:35:04,2018-08-10 08:35:04,0.000s,PASSED
closeBrowser,Chrome 67.0.3396.99,,2018-08-10 08:35:04,2018-08-10 08:35:05,0.817s,PASSED
,,,,,,
Test Cases/Login in to workday,Chrome 67.0.3396.99,,2018-08-10 08:35:05,2018-08-10 08:36:53,1m - 47.610s,PASSED
openBrowser,Chrome 67.0.3396.99,,2018-08-10 08:35:06,2018-08-10 08:35:33,27.309s,PASSED
navigateToUrl,Chrome 67.0.3396.99,,2018-08-10 08:35:33,2018-08-10 08:35:34,1.213s,PASSED
setText,Chrome 67.0.3396.99,,2018-08-10 08:35:34,2018-08-10 08:35:37,2.496s,PASSED
setText,Chrome 67.0.3396.99,,2018-08-10 08:35:37,2018-08-10 08:35:37,0.175s,PASSED
click,Chrome 67.0.3396.99,,2018-08-10 08:35:37,2018-08-10 08:35:37,0.092s,PASSED
click,Chrome 67.0.3396.99,,2018-08-10 08:35:37,2018-08-10 08:35:42,5.096s,PASSED
maximizeWindow,Chrome 67.0.3396.99,,2018-08-10 08:35:42,2018-08-10 08:35:43,1.145s,PASSED
click,Chrome 67.0.3396.99,,2018-08-10 08:35:43,2018-08-10 08:35:44,0.282s,PASSED
click,Chrome 67.0.3396.99,,2018-08-10 08:35:44,2018-08-10 08:35:45,1.621s,PASSED
focus,Chrome 67.0.3396.99,,2018-08-10 08:35:45,2018-08-10 08:35:46,1.213s,PASSED
delay,Chrome 67.0.3396.99,,2018-08-10 08:35:46,2018-08-10 08:35:47,1.026s,PASSED
click,Chrome 67.0.3396.99,,2018-08-10 08:35:47,2018-08-10 08:35:47,0.086s,PASSED
delay,Chrome 67.0.3396.99,,2018-08-10 08:35:47,2018-08-10 08:35:48,1.002s,PASSED
click,Chrome 67.0.3396.99,,2018-08-10 08:35:48,2018-08-10 08:35:49,0.095s,PASSED
waitForElementVisible,Chrome 67.0.3396.99,,2018-08-10 08:35:49,2018-08-10 08:35:50,1.119s,PASSED
Statement - rowSize_before = getTableRowCount(),Chrome 67.0.3396.99,,2018-08-10 08:35:50,2018-08-10 08:35:50,0.002s,PASSED
Statement - driver = com.kms.katalon.core.webui.driver.DriverFactory.getWebDriver(),Chrome 67.0.3396.99,,2018-08-10 08:35:50,2018-08-10 08:35:50,0.000s,PASSED
"Statement - Table = driver.findElement(org.openqa.selenium.By.xpath(""//table[@class='mainTable']""))",Chrome 67.0.3396.99,,2018-08-10 08:35:50,2018-08-10 08:35:50,0.026s,PASSED
"Statement - rows_table = Table.findElements(org.openqa.selenium.By.tagName(""tr""))",Chrome 67.0.3396.99,,2018-08-10 08:35:50,2018-08-10 08:35:50,0.018s,PASSED
Statement - return (rows_table.size() - 2),Chrome 67.0.3396.99,,2018-08-10 08:35:50,2018-08-10 08:35:50,0.000s,PASSED
Statement - arrayLength = arrayLength,Chrome 67.0.3396.99,,2018-08-10 08:35:50,2018-08-10 08:35:50,0.001s,PASSED
Statement - rows_size_refined = getTableRowCount(),Chrome 67.0.3396.99,,2018-08-10 08:35:50,2018-08-10 08:35:50,0.000s,PASSED
Statement - driver = com.kms.katalon.core.webui.driver.DriverFactory.getWebDriver(),Chrome 67.0.3396.99,,2018-08-10 08:35:50,2018-08-10 08:35:50,0.000s,PASSED
"Statement - Table = driver.findElement(org.openqa.selenium.By.xpath(""//table[@class='mainTable']""))",Chrome 67.0.3396.99,,2018-08-10 08:35:50,2018-08-10 08:35:50,0.011s,PASSED
"Statement - rows_table = Table.findElements(org.openqa.selenium.By.tagName(""tr""))",Chrome 67.0.3396.99,,2018-08-10 08:35:50,2018-08-10 08:35:50,0.011s,PASSED
Statement - return (rows_table.size() - 2),Chrome 67.0.3396.99,,2018-08-10 08:35:50,2018-08-10 08:35:50,0.000s,PASSED
Statement - existing_tasks = <not implemented yet for class: org.codehaus.groovy.ast.expr.EmptyExpression>,Chrome 67.0.3396.99,,2018-08-10 08:35:50,2018-08-10 08:35:50,0.000s,PASSED
Statement - existing_tasks = [],Chrome 67.0.3396.99,,2018-08-10 08:35:50,2018-08-10 08:35:50,0.001s,PASSED
Statement - existing_tasks_size = <not implemented yet for class: org.codehaus.groovy.ast.expr.EmptyExpression>,Chrome 67.0.3396.99,,2018-08-10 08:35:50,2018-08-10 08:35:50,0.001s,PASSED
"Statement - For ([x = 1, x <= rows_size_refined, (x++)])",Chrome 67.0.3396.99,,2018-08-10 08:35:50,2018-08-10 08:35:50,0.095s,PASSED
Statement - If (existing_tasks == [null]),Chrome 67.0.3396.99,,2018-08-10 08:35:50,2018-08-10 08:35:50,0.001s,PASSED
Statement - Else,Chrome 67.0.3396.99,,2018-08-10 08:35:50,2018-08-10 08:35:50,0.001s,PASSED
"Statement - For ([i = 0, i < arrayLength, (i++)])",Chrome 67.0.3396.99,,2018-08-10 08:35:50,2018-08-10 08:35:51,1.002s,PASSED
Statement - timeTypeValue = workday_time[i][0].toString(),Chrome 67.0.3396.99,,2018-08-10 08:35:51,2018-08-10 08:35:51,0.006s,PASSED
click,Chrome 67.0.3396.99,,2018-08-10 08:35:51,2018-08-10 08:35:51,0.091s,PASSED
delay,Chrome 67.0.3396.99,,2018-08-10 08:35:51,2018-08-10 08:35:52,1.001s,PASSED
click,Chrome 67.0.3396.99,,2018-08-10 08:35:52,2018-08-10 08:35:52,0.126s,PASSED
focus,Chrome 67.0.3396.99,,2018-08-10 08:35:52,2018-08-10 08:35:52,0.137s,PASSED
delay,Chrome 67.0.3396.99,,2018-08-10 08:35:52,2018-08-10 08:35:53,1.001s,PASSED
sendKeys,Chrome 67.0.3396.99,,2018-08-10 08:35:53,2018-08-10 08:35:54,0.395s,PASSED
sendKeys,Chrome 67.0.3396.99,,2018-08-10 08:35:54,2018-08-10 08:35:54,0.075s,PASSED
delay,Chrome 67.0.3396.99,,2018-08-10 08:35:54,2018-08-10 08:35:55,1.000s,PASSED
waitForElementPresent,Chrome 67.0.3396.99,,2018-08-10 08:35:55,2018-08-10 08:35:55,0.029s,PASSED
"Statement - setTableValues(4, i, 1)",Chrome 67.0.3396.99,Monday column,2018-08-10 08:35:55,2018-08-10 08:35:55,0.001s,PASSED
click,Chrome 67.0.3396.99,,2018-08-10 08:35:55,2018-08-10 08:35:55,0.094s,PASSED
"Statement - If (!(workday_time[i][j].equals("""")))",Chrome 67.0.3396.99,,2018-08-10 08:35:55,2018-08-10 08:35:55,0.134s,PASSED
"Statement - setTableValues(5, i, 2)",Chrome 67.0.3396.99,Tuesday column,2018-08-10 08:35:55,2018-08-10 08:35:55,0.001s,PASSED
click,Chrome 67.0.3396.99,,2018-08-10 08:35:55,2018-08-10 08:35:55,0.110s,PASSED
"Statement - If (!(workday_time[i][j].equals("""")))",Chrome 67.0.3396.99,,2018-08-10 08:35:55,2018-08-10 08:35:55,0.128s,PASSED
"Statement - setTableValues(6, i, 3)",Chrome 67.0.3396.99,Wednesday column,2018-08-10 08:35:55,2018-08-10 08:35:55,0.000s,PASSED
click,Chrome 67.0.3396.99,,2018-08-10 08:35:55,2018-08-10 08:35:55,0.090s,PASSED
"Statement - If (!(workday_time[i][j].equals("""")))",Chrome 67.0.3396.99,,2018-08-10 08:35:55,2018-08-10 08:35:55,0.129s,PASSED
"Statement - setTableValues(7, i, 4)",Chrome 67.0.3396.99,Thursday column,2018-08-10 08:35:55,2018-08-10 08:35:55,0.001s,PASSED
click,Chrome 67.0.3396.99,,2018-08-10 08:35:55,2018-08-10 08:35:56,0.086s,PASSED
"Statement - If (!(workday_time[i][j].equals("""")))",Chrome 67.0.3396.99,,2018-08-10 08:35:56,2018-08-10 08:35:56,0.138s,PASSED
"Statement - setTableValues(8, i, 5)",Chrome 67.0.3396.99,Friday column,2018-08-10 08:35:56,2018-08-10 08:35:56,0.000s,PASSED
click,Chrome 67.0.3396.99,,2018-08-10 08:35:56,2018-08-10 08:35:56,0.080s,PASSED
"Statement - If (!(workday_time[i][j].equals("""")))",Chrome 67.0.3396.99,,2018-08-10 08:35:56,2018-08-10 08:35:57,1.002s,PASSED
Statement - timeTypeValue = workday_time[i][0].toString(),Chrome 67.0.3396.99,,2018-08-10 08:35:57,2018-08-10 08:35:57,0.000s,PASSED
click,Chrome 67.0.3396.99,,2018-08-10 08:35:57,2018-08-10 08:35:57,0.068s,PASSED
delay,Chrome 67.0.3396.99,,2018-08-10 08:35:57,2018-08-10 08:35:58,1.001s,PASSED
click,Chrome 67.0.3396.99,,2018-08-10 08:35:58,2018-08-10 08:35:58,0.107s,PASSED
focus,Chrome 67.0.3396.99,,2018-08-10 08:35:58,2018-08-10 08:35:58,0.131s,PASSED
delay,Chrome 67.0.3396.99,,2018-08-10 08:35:58,2018-08-10 08:35:59,1.002s,PASSED
sendKeys,Chrome 67.0.3396.99,,2018-08-10 08:35:59,2018-08-10 08:35:59,0.388s,PASSED
sendKeys,Chrome 67.0.3396.99,,2018-08-10 08:35:59,2018-08-10 08:35:59,0.050s,PASSED
delay,Chrome 67.0.3396.99,,2018-08-10 08:35:59,2018-08-10 08:36:00,1.001s,PASSED
waitForElementPresent,Chrome 67.0.3396.99,,2018-08-10 08:36:00,2018-08-10 08:36:01,0.029s,PASSED
"Statement - setTableValues(4, i, 1)",Chrome 67.0.3396.99,Monday column,2018-08-10 08:36:01,2018-08-10 08:36:01,0.000s,PASSED
click,Chrome 67.0.3396.99,,2018-08-10 08:36:01,2018-08-10 08:36:01,0.080s,PASSED
"Statement - If (!(workday_time[i][j].equals("""")))",Chrome 67.0.3396.99,,2018-08-10 08:36:01,2018-08-10 08:36:01,0.126s,PASSED
"Statement - setTableValues(5, i, 2)",Chrome 67.0.3396.99,Tuesday column,2018-08-10 08:36:01,2018-08-10 08:36:01,0.000s,PASSED
click,Chrome 67.0.3396.99,,2018-08-10 08:36:01,2018-08-10 08:36:01,0.107s,PASSED
"Statement - If (!(workday_time[i][j].equals("""")))",Chrome 67.0.3396.99,,2018-08-10 08:36:01,2018-08-10 08:36:01,0.140s,PASSED
"Statement - setTableValues(6, i, 3)",Chrome 67.0.3396.99,Wednesday column,2018-08-10 08:36:01,2018-08-10 08:36:01,0.001s,PASSED
click,Chrome 67.0.3396.99,,2018-08-10 08:36:01,2018-08-10 08:36:01,0.108s,PASSED
"Statement - If (!(workday_time[i][j].equals("""")))",Chrome 67.0.3396.99,,2018-08-10 08:36:01,2018-08-10 08:36:01,0.169s,PASSED
"Statement - setTableValues(7, i, 4)",Chrome 67.0.3396.99,Thursday column,2018-08-10 08:36:01,2018-08-10 08:36:01,0.000s,PASSED
click,Chrome 67.0.3396.99,,2018-08-10 08:36:01,2018-08-10 08:36:01,0.081s,PASSED
"Statement - If (!(workday_time[i][j].equals("""")))",Chrome 67.0.3396.99,,2018-08-10 08:36:01,2018-08-10 08:36:01,0.131s,PASSED
"Statement - setTableValues(8, i, 5)",Chrome 67.0.3396.99,Friday column,2018-08-10 08:36:01,2018-08-10 08:36:01,0.000s,PASSED
click,Chrome 67.0.3396.99,,2018-08-10 08:36:01,2018-08-10 08:36:02,0.086s,PASSED
"Statement - If (!(workday_time[i][j].equals("""")))",Chrome 67.0.3396.99,,2018-08-10 08:36:02,2018-08-10 08:36:03,1.002s,PASSED
Statement - timeTypeValue = workday_time[i][0].toString(),Chrome 67.0.3396.99,,2018-08-10 08:36:03,2018-08-10 08:36:03,0.001s,PASSED
click,Chrome 67.0.3396.99,,2018-08-10 08:36:03,2018-08-10 08:36:03,0.065s,PASSED
delay,Chrome 67.0.3396.99,,2018-08-10 08:36:03,2018-08-10 08:36:04,1.000s,PASSED
click,Chrome 67.0.3396.99,,2018-08-10 08:36:04,2018-08-10 08:36:04,0.108s,PASSED
focus,Chrome 67.0.3396.99,,2018-08-10 08:36:04,2018-08-10 08:36:04,0.092s,PASSED
delay,Chrome 67.0.3396.99,,2018-08-10 08:36:04,2018-08-10 08:36:05,1.002s,PASSED
sendKeys,Chrome 67.0.3396.99,,2018-08-10 08:36:05,2018-08-10 08:36:05,0.303s,PASSED
sendKeys,Chrome 67.0.3396.99,,2018-08-10 08:36:05,2018-08-10 08:36:05,0.045s,PASSED
delay,Chrome 67.0.3396.99,,2018-08-10 08:36:05,2018-08-10 08:36:06,1.000s,PASSED
waitForElementPresent,Chrome 67.0.3396.99,,2018-08-10 08:36:06,2018-08-10 08:36:06,0.041s,PASSED
"Statement - setTableValues(4, i, 1)",Chrome 67.0.3396.99,Monday column,2018-08-10 08:36:06,2018-08-10 08:36:06,0.000s,PASSED
click,Chrome 67.0.3396.99,,2018-08-10 08:36:06,2018-08-10 08:36:06,0.084s,PASSED
"Statement - If (!(workday_time[i][j].equals("""")))",Chrome 67.0.3396.99,,2018-08-10 08:36:06,2018-08-10 08:36:06,0.144s,PASSED
"Statement - setTableValues(5, i, 2)",Chrome 67.0.3396.99,Tuesday column,2018-08-10 08:36:06,2018-08-10 08:36:06,0.000s,PASSED
click,Chrome 67.0.3396.99,,2018-08-10 08:36:06,2018-08-10 08:36:07,0.098s,PASSED
"Statement - If (!(workday_time[i][j].equals("""")))",Chrome 67.0.3396.99,,2018-08-10 08:36:07,2018-08-10 08:36:07,0.131s,PASSED
"Statement - setTableValues(6, i, 3)",Chrome 67.0.3396.99,Wednesday column,2018-08-10 08:36:07,2018-08-10 08:36:07,0.000s,PASSED
click,Chrome 67.0.3396.99,,2018-08-10 08:36:07,2018-08-10 08:36:07,0.103s,PASSED
"Statement - If (!(workday_time[i][j].equals("""")))",Chrome 67.0.3396.99,,2018-08-10 08:36:07,2018-08-10 08:36:07,0.000s,PASSED
"Statement - setTableValues(7, i, 4)",Chrome 67.0.3396.99,Thursday column,2018-08-10 08:36:07,2018-08-10 08:36:07,0.000s,PASSED
click,Chrome 67.0.3396.99,,2018-08-10 08:36:07,2018-08-10 08:36:07,0.140s,PASSED
"Statement - If (!(workday_time[i][j].equals("""")))",Chrome 67.0.3396.99,,2018-08-10 08:36:07,2018-08-10 08:36:07,0.000s,PASSED
"Statement - setTableValues(8, i, 5)",Chrome 67.0.3396.99,Friday column,2018-08-10 08:36:07,2018-08-10 08:36:07,0.000s,PASSED
click,Chrome 67.0.3396.99,,2018-08-10 08:36:07,2018-08-10 08:36:07,0.098s,PASSED
"Statement - If (!(workday_time[i][j].equals("""")))",Chrome 67.0.3396.99,,2018-08-10 08:36:07,2018-08-10 08:36:08,1.001s,PASSED
Statement - timeTypeValue = workday_time[i][0].toString(),Chrome 67.0.3396.99,,2018-08-10 08:36:08,2018-08-10 08:36:08,0.000s,PASSED
click,Chrome 67.0.3396.99,,2018-08-10 08:36:08,2018-08-10 08:36:08,0.093s,PASSED
delay,Chrome 67.0.3396.99,,2018-08-10 08:36:08,2018-08-10 08:36:09,1.002s,PASSED
click,Chrome 67.0.3396.99,,2018-08-10 08:36:09,2018-08-10 08:36:09,0.116s,PASSED
focus,Chrome 67.0.3396.99,,2018-08-10 08:36:09,2018-08-10 08:36:09,0.069s,PASSED
delay,Chrome 67.0.3396.99,,2018-08-10 08:36:09,2018-08-10 08:36:10,1.000s,PASSED
sendKeys,Chrome 67.0.3396.99,,2018-08-10 08:36:10,2018-08-10 08:36:11,0.418s,PASSED
sendKeys,Chrome 67.0.3396.99,,2018-08-10 08:36:11,2018-08-10 08:36:11,0.050s,PASSED
delay,Chrome 67.0.3396.99,,2018-08-10 08:36:11,2018-08-10 08:36:12,1.001s,PASSED
waitForElementPresent,Chrome 67.0.3396.99,,2018-08-10 08:36:12,2018-08-10 08:36:12,0.017s,PASSED
"Statement - setTableValues(4, i, 1)",Chrome 67.0.3396.99,Monday column,2018-08-10 08:36:12,2018-08-10 08:36:12,0.001s,PASSED
click,Chrome 67.0.3396.99,,2018-08-10 08:36:12,2018-08-10 08:36:12,0.083s,PASSED
"Statement - If (!(workday_time[i][j].equals("""")))",Chrome 67.0.3396.99,,2018-08-10 08:36:12,2018-08-10 08:36:12,0.151s,PASSED
"Statement - setTableValues(5, i, 2)",Chrome 67.0.3396.99,Tuesday column,2018-08-10 08:36:12,2018-08-10 08:36:12,0.001s,PASSED
click,Chrome 67.0.3396.99,,2018-08-10 08:36:12,2018-08-10 08:36:12,0.116s,PASSED
"Statement - If (!(workday_time[i][j].equals("""")))",Chrome 67.0.3396.99,,2018-08-10 08:36:12,2018-08-10 08:36:12,0.000s,PASSED
"Statement - setTableValues(6, i, 3)",Chrome 67.0.3396.99,Wednesday column,2018-08-10 08:36:12,2018-08-10 08:36:12,0.000s,PASSED
click,Chrome 67.0.3396.99,,2018-08-10 08:36:12,2018-08-10 08:36:12,0.087s,PASSED
"Statement - If (!(workday_time[i][j].equals("""")))",Chrome 67.0.3396.99,,2018-08-10 08:36:12,2018-08-10 08:36:12,0.123s,PASSED
"Statement - setTableValues(7, i, 4)",Chrome 67.0.3396.99,Thursday column,2018-08-10 08:36:12,2018-08-10 08:36:12,0.000s,PASSED
click,Chrome 67.0.3396.99,,2018-08-10 08:36:12,2018-08-10 08:36:12,0.079s,PASSED
"Statement - If (!(workday_time[i][j].equals("""")))",Chrome 67.0.3396.99,,2018-08-10 08:36:12,2018-08-10 08:36:13,0.163s,PASSED
"Statement - setTableValues(8, i, 5)",Chrome 67.0.3396.99,Friday column,2018-08-10 08:36:13,2018-08-10 08:36:13,0.000s,PASSED
click,Chrome 67.0.3396.99,,2018-08-10 08:36:13,2018-08-10 08:36:13,0.120s,PASSED
"Statement - If (!(workday_time[i][j].equals("""")))",Chrome 67.0.3396.99,,2018-08-10 08:36:13,2018-08-10 08:36:14,1.001s,PASSED
Statement - timeTypeValue = workday_time[i][0].toString(),Chrome 67.0.3396.99,,2018-08-10 08:36:14,2018-08-10 08:36:14,0.000s,PASSED
click,Chrome 67.0.3396.99,,2018-08-10 08:36:14,2018-08-10 08:36:14,0.068s,PASSED
delay,Chrome 67.0.3396.99,,2018-08-10 08:36:14,2018-08-10 08:36:15,1.002s,PASSED
click,Chrome 67.0.3396.99,,2018-08-10 08:36:15,2018-08-10 08:36:15,0.098s,PASSED
focus,Chrome 67.0.3396.99,,2018-08-10 08:36:15,2018-08-10 08:36:15,0.071s,PASSED
delay,Chrome 67.0.3396.99,,2018-08-10 08:36:15,2018-08-10 08:36:16,1.002s,PASSED
sendKeys,Chrome 67.0.3396.99,,2018-08-10 08:36:16,2018-08-10 08:36:16,0.255s,PASSED
sendKeys,Chrome 67.0.3396.99,,2018-08-10 08:36:16,2018-08-10 08:36:16,0.044s,PASSED
delay,Chrome 67.0.3396.99,,2018-08-10 08:36:16,2018-08-10 08:36:17,1.002s,PASSED
waitForElementPresent,Chrome 67.0.3396.99,,2018-08-10 08:36:17,2018-08-10 08:36:17,0.024s,PASSED
"Statement - setTableValues(4, i, 1)",Chrome 67.0.3396.99,Monday column,2018-08-10 08:36:17,2018-08-10 08:36:17,0.000s,PASSED
click,Chrome 67.0.3396.99,,2018-08-10 08:36:17,2018-08-10 08:36:17,0.076s,PASSED
"Statement - If (!(workday_time[i][j].equals("""")))",Chrome 67.0.3396.99,,2018-08-10 08:36:17,2018-08-10 08:36:17,0.141s,PASSED
"Statement - setTableValues(5, i, 2)",Chrome 67.0.3396.99,Tuesday column,2018-08-10 08:36:17,2018-08-10 08:36:17,0.001s,PASSED
click,Chrome 67.0.3396.99,,2018-08-10 08:36:17,2018-08-10 08:36:18,0.109s,PASSED
"Statement - If (!(workday_time[i][j].equals("""")))",Chrome 67.0.3396.99,,2018-08-10 08:36:18,2018-08-10 08:36:18,0.132s,PASSED
"Statement - setTableValues(6, i, 3)",Chrome 67.0.3396.99,Wednesday column,2018-08-10 08:36:18,2018-08-10 08:36:18,0.000s,PASSED
click,Chrome 67.0.3396.99,,2018-08-10 08:36:18,2018-08-10 08:36:18,0.100s,PASSED
"Statement - If (!(workday_time[i][j].equals("""")))",Chrome 67.0.3396.99,,2018-08-10 08:36:18,2018-08-10 08:36:18,0.000s,PASSED
"Statement - setTableValues(7, i, 4)",Chrome 67.0.3396.99,Thursday column,2018-08-10 08:36:18,2018-08-10 08:36:18,0.000s,PASSED
click,Chrome 67.0.3396.99,,2018-08-10 08:36:18,2018-08-10 08:36:18,0.084s,PASSED
"Statement - If (!(workday_time[i][j].equals("""")))",Chrome 67.0.3396.99,,2018-08-10 08:36:18,2018-08-10 08:36:18,0.216s,PASSED
"Statement - setTableValues(8, i, 5)",Chrome 67.0.3396.99,Friday column,2018-08-10 08:36:18,2018-08-10 08:36:18,0.000s,PASSED
click,Chrome 67.0.3396.99,,2018-08-10 08:36:18,2018-08-10 08:36:18,0.091s,PASSED
"Statement - If (!(workday_time[i][j].equals("""")))",Chrome 67.0.3396.99,,2018-08-10 08:36:18,2018-08-10 08:36:19,1.003s,PASSED
Statement - timeTypeValue = workday_time[i][0].toString(),Chrome 67.0.3396.99,,2018-08-10 08:36:19,2018-08-10 08:36:19,0.000s,PASSED
click,Chrome 67.0.3396.99,,2018-08-10 08:36:19,2018-08-10 08:36:19,0.074s,PASSED
delay,Chrome 67.0.3396.99,,2018-08-10 08:36:19,2018-08-10 08:36:20,1.001s,PASSED
click,Chrome 67.0.3396.99,,2018-08-10 08:36:20,2018-08-10 08:36:20,0.102s,PASSED
focus,Chrome 67.0.3396.99,,2018-08-10 08:36:20,2018-08-10 08:36:20,0.078s,PASSED
delay,Chrome 67.0.3396.99,,2018-08-10 08:36:20,2018-08-10 08:36:21,1.001s,PASSED
sendKeys,Chrome 67.0.3396.99,,2018-08-10 08:36:21,2018-08-10 08:36:22,0.397s,PASSED
sendKeys,Chrome 67.0.3396.99,,2018-08-10 08:36:22,2018-08-10 08:36:22,0.039s,PASSED
delay,Chrome 67.0.3396.99,,2018-08-10 08:36:22,2018-08-10 08:36:23,1.001s,PASSED
waitForElementPresent,Chrome 67.0.3396.99,,2018-08-10 08:36:23,2018-08-10 08:36:23,0.017s,PASSED
"Statement - setTableValues(4, i, 1)",Chrome 67.0.3396.99,Monday column,2018-08-10 08:36:23,2018-08-10 08:36:23,0.001s,PASSED
click,Chrome 67.0.3396.99,,2018-08-10 08:36:23,2018-08-10 08:36:23,0.129s,PASSED
"Statement - If (!(workday_time[i][j].equals("""")))",Chrome 67.0.3396.99,,2018-08-10 08:36:23,2018-08-10 08:36:23,0.000s,PASSED
"Statement - setTableValues(5, i, 2)",Chrome 67.0.3396.99,Tuesday column,2018-08-10 08:36:23,2018-08-10 08:36:23,0.000s,PASSED
click,Chrome 67.0.3396.99,,2018-08-10 08:36:23,2018-08-10 08:36:23,0.094s,PASSED
"Statement - If (!(workday_time[i][j].equals("""")))",Chrome 67.0.3396.99,,2018-08-10 08:36:23,2018-08-10 08:36:23,0.000s,PASSED
"Statement - setTableValues(6, i, 3)",Chrome 67.0.3396.99,Wednesday column,2018-08-10 08:36:23,2018-08-10 08:36:23,0.001s,PASSED
click,Chrome 67.0.3396.99,,2018-08-10 08:36:23,2018-08-10 08:36:23,0.181s,PASSED
"Statement - If (!(workday_time[i][j].equals("""")))",Chrome 67.0.3396.99,,2018-08-10 08:36:23,2018-08-10 08:36:24,0.209s,PASSED
"Statement - setTableValues(7, i, 4)",Chrome 67.0.3396.99,Thursday column,2018-08-10 08:36:24,2018-08-10 08:36:24,0.000s,PASSED
click,Chrome 67.0.3396.99,,2018-08-10 08:36:24,2018-08-10 08:36:24,0.131s,PASSED
"Statement - If (!(workday_time[i][j].equals("""")))",Chrome 67.0.3396.99,,2018-08-10 08:36:24,2018-08-10 08:36:24,0.190s,PASSED
"Statement - setTableValues(8, i, 5)",Chrome 67.0.3396.99,Friday column,2018-08-10 08:36:24,2018-08-10 08:36:24,0.000s,PASSED
click,Chrome 67.0.3396.99,,2018-08-10 08:36:24,2018-08-10 08:36:24,0.096s,PASSED
"Statement - If (!(workday_time[i][j].equals("""")))",Chrome 67.0.3396.99,,2018-08-10 08:36:24,2018-08-10 08:36:25,1.001s,PASSED
Statement - timeTypeValue = workday_time[i][0].toString(),Chrome 67.0.3396.99,,2018-08-10 08:36:25,2018-08-10 08:36:25,0.001s,PASSED
click,Chrome 67.0.3396.99,,2018-08-10 08:36:25,2018-08-10 08:36:25,0.073s,PASSED
delay,Chrome 67.0.3396.99,,2018-08-10 08:36:25,2018-08-10 08:36:26,1.001s,PASSED
click,Chrome 67.0.3396.99,,2018-08-10 08:36:26,2018-08-10 08:36:26,0.096s,PASSED
focus,Chrome 67.0.3396.99,,2018-08-10 08:36:26,2018-08-10 08:36:26,0.072s,PASSED
delay,Chrome 67.0.3396.99,,2018-08-10 08:36:26,2018-08-10 08:36:27,1.001s,PASSED
sendKeys,Chrome 67.0.3396.99,,2018-08-10 08:36:27,2018-08-10 08:36:27,0.230s,PASSED
sendKeys,Chrome 67.0.3396.99,,2018-08-10 08:36:27,2018-08-10 08:36:27,0.044s,PASSED
delay,Chrome 67.0.3396.99,,2018-08-10 08:36:27,2018-08-10 08:36:28,1.001s,PASSED
waitForElementPresent,Chrome 67.0.3396.99,,2018-08-10 08:36:28,2018-08-10 08:36:29,0.026s,PASSED
"Statement - setTableValues(4, i, 1)",Chrome 67.0.3396.99,Monday column,2018-08-10 08:36:29,2018-08-10 08:36:29,0.000s,PASSED
click,Chrome 67.0.3396.99,,2018-08-10 08:36:29,2018-08-10 08:36:29,0.094s,PASSED
"Statement - If (!(workday_time[i][j].equals("""")))",Chrome 67.0.3396.99,,2018-08-10 08:36:29,2018-08-10 08:36:29,0.000s,PASSED
"Statement - setTableValues(5, i, 2)",Chrome 67.0.3396.99,Tuesday column,2018-08-10 08:36:29,2018-08-10 08:36:29,0.000s,PASSED
click,Chrome 67.0.3396.99,,2018-08-10 08:36:29,2018-08-10 08:36:29,0.090s,PASSED
"Statement - If (!(workday_time[i][j].equals("""")))",Chrome 67.0.3396.99,,2018-08-10 08:36:29,2018-08-10 08:36:29,0.001s,PASSED
"Statement - setTableValues(6, i, 3)",Chrome 67.0.3396.99,Wednesday column,2018-08-10 08:36:29,2018-08-10 08:36:29,0.000s,PASSED
click,Chrome 67.0.3396.99,,2018-08-10 08:36:29,2018-08-10 08:36:29,0.123s,PASSED
"Statement - If (!(workday_time[i][j].equals("""")))",Chrome 67.0.3396.99,,2018-08-10 08:36:29,2018-08-10 08:36:29,0.000s,PASSED
"Statement - setTableValues(7, i, 4)",Chrome 67.0.3396.99,Thursday column,2018-08-10 08:36:29,2018-08-10 08:36:29,0.000s,PASSED
click,Chrome 67.0.3396.99,,2018-08-10 08:36:29,2018-08-10 08:36:29,0.124s,PASSED
"Statement - If (!(workday_time[i][j].equals("""")))",Chrome 67.0.3396.99,,2018-08-10 08:36:29,2018-08-10 08:36:29,0.180s,PASSED
"Statement - setTableValues(8, i, 5)",Chrome 67.0.3396.99,Friday column,2018-08-10 08:36:29,2018-08-10 08:36:29,0.000s,PASSED
click,Chrome 67.0.3396.99,,2018-08-10 08:36:29,2018-08-10 08:36:29,0.093s,PASSED
"Statement - If (!(workday_time[i][j].equals("""")))",Chrome 67.0.3396.99,,2018-08-10 08:36:29,2018-08-10 08:36:29,0.000s,PASSED
delay,Chrome 67.0.3396.99,,2018-08-10 08:36:29,2018-08-10 08:36:31,2.002s,PASSED
Statement - rowSize_after = getTableRowCount(),Chrome 67.0.3396.99,,2018-08-10 08:36:31,2018-08-10 08:36:31,0.000s,PASSED
Statement - driver = com.kms.katalon.core.webui.driver.DriverFactory.getWebDriver(),Chrome 67.0.3396.99,,2018-08-10 08:36:31,2018-08-10 08:36:31,0.000s,PASSED
"Statement - Table = driver.findElement(org.openqa.selenium.By.xpath(""//table[@class='mainTable']""))",Chrome 67.0.3396.99,,2018-08-10 08:36:31,2018-08-10 08:36:31,0.019s,PASSED
"Statement - rows_table = Table.findElements(org.openqa.selenium.By.tagName(""tr""))",Chrome 67.0.3396.99,,2018-08-10 08:36:31,2018-08-10 08:36:31,0.016s,PASSED
Statement - return (rows_table.size() - 2),Chrome 67.0.3396.99,,2018-08-10 08:36:31,2018-08-10 08:36:31,0.000s,PASSED
Statement - row_size_diff = rowSize_after - rowSize_before,Chrome 67.0.3396.99,,2018-08-10 08:36:31,2018-08-10 08:36:31,0.000s,PASSED
Statement - final_row_size = arrayLength + existing_tasks_size,Chrome 67.0.3396.99,,2018-08-10 08:36:31,2018-08-10 08:36:31,0.000s,PASSED
Statement - println(existing_tasks_size),Chrome 67.0.3396.99,,2018-08-10 08:36:31,2018-08-10 08:36:31,0.000s,PASSED
Statement - println(row_size_diff),Chrome 67.0.3396.99,,2018-08-10 08:36:31,2018-08-10 08:36:31,0.001s,PASSED
Statement - println(final_row_size),Chrome 67.0.3396.99,,2018-08-10 08:36:31,2018-08-10 08:36:31,0.000s,PASSED
Statement - println(rowSize_before),Chrome 67.0.3396.99,,2018-08-10 08:36:31,2018-08-10 08:36:31,0.000s,PASSED
Statement - If (rowSize_after > final_row_size),Chrome 67.0.3396.99,,2018-08-10 08:36:31,2018-08-10 08:36:31,0.000s,PASSED
click,Chrome 67.0.3396.99,,2018-08-10 08:36:31,2018-08-10 08:36:31,0.106s,PASSED
waitForElementPresent,Chrome 67.0.3396.99,,2018-08-10 08:36:31,2018-08-10 08:36:52,20.404s,PASSED
closeBrowser,Chrome 67.0.3396.99,,2018-08-10 08:36:52,2018-08-10 08:36:53,0.766s,PASSED
