Suite/Test/Step Name,Browser,Description,Start time,End time,Duration,Status
Timesheet,Chrome 67.0.3396.99,,2018-07-26 09:37:25,2018-07-26 09:38:56,1m - 31.144s,ERROR
,,,,,,
Test Cases/Login to Navision,Chrome 67.0.3396.99,,2018-07-26 09:37:25,2018-07-26 09:38:02,36.787s,PASSED
openBrowser,Chrome 67.0.3396.99,,2018-07-26 09:37:25,2018-07-26 09:37:58,32.170s,PASSED
waitForElementPresent,Chrome 67.0.3396.99,,2018-07-26 09:37:58,2018-07-26 09:37:58,0.076s,PASSED
navigateToUrl,Chrome 67.0.3396.99,,2018-07-26 09:37:58,2018-07-26 09:37:58,0.216s,PASSED
waitForElementPresent,Chrome 67.0.3396.99,,2018-07-26 09:37:58,2018-07-26 09:37:58,0.020s,PASSED
maximizeWindow,Chrome 67.0.3396.99,,2018-07-26 09:37:58,2018-07-26 09:37:59,1.141s,PASSED
click,Chrome 67.0.3396.99,,2018-07-26 09:37:59,2018-07-26 09:37:59,0.084s,PASSED
click,Chrome 67.0.3396.99,,2018-07-26 09:37:59,2018-07-26 09:38:00,0.593s,PASSED
waitForElementPresent,Chrome 67.0.3396.99,,2018-07-26 09:38:00,2018-07-26 09:38:00,0.537s,PASSED
switchToFrame,Chrome 67.0.3396.99,,2018-07-26 09:38:00,2018-07-26 09:38:00,0.053s,PASSED
Statement - driver = com.kms.katalon.core.webui.driver.DriverFactory.getWebDriver(),Chrome 67.0.3396.99,To locate table,2018-07-26 09:38:00,2018-07-26 09:38:00,0.008s,PASSED
"Statement - Table = driver.findElement(org.openqa.selenium.By.xpath(""//table[(@summary = 'Time Sheet')]//tbody""))",Chrome 67.0.3396.99,,2018-07-26 09:38:00,2018-07-26 09:38:00,0.035s,PASSED
"Statement - rows_table = Table.findElements(org.openqa.selenium.By.tagName(""tr""))",Chrome 67.0.3396.99,To locate rows of table it will Capture all the rows available in the table,2018-07-26 09:38:00,2018-07-26 09:38:00,0.022s,PASSED
Statement - rows_count = rows_table.size() - 1,Chrome 67.0.3396.99,To calculate no of rows In table,2018-07-26 09:38:00,2018-07-26 09:38:00,0.003s,PASSED
"Statement - println(""No. of rows: "" + rows_count)",Chrome 67.0.3396.99,,2018-07-26 09:38:00,2018-07-26 09:38:00,0.004s,PASSED
Statement - workday_time = <not implemented yet for class: org.codehaus.groovy.ast.expr.EmptyExpression>,Chrome 67.0.3396.99,,2018-07-26 09:38:00,2018-07-26 09:38:00,0.001s,PASSED
Statement - workday_time = [],Chrome 67.0.3396.99,,2018-07-26 09:38:00,2018-07-26 09:38:00,0.001s,PASSED
"Statement - For ([i = 0, i < rows_count, (i++)])",Chrome 67.0.3396.99,Loop will execute for all the rows of the table,2018-07-26 09:38:00,2018-07-26 09:38:01,0.767s,PASSED
Statement - arrayLength = workday_time.size(),Chrome 67.0.3396.99,,2018-07-26 09:38:01,2018-07-26 09:38:01,0.001s,PASSED
Statement - arrayLength = arrayLength,Chrome 67.0.3396.99,,2018-07-26 09:38:01,2018-07-26 09:38:01,0.007s,PASSED
Statement - workday_time = workday_time,Chrome 67.0.3396.99,,2018-07-26 09:38:01,2018-07-26 09:38:01,0.000s,PASSED
Statement - println(workday_time),Chrome 67.0.3396.99,,2018-07-26 09:38:01,2018-07-26 09:38:01,0.000s,PASSED
Statement - println(arrayLength),Chrome 67.0.3396.99,,2018-07-26 09:38:01,2018-07-26 09:38:01,0.000s,PASSED
closeBrowser,Chrome 67.0.3396.99,,2018-07-26 09:38:01,2018-07-26 09:38:02,0.699s,PASSED
,,,,,,
Test Cases/Login in to workday,Chrome 67.0.3396.99,,2018-07-26 09:38:02,2018-07-26 09:38:55,53.382s,ERROR
openBrowser,Chrome 67.0.3396.99,,2018-07-26 09:38:02,2018-07-26 09:38:29,26.766s,PASSED
navigateToUrl,Chrome 67.0.3396.99,,2018-07-26 09:38:29,2018-07-26 09:38:30,1.153s,PASSED
setText,Chrome 67.0.3396.99,,2018-07-26 09:38:30,2018-07-26 09:38:35,5.363s,PASSED
setText,Chrome 67.0.3396.99,,2018-07-26 09:38:35,2018-07-26 09:38:36,0.116s,PASSED
click,Chrome 67.0.3396.99,,2018-07-26 09:38:36,2018-07-26 09:38:36,0.087s,PASSED
click,Chrome 67.0.3396.99,,2018-07-26 09:38:36,2018-07-26 09:38:46,9.988s,PASSED
maximizeWindow,Chrome 67.0.3396.99,,2018-07-26 09:38:46,2018-07-26 09:38:47,1.133s,PASSED
click,Chrome 67.0.3396.99,,2018-07-26 09:38:47,2018-07-26 09:38:47,0.601s,PASSED
click,Chrome 67.0.3396.99,,2018-07-26 09:38:47,2018-07-26 09:38:48,1.102s,PASSED
focus,Chrome 67.0.3396.99,,2018-07-26 09:38:48,2018-07-26 09:38:50,1.196s,PASSED
delay,Chrome 67.0.3396.99,,2018-07-26 09:38:50,2018-07-26 09:38:51,1.020s,PASSED
click,Chrome 67.0.3396.99,,2018-07-26 09:38:51,2018-07-26 09:38:51,0.075s,PASSED
delay,Chrome 67.0.3396.99,,2018-07-26 09:38:51,2018-07-26 09:38:52,1.002s,PASSED
click,Chrome 67.0.3396.99,,2018-07-26 09:38:52,2018-07-26 09:38:52,0.081s,PASSED
waitForElementVisible,Chrome 67.0.3396.99,,2018-07-26 09:38:52,2018-07-26 09:38:53,1.104s,PASSED
Statement - rowSize_before = getTableRowCount(),Chrome 67.0.3396.99,,2018-07-26 09:38:53,2018-07-26 09:38:53,0.000s,PASSED
Statement - driver = com.kms.katalon.core.webui.driver.DriverFactory.getWebDriver(),Chrome 67.0.3396.99,,2018-07-26 09:38:53,2018-07-26 09:38:53,0.000s,PASSED
"Statement - Table = driver.findElement(org.openqa.selenium.By.xpath(""//table[@class='mainTable']""))",Chrome 67.0.3396.99,,2018-07-26 09:38:53,2018-07-26 09:38:53,0.018s,PASSED
"Statement - rows_table = Table.findElements(org.openqa.selenium.By.tagName(""tr""))",Chrome 67.0.3396.99,,2018-07-26 09:38:53,2018-07-26 09:38:53,0.016s,PASSED
Statement - return rows_table.size(),Chrome 67.0.3396.99,,2018-07-26 09:38:53,2018-07-26 09:38:53,0.000s,PASSED
Statement - arrayLength = arrayLength,Chrome 67.0.3396.99,,2018-07-26 09:38:53,2018-07-26 09:38:53,0.000s,PASSED
"Statement - For ([i = 0, i < arrayLength, (i++)])",Chrome 67.0.3396.99,,2018-07-26 09:38:53,2018-07-26 09:38:55,2.080s,PASSED
Statement - timeTypeValue = workday_time[i][0].toString(),Chrome 67.0.3396.99,,2018-07-26 09:38:55,2018-07-26 09:38:55,0.004s,PASSED
Statement - If (verifyTaskIsPresent(timeTypeValue) != null),Chrome 67.0.3396.99,,2018-07-26 09:38:55,2018-07-26 09:38:55,0.001s,PASSED
Statement - rows_size = getTableRowCount() - 2,Chrome 67.0.3396.99,,2018-07-26 09:38:55,2018-07-26 09:38:55,0.000s,PASSED
Statement - driver = com.kms.katalon.core.webui.driver.DriverFactory.getWebDriver(),Chrome 67.0.3396.99,,2018-07-26 09:38:55,2018-07-26 09:38:55,0.001s,PASSED
"Statement - Table = driver.findElement(org.openqa.selenium.By.xpath(""//table[@class='mainTable']""))",Chrome 67.0.3396.99,,2018-07-26 09:38:55,2018-07-26 09:38:55,0.011s,PASSED
"Statement - rows_table = Table.findElements(org.openqa.selenium.By.tagName(""tr""))",Chrome 67.0.3396.99,,2018-07-26 09:38:55,2018-07-26 09:38:55,0.011s,PASSED
Statement - return rows_table.size(),Chrome 67.0.3396.99,,2018-07-26 09:38:55,2018-07-26 09:38:55,0.001s,PASSED
"Statement - For ([x = 1, x < rows_size, (x++)])",Chrome 67.0.3396.99,,2018-07-26 09:38:55,2018-07-26 09:38:55,0.118s,PASSED
Statement - return null,Chrome 67.0.3396.99,,2018-07-26 09:38:55,2018-07-26 09:38:55,0.000s,PASSED
