Suite/Test/Step Name,Browser,Description,Start time,End time,Duration,Status
Timesheet,Chrome 67.0.3396.99,,2018-07-10 13:32:24,2018-07-10 13:33:42,1m - 17.964s,ERROR
,,,,,,
Test Cases/Login to Navision,Chrome 67.0.3396.99,,2018-07-10 13:32:25,2018-07-10 13:33:01,36.833s,PASSED
openBrowser,Chrome 67.0.3396.99,,2018-07-10 13:32:25,2018-07-10 13:32:57,32.166s,PASSED
waitForElementPresent,Chrome 67.0.3396.99,,2018-07-10 13:32:57,2018-07-10 13:32:57,0.098s,PASSED
navigateToUrl,Chrome 67.0.3396.99,,2018-07-10 13:32:57,2018-07-10 13:32:58,0.225s,PASSED
waitForElementPresent,Chrome 67.0.3396.99,,2018-07-10 13:32:58,2018-07-10 13:32:58,0.022s,PASSED
maximizeWindow,Chrome 67.0.3396.99,,2018-07-10 13:32:58,2018-07-10 13:32:59,1.143s,PASSED
click,Chrome 67.0.3396.99,,2018-07-10 13:32:59,2018-07-10 13:32:59,0.089s,PASSED
click,Chrome 67.0.3396.99,,2018-07-10 13:32:59,2018-07-10 13:32:59,0.601s,PASSED
waitForElementPresent,Chrome 67.0.3396.99,,2018-07-10 13:32:59,2018-07-10 13:33:00,0.538s,PASSED
switchToFrame,Chrome 67.0.3396.99,,2018-07-10 13:33:00,2018-07-10 13:33:00,0.067s,PASSED
Statement - driver = com.kms.katalon.core.webui.driver.DriverFactory.getWebDriver(),Chrome 67.0.3396.99,To locate table,2018-07-10 13:33:00,2018-07-10 13:33:00,0.009s,PASSED
"Statement - Table = driver.findElement(org.openqa.selenium.By.xpath(""//table[(@summary = 'Time Sheet')]//tbody""))",Chrome 67.0.3396.99,,2018-07-10 13:33:00,2018-07-10 13:33:00,0.040s,PASSED
"Statement - rows_table = Table.findElements(org.openqa.selenium.By.tagName(""tr""))",Chrome 67.0.3396.99,To locate rows of table it will Capture all the rows available in the table,2018-07-10 13:33:00,2018-07-10 13:33:00,0.024s,PASSED
Statement - rows_count = rows_table.size() - 1,Chrome 67.0.3396.99,To calculate no of rows In table,2018-07-10 13:33:00,2018-07-10 13:33:00,0.002s,PASSED
"Statement - println(""No. of rows: "" + rows_count)",Chrome 67.0.3396.99,,2018-07-10 13:33:00,2018-07-10 13:33:00,0.004s,PASSED
Statement - workday_time = <not implemented yet for class: org.codehaus.groovy.ast.expr.EmptyExpression>,Chrome 67.0.3396.99,,2018-07-10 13:33:00,2018-07-10 13:33:00,0.001s,PASSED
Statement - workday_time = [],Chrome 67.0.3396.99,,2018-07-10 13:33:00,2018-07-10 13:33:00,0.000s,PASSED
"Statement - For ([i = 0, i < rows_count, (i++)])",Chrome 67.0.3396.99,Loop will execute for all the rows of the table,2018-07-10 13:33:00,2018-07-10 13:33:01,0.591s,PASSED
Statement - arrayLength = workday_time.size(),Chrome 67.0.3396.99,,2018-07-10 13:33:01,2018-07-10 13:33:01,0.003s,PASSED
Statement - arrayLength = arrayLength,Chrome 67.0.3396.99,,2018-07-10 13:33:01,2018-07-10 13:33:01,0.014s,PASSED
Statement - workday_time = workday_time,Chrome 67.0.3396.99,,2018-07-10 13:33:01,2018-07-10 13:33:01,0.001s,PASSED
Statement - println(workday_time),Chrome 67.0.3396.99,,2018-07-10 13:33:01,2018-07-10 13:33:01,0.001s,PASSED
Statement - println(arrayLength),Chrome 67.0.3396.99,,2018-07-10 13:33:01,2018-07-10 13:33:01,0.001s,PASSED
closeBrowser,Chrome 67.0.3396.99,,2018-07-10 13:33:01,2018-07-10 13:33:01,0.724s,PASSED
,,,,,,
Test Cases/Login in to workday,Chrome 67.0.3396.99,,2018-07-10 13:33:01,2018-07-10 13:33:41,40.023s,ERROR
openBrowser,Chrome 67.0.3396.99,,2018-07-10 13:33:02,2018-07-10 13:33:29,27.042s,PASSED
navigateToUrl,Chrome 67.0.3396.99,,2018-07-10 13:33:29,2018-07-10 13:33:30,1.132s,PASSED
setText,Chrome 67.0.3396.99,,2018-07-10 13:33:30,2018-07-10 13:33:33,2.358s,PASSED
setText,Chrome 67.0.3396.99,,2018-07-10 13:33:33,2018-07-10 13:33:33,0.116s,PASSED
click,Chrome 67.0.3396.99,,2018-07-10 13:33:33,2018-07-10 13:33:33,0.098s,PASSED
click,Chrome 67.0.3396.99,,2018-07-10 13:33:33,2018-07-10 13:33:37,4.552s,PASSED
maximizeWindow,Chrome 67.0.3396.99,,2018-07-10 13:33:37,2018-07-10 13:33:38,1.132s,PASSED
click,Chrome 67.0.3396.99,,2018-07-10 13:33:38,2018-07-10 13:33:39,0.601s,PASSED
click,Chrome 67.0.3396.99,,2018-07-10 13:33:39,2018-07-10 13:33:40,1.101s,PASSED
click,Chrome 67.0.3396.99,,2018-07-10 13:33:40,2018-07-10 13:33:41,1.115s,PASSED
click,Chrome 67.0.3396.99,,2018-07-10 13:33:41,2018-07-10 13:33:41,0.121s,PASSED
waitForElementVisible,Chrome 67.0.3396.99,,2018-07-10 13:33:41,2018-07-10 13:33:41,0.070s,PASSED
Statement - element = com.kms.katalon.core.webui.common.WebUiCommonHelper.findWebElement(com.kms.katalon.core.testobject.ObjectRepository.findTestObject(Object Repository/Page_Home - Workday/enterTime)),Chrome 67.0.3396.99,,2018-07-10 13:33:41,2018-07-10 13:33:41,0.017s,PASSED
