Suite/Test/Step Name,Browser,Description,Start time,End time,Duration,Status
Timesheet,Chrome 67.0.3396.99,,2018-07-11 12:41:14,2018-07-11 12:43:28,2m - 13.995s,ERROR
,,,,,,
Test Cases/Login to Navision,Chrome 67.0.3396.99,,2018-07-11 12:41:15,2018-07-11 12:41:52,37.533s,PASSED
openBrowser,Chrome 67.0.3396.99,,2018-07-11 12:41:15,2018-07-11 12:41:47,31.729s,PASSED
waitForElementPresent,Chrome 67.0.3396.99,,2018-07-11 12:41:47,2018-07-11 12:41:47,0.099s,PASSED
navigateToUrl,Chrome 67.0.3396.99,,2018-07-11 12:41:47,2018-07-11 12:41:47,0.271s,PASSED
waitForElementPresent,Chrome 67.0.3396.99,,2018-07-11 12:41:47,2018-07-11 12:41:47,0.017s,PASSED
maximizeWindow,Chrome 67.0.3396.99,,2018-07-11 12:41:47,2018-07-11 12:41:48,1.141s,PASSED
click,Chrome 67.0.3396.99,,2018-07-11 12:41:48,2018-07-11 12:41:48,0.088s,PASSED
click,Chrome 67.0.3396.99,,2018-07-11 12:41:48,2018-07-11 12:41:49,0.593s,PASSED
waitForElementPresent,Chrome 67.0.3396.99,,2018-07-11 12:41:49,2018-07-11 12:41:50,0.535s,PASSED
switchToFrame,Chrome 67.0.3396.99,,2018-07-11 12:41:50,2018-07-11 12:41:50,0.058s,PASSED
Statement - driver = com.kms.katalon.core.webui.driver.DriverFactory.getWebDriver(),Chrome 67.0.3396.99,To locate table,2018-07-11 12:41:50,2018-07-11 12:41:50,0.008s,PASSED
"Statement - Table = driver.findElement(org.openqa.selenium.By.xpath(""//table[(@summary = 'Time Sheet')]//tbody""))",Chrome 67.0.3396.99,,2018-07-11 12:41:50,2018-07-11 12:41:50,0.037s,PASSED
"Statement - rows_table = Table.findElements(org.openqa.selenium.By.tagName(""tr""))",Chrome 67.0.3396.99,To locate rows of table it will Capture all the rows available in the table,2018-07-11 12:41:50,2018-07-11 12:41:50,0.022s,PASSED
Statement - rows_count = rows_table.size() - 1,Chrome 67.0.3396.99,To calculate no of rows In table,2018-07-11 12:41:50,2018-07-11 12:41:50,0.002s,PASSED
"Statement - println(""No. of rows: "" + rows_count)",Chrome 67.0.3396.99,,2018-07-11 12:41:50,2018-07-11 12:41:50,0.003s,PASSED
Statement - workday_time = <not implemented yet for class: org.codehaus.groovy.ast.expr.EmptyExpression>,Chrome 67.0.3396.99,,2018-07-11 12:41:50,2018-07-11 12:41:50,0.001s,PASSED
Statement - workday_time = [],Chrome 67.0.3396.99,,2018-07-11 12:41:50,2018-07-11 12:41:50,0.001s,PASSED
"Statement - For ([i = 0, i < rows_count, (i++)])",Chrome 67.0.3396.99,Loop will execute for all the rows of the table,2018-07-11 12:41:50,2018-07-11 12:41:51,1.773s,PASSED
Statement - arrayLength = workday_time.size(),Chrome 67.0.3396.99,,2018-07-11 12:41:51,2018-07-11 12:41:51,0.001s,PASSED
Statement - arrayLength = arrayLength,Chrome 67.0.3396.99,,2018-07-11 12:41:51,2018-07-11 12:41:51,0.008s,PASSED
Statement - workday_time = workday_time,Chrome 67.0.3396.99,,2018-07-11 12:41:51,2018-07-11 12:41:51,0.001s,PASSED
Statement - println(workday_time),Chrome 67.0.3396.99,,2018-07-11 12:41:51,2018-07-11 12:41:51,0.000s,PASSED
Statement - println(arrayLength),Chrome 67.0.3396.99,,2018-07-11 12:41:51,2018-07-11 12:41:51,0.001s,PASSED
closeBrowser,Chrome 67.0.3396.99,,2018-07-11 12:41:51,2018-07-11 12:41:52,0.684s,PASSED
,,,,,,
Test Cases/Login in to workday,Chrome 67.0.3396.99,,2018-07-11 12:41:52,2018-07-11 12:43:28,1m - 35.455s,ERROR
openBrowser,Chrome 67.0.3396.99,,2018-07-11 12:41:53,2018-07-11 12:42:19,26.736s,PASSED
navigateToUrl,Chrome 67.0.3396.99,,2018-07-11 12:42:19,2018-07-11 12:42:22,2.284s,PASSED
setText,Chrome 67.0.3396.99,,2018-07-11 12:42:22,2018-07-11 12:42:24,2.341s,PASSED
setText,Chrome 67.0.3396.99,,2018-07-11 12:42:24,2018-07-11 12:42:24,0.140s,PASSED
click,Chrome 67.0.3396.99,,2018-07-11 12:42:24,2018-07-11 12:42:24,0.092s,PASSED
click,Chrome 67.0.3396.99,,2018-07-11 12:42:24,2018-07-11 12:42:29,4.542s,PASSED
maximizeWindow,Chrome 67.0.3396.99,,2018-07-11 12:42:29,2018-07-11 12:42:30,1.133s,PASSED
click,Chrome 67.0.3396.99,,2018-07-11 12:42:30,2018-07-11 12:42:30,0.100s,PASSED
click,Chrome 67.0.3396.99,,2018-07-11 12:42:30,2018-07-11 12:42:31,1.155s,PASSED
click,Chrome 67.0.3396.99,,2018-07-11 12:42:31,2018-07-11 12:42:32,1.107s,PASSED
click,Chrome 67.0.3396.99,,2018-07-11 12:42:32,2018-07-11 12:42:32,0.142s,PASSED
waitForElementPresent,Chrome 67.0.3396.99,,2018-07-11 12:42:32,2018-07-11 12:42:32,0.024s,PASSED
waitForElementPresent,Chrome 67.0.3396.99,,2018-07-11 12:42:32,2018-07-11 12:42:32,0.029s,PASSED
waitForElementPresent,Chrome 67.0.3396.99,,2018-07-11 12:42:32,2018-07-11 12:42:32,0.015s,PASSED
waitForElementPresent,Chrome 67.0.3396.99,,2018-07-11 12:42:32,2018-07-11 12:42:32,0.019s,PASSED
sendKeys,Chrome 67.0.3396.99,,2018-07-11 12:42:32,2018-07-11 12:42:32,0.083s,PASSED
waitForElementVisible,Chrome 67.0.3396.99,,2018-07-11 12:42:32,2018-07-11 12:42:34,1.142s,PASSED
Statement - driver = com.kms.katalon.core.webui.driver.DriverFactory.getWebDriver(),Chrome 67.0.3396.99,,2018-07-11 12:42:34,2018-07-11 12:42:34,0.000s,PASSED
"Statement - Table = driver.findElement(org.openqa.selenium.By.xpath(""//table[@class='mainTable']""))",Chrome 67.0.3396.99,,2018-07-11 12:42:34,2018-07-11 12:42:34,0.016s,PASSED
"Statement - rows_table = Table.findElements(org.openqa.selenium.By.tagName(""tr""))",Chrome 67.0.3396.99,,2018-07-11 12:42:34,2018-07-11 12:42:34,0.016s,PASSED
"Statement - For ([i = 0, i < arrayLength, (i++)])",Chrome 67.0.3396.99,,2018-07-11 12:42:34,2018-07-11 12:42:34,0.113s,PASSED
Statement - timeTypeValue = workday_time[i][0].toString(),Chrome 67.0.3396.99,,2018-07-11 12:42:34,2018-07-11 12:42:34,0.003s,PASSED
Statement - charLength = timeTypeValue.length(),Chrome 67.0.3396.99,,2018-07-11 12:42:34,2018-07-11 12:42:34,0.000s,PASSED
click,Chrome 67.0.3396.99,,2018-07-11 12:42:34,2018-07-11 12:42:34,0.136s,PASSED
"Statement - For ([x = 0, x < charLength, (x++)])",Chrome 67.0.3396.99,,2018-07-11 12:42:34,2018-07-11 12:42:40,6.070s,PASSED
sendKeys,Chrome 67.0.3396.99,,2018-07-11 12:42:40,2018-07-11 12:42:40,0.039s,PASSED
waitForElementPresent,Chrome 67.0.3396.99,,2018-07-11 12:42:40,2018-07-11 12:43:00,20.433s,PASSED
click,Chrome 67.0.3396.99,,2018-07-11 12:43:00,2018-07-11 12:43:01,0.082s,PASSED
sendKeys,Chrome 67.0.3396.99,,2018-07-11 12:43:01,2018-07-11 12:43:01,0.081s,PASSED
click,Chrome 67.0.3396.99,,2018-07-11 12:43:01,2018-07-11 12:43:01,0.104s,PASSED
sendKeys,Chrome 67.0.3396.99,,2018-07-11 12:43:01,2018-07-11 12:43:01,0.090s,PASSED
click,Chrome 67.0.3396.99,,2018-07-11 12:43:01,2018-07-11 12:43:01,0.076s,PASSED
sendKeys,Chrome 67.0.3396.99,,2018-07-11 12:43:01,2018-07-11 12:43:01,0.050s,PASSED
click,Chrome 67.0.3396.99,,2018-07-11 12:43:01,2018-07-11 12:43:01,0.064s,PASSED
sendKeys,Chrome 67.0.3396.99,,2018-07-11 12:43:01,2018-07-11 12:43:01,0.053s,PASSED
click,Chrome 67.0.3396.99,,2018-07-11 12:43:01,2018-07-11 12:43:01,0.082s,PASSED
sendKeys,Chrome 67.0.3396.99,,2018-07-11 12:43:01,2018-07-11 12:43:01,0.153s,PASSED
Statement - timeTypeValue = workday_time[i][0].toString(),Chrome 67.0.3396.99,,2018-07-11 12:43:01,2018-07-11 12:43:01,0.000s,PASSED
Statement - charLength = timeTypeValue.length(),Chrome 67.0.3396.99,,2018-07-11 12:43:01,2018-07-11 12:43:01,0.000s,PASSED
click,Chrome 67.0.3396.99,,2018-07-11 12:43:01,2018-07-11 12:43:01,0.120s,PASSED
"Statement - For ([x = 0, x < charLength, (x++)])",Chrome 67.0.3396.99,,2018-07-11 12:43:01,2018-07-11 12:43:06,5.009s,PASSED
sendKeys,Chrome 67.0.3396.99,,2018-07-11 12:43:06,2018-07-11 12:43:06,0.048s,PASSED
waitForElementPresent,Chrome 67.0.3396.99,,2018-07-11 12:43:06,2018-07-11 12:43:27,20.435s,PASSED
click,Chrome 67.0.3396.99,,2018-07-11 12:43:27,2018-07-11 12:43:27,0.088s,PASSED
sendKeys,Chrome 67.0.3396.99,,2018-07-11 12:43:27,2018-07-11 12:43:27,0.084s,PASSED
click,Chrome 67.0.3396.99,,2018-07-11 12:43:27,2018-07-11 12:43:27,0.083s,PASSED
sendKeys,Chrome 67.0.3396.99,,2018-07-11 12:43:27,2018-07-11 12:43:27,0.056s,PASSED
click,Chrome 67.0.3396.99,,2018-07-11 12:43:27,2018-07-11 12:43:27,0.073s,PASSED
sendKeys,Chrome 67.0.3396.99,,2018-07-11 12:43:27,2018-07-11 12:43:27,0.057s,PASSED
click,Chrome 67.0.3396.99,,2018-07-11 12:43:27,2018-07-11 12:43:27,0.079s,PASSED
sendKeys,Chrome 67.0.3396.99,,2018-07-11 12:43:27,2018-07-11 12:43:27,0.049s,PASSED
click,Chrome 67.0.3396.99,,2018-07-11 12:43:27,2018-07-11 12:43:28,0.076s,PASSED
sendKeys,Chrome 67.0.3396.99,,2018-07-11 12:43:28,2018-07-11 12:43:28,0.050s,PASSED
