Suite/Test/Step Name,Browser,Description,Start time,End time,Duration,Status
Timesheet,Chrome 67.0.3396.99,,2018-08-10 08:50:17,2018-08-10 08:52:27,2m - 9.356s,PASSED
,,,,,,
Test Cases/Login to Navision,Chrome 67.0.3396.99,,2018-08-10 08:50:18,2018-08-10 08:50:59,40.767s,PASSED
openBrowser,Chrome 67.0.3396.99,,2018-08-10 08:50:18,2018-08-10 08:50:53,34.634s,PASSED
waitForElementPresent,Chrome 67.0.3396.99,,2018-08-10 08:50:53,2018-08-10 08:50:53,0.078s,PASSED
navigateToUrl,Chrome 67.0.3396.99,,2018-08-10 08:50:53,2018-08-10 08:50:53,0.251s,PASSED
waitForElementPresent,Chrome 67.0.3396.99,,2018-08-10 08:50:53,2018-08-10 08:50:53,0.020s,PASSED
maximizeWindow,Chrome 67.0.3396.99,,2018-08-10 08:50:53,2018-08-10 08:50:54,1.162s,PASSED
click,Chrome 67.0.3396.99,,2018-08-10 08:50:54,2018-08-10 08:50:55,0.084s,PASSED
click,Chrome 67.0.3396.99,,2018-08-10 08:50:55,2018-08-10 08:50:55,0.609s,PASSED
waitForElementPresent,Chrome 67.0.3396.99,,2018-08-10 08:50:55,2018-08-10 08:50:56,0.541s,PASSED
switchToFrame,Chrome 67.0.3396.99,,2018-08-10 08:50:56,2018-08-10 08:50:56,0.052s,PASSED
Statement - driver = com.kms.katalon.core.webui.driver.DriverFactory.getWebDriver(),Chrome 67.0.3396.99,To locate table,2018-08-10 08:50:56,2018-08-10 08:50:56,0.009s,PASSED
"Statement - Table = driver.findElement(org.openqa.selenium.By.xpath(""//table[(@summary = 'Time Sheet')]//tbody""))",Chrome 67.0.3396.99,,2018-08-10 08:50:56,2018-08-10 08:50:56,0.037s,PASSED
"Statement - rows_table = Table.findElements(org.openqa.selenium.By.tagName(""tr""))",Chrome 67.0.3396.99,To locate rows of table it will Capture all the rows available in the table,2018-08-10 08:50:56,2018-08-10 08:50:56,0.028s,PASSED
Statement - rows_count = rows_table.size() - 1,Chrome 67.0.3396.99,To calculate no of rows In table,2018-08-10 08:50:56,2018-08-10 08:50:56,0.003s,PASSED
"Statement - println(""No. of rows: "" + rows_count)",Chrome 67.0.3396.99,,2018-08-10 08:50:56,2018-08-10 08:50:56,0.004s,PASSED
Statement - workday_time = <not implemented yet for class: org.codehaus.groovy.ast.expr.EmptyExpression>,Chrome 67.0.3396.99,,2018-08-10 08:50:56,2018-08-10 08:50:56,0.001s,PASSED
Statement - workday_time = [],Chrome 67.0.3396.99,,2018-08-10 08:50:56,2018-08-10 08:50:56,0.000s,PASSED
"Statement - For ([i = 0, i < rows_count, (i++)])",Chrome 67.0.3396.99,Loop will execute for all the rows of the table,2018-08-10 08:50:56,2018-08-10 08:50:58,1.957s,PASSED
Statement - arrayLength = workday_time.size(),Chrome 67.0.3396.99,,2018-08-10 08:50:58,2018-08-10 08:50:58,0.002s,PASSED
Statement - arrayLength = arrayLength,Chrome 67.0.3396.99,,2018-08-10 08:50:58,2018-08-10 08:50:58,0.010s,PASSED
Statement - workday_time = workday_time,Chrome 67.0.3396.99,,2018-08-10 08:50:58,2018-08-10 08:50:58,0.000s,PASSED
Statement - println(workday_time),Chrome 67.0.3396.99,,2018-08-10 08:50:58,2018-08-10 08:50:58,0.000s,PASSED
Statement - println(arrayLength),Chrome 67.0.3396.99,,2018-08-10 08:50:58,2018-08-10 08:50:58,0.000s,PASSED
closeBrowser,Chrome 67.0.3396.99,,2018-08-10 08:50:58,2018-08-10 08:50:59,0.777s,PASSED
,,,,,,
Test Cases/Login in to workday,Chrome 67.0.3396.99,,2018-08-10 08:50:59,2018-08-10 08:52:27,1m - 28.202s,PASSED
openBrowser,Chrome 67.0.3396.99,,2018-08-10 08:50:59,2018-08-10 08:51:26,27.198s,PASSED
navigateToUrl,Chrome 67.0.3396.99,,2018-08-10 08:51:26,2018-08-10 08:51:28,1.204s,PASSED
setText,Chrome 67.0.3396.99,,2018-08-10 08:51:28,2018-08-10 08:51:30,2.398s,PASSED
setText,Chrome 67.0.3396.99,,2018-08-10 08:51:30,2018-08-10 08:51:30,0.168s,PASSED
click,Chrome 67.0.3396.99,,2018-08-10 08:51:30,2018-08-10 08:51:30,0.077s,PASSED
click,Chrome 67.0.3396.99,,2018-08-10 08:51:30,2018-08-10 08:51:35,5.095s,PASSED
maximizeWindow,Chrome 67.0.3396.99,,2018-08-10 08:51:35,2018-08-10 08:51:36,1.165s,PASSED
click,Chrome 67.0.3396.99,,2018-08-10 08:51:36,2018-08-10 08:51:37,0.167s,PASSED
click,Chrome 67.0.3396.99,,2018-08-10 08:51:37,2018-08-10 08:51:38,1.620s,PASSED
focus,Chrome 67.0.3396.99,,2018-08-10 08:51:38,2018-08-10 08:51:39,1.227s,PASSED
delay,Chrome 67.0.3396.99,,2018-08-10 08:51:39,2018-08-10 08:51:41,1.021s,PASSED
click,Chrome 67.0.3396.99,,2018-08-10 08:51:41,2018-08-10 08:51:41,0.073s,PASSED
delay,Chrome 67.0.3396.99,,2018-08-10 08:51:41,2018-08-10 08:51:42,1.002s,PASSED
click,Chrome 67.0.3396.99,,2018-08-10 08:51:42,2018-08-10 08:51:42,0.082s,PASSED
waitForElementVisible,Chrome 67.0.3396.99,,2018-08-10 08:51:42,2018-08-10 08:51:43,1.122s,PASSED
Statement - rowSize_before = getTableRowCount(),Chrome 67.0.3396.99,,2018-08-10 08:51:43,2018-08-10 08:51:43,0.000s,PASSED
Statement - driver = com.kms.katalon.core.webui.driver.DriverFactory.getWebDriver(),Chrome 67.0.3396.99,,2018-08-10 08:51:43,2018-08-10 08:51:43,0.001s,PASSED
"Statement - Table = driver.findElement(org.openqa.selenium.By.xpath(""//table[@class='mainTable']""))",Chrome 67.0.3396.99,,2018-08-10 08:51:43,2018-08-10 08:51:43,0.019s,PASSED
"Statement - rows_table = Table.findElements(org.openqa.selenium.By.tagName(""tr""))",Chrome 67.0.3396.99,,2018-08-10 08:51:43,2018-08-10 08:51:43,0.015s,PASSED
Statement - return (rows_table.size() - 2),Chrome 67.0.3396.99,,2018-08-10 08:51:43,2018-08-10 08:51:43,0.000s,PASSED
Statement - arrayLength = arrayLength,Chrome 67.0.3396.99,,2018-08-10 08:51:43,2018-08-10 08:51:43,0.001s,PASSED
Statement - rows_size_refined = getTableRowCount(),Chrome 67.0.3396.99,,2018-08-10 08:51:43,2018-08-10 08:51:43,0.000s,PASSED
Statement - driver = com.kms.katalon.core.webui.driver.DriverFactory.getWebDriver(),Chrome 67.0.3396.99,,2018-08-10 08:51:43,2018-08-10 08:51:43,0.001s,PASSED
"Statement - Table = driver.findElement(org.openqa.selenium.By.xpath(""//table[@class='mainTable']""))",Chrome 67.0.3396.99,,2018-08-10 08:51:43,2018-08-10 08:51:43,0.010s,PASSED
"Statement - rows_table = Table.findElements(org.openqa.selenium.By.tagName(""tr""))",Chrome 67.0.3396.99,,2018-08-10 08:51:43,2018-08-10 08:51:43,0.009s,PASSED
Statement - return (rows_table.size() - 2),Chrome 67.0.3396.99,,2018-08-10 08:51:43,2018-08-10 08:51:43,0.000s,PASSED
Statement - existing_tasks = <not implemented yet for class: org.codehaus.groovy.ast.expr.EmptyExpression>,Chrome 67.0.3396.99,,2018-08-10 08:51:43,2018-08-10 08:51:43,0.000s,PASSED
Statement - existing_tasks = [],Chrome 67.0.3396.99,,2018-08-10 08:51:43,2018-08-10 08:51:43,0.000s,PASSED
Statement - existing_tasks_size = <not implemented yet for class: org.codehaus.groovy.ast.expr.EmptyExpression>,Chrome 67.0.3396.99,,2018-08-10 08:51:43,2018-08-10 08:51:43,0.000s,PASSED
"Statement - For ([x = 1, x <= rows_size_refined, (x++)])",Chrome 67.0.3396.99,,2018-08-10 08:51:43,2018-08-10 08:51:43,0.091s,PASSED
Statement - If (existing_tasks == [null]),Chrome 67.0.3396.99,,2018-08-10 08:51:43,2018-08-10 08:51:43,0.001s,PASSED
Statement - Else,Chrome 67.0.3396.99,,2018-08-10 08:51:43,2018-08-10 08:51:43,0.001s,PASSED
"Statement - For ([i = 0, i < arrayLength, (i++)])",Chrome 67.0.3396.99,,2018-08-10 08:51:43,2018-08-10 08:51:44,1.002s,PASSED
Statement - timeTypeValue = workday_time[i][0].toString(),Chrome 67.0.3396.99,,2018-08-10 08:51:44,2018-08-10 08:51:44,0.003s,PASSED
click,Chrome 67.0.3396.99,,2018-08-10 08:51:44,2018-08-10 08:51:44,0.091s,PASSED
delay,Chrome 67.0.3396.99,,2018-08-10 08:51:44,2018-08-10 08:51:45,1.001s,PASSED
click,Chrome 67.0.3396.99,,2018-08-10 08:51:45,2018-08-10 08:51:45,0.107s,PASSED
focus,Chrome 67.0.3396.99,,2018-08-10 08:51:45,2018-08-10 08:51:45,0.109s,PASSED
delay,Chrome 67.0.3396.99,,2018-08-10 08:51:45,2018-08-10 08:51:46,1.000s,PASSED
sendKeys,Chrome 67.0.3396.99,,2018-08-10 08:51:46,2018-08-10 08:51:47,0.400s,PASSED
sendKeys,Chrome 67.0.3396.99,,2018-08-10 08:51:47,2018-08-10 08:51:47,0.048s,PASSED
delay,Chrome 67.0.3396.99,,2018-08-10 08:51:47,2018-08-10 08:51:48,1.002s,PASSED
waitForElementPresent,Chrome 67.0.3396.99,,2018-08-10 08:51:48,2018-08-10 08:51:48,0.029s,PASSED
"Statement - setTableValues(4, i, 1)",Chrome 67.0.3396.99,Monday column,2018-08-10 08:51:48,2018-08-10 08:51:48,0.000s,PASSED
click,Chrome 67.0.3396.99,,2018-08-10 08:51:48,2018-08-10 08:51:48,0.096s,PASSED
"Statement - If (!(workday_time[i][j].equals("""")))",Chrome 67.0.3396.99,,2018-08-10 08:51:48,2018-08-10 08:51:48,0.129s,PASSED
"Statement - setTableValues(5, i, 2)",Chrome 67.0.3396.99,Tuesday column,2018-08-10 08:51:48,2018-08-10 08:51:48,0.000s,PASSED
click,Chrome 67.0.3396.99,,2018-08-10 08:51:48,2018-08-10 08:51:48,0.113s,PASSED
"Statement - If (!(workday_time[i][j].equals("""")))",Chrome 67.0.3396.99,,2018-08-10 08:51:48,2018-08-10 08:51:48,0.147s,PASSED
"Statement - setTableValues(6, i, 3)",Chrome 67.0.3396.99,Wednesday column,2018-08-10 08:51:48,2018-08-10 08:51:48,0.001s,PASSED
click,Chrome 67.0.3396.99,,2018-08-10 08:51:48,2018-08-10 08:51:48,0.092s,PASSED
"Statement - If (!(workday_time[i][j].equals("""")))",Chrome 67.0.3396.99,,2018-08-10 08:51:48,2018-08-10 08:51:48,0.132s,PASSED
"Statement - setTableValues(7, i, 4)",Chrome 67.0.3396.99,Thursday column,2018-08-10 08:51:48,2018-08-10 08:51:48,0.000s,PASSED
click,Chrome 67.0.3396.99,,2018-08-10 08:51:48,2018-08-10 08:51:49,0.083s,PASSED
"Statement - If (!(workday_time[i][j].equals("""")))",Chrome 67.0.3396.99,,2018-08-10 08:51:49,2018-08-10 08:51:49,0.132s,PASSED
"Statement - setTableValues(8, i, 5)",Chrome 67.0.3396.99,Friday column,2018-08-10 08:51:49,2018-08-10 08:51:49,0.000s,PASSED
click,Chrome 67.0.3396.99,,2018-08-10 08:51:49,2018-08-10 08:51:49,0.083s,PASSED
"Statement - If (!(workday_time[i][j].equals("""")))",Chrome 67.0.3396.99,,2018-08-10 08:51:49,2018-08-10 08:51:50,1.003s,PASSED
Statement - timeTypeValue = workday_time[i][0].toString(),Chrome 67.0.3396.99,,2018-08-10 08:51:50,2018-08-10 08:51:50,0.000s,PASSED
click,Chrome 67.0.3396.99,,2018-08-10 08:51:50,2018-08-10 08:51:50,0.067s,PASSED
delay,Chrome 67.0.3396.99,,2018-08-10 08:51:50,2018-08-10 08:51:51,1.001s,PASSED
click,Chrome 67.0.3396.99,,2018-08-10 08:51:51,2018-08-10 08:51:51,0.106s,PASSED
focus,Chrome 67.0.3396.99,,2018-08-10 08:51:51,2018-08-10 08:51:51,0.073s,PASSED
delay,Chrome 67.0.3396.99,,2018-08-10 08:51:51,2018-08-10 08:51:52,1.002s,PASSED
sendKeys,Chrome 67.0.3396.99,,2018-08-10 08:51:52,2018-08-10 08:51:52,0.419s,PASSED
sendKeys,Chrome 67.0.3396.99,,2018-08-10 08:51:52,2018-08-10 08:51:52,0.047s,PASSED
delay,Chrome 67.0.3396.99,,2018-08-10 08:51:52,2018-08-10 08:51:53,1.001s,PASSED
waitForElementPresent,Chrome 67.0.3396.99,,2018-08-10 08:51:53,2018-08-10 08:51:53,0.024s,PASSED
"Statement - setTableValues(4, i, 1)",Chrome 67.0.3396.99,Monday column,2018-08-10 08:51:53,2018-08-10 08:51:53,0.001s,PASSED
click,Chrome 67.0.3396.99,,2018-08-10 08:51:53,2018-08-10 08:51:54,0.085s,PASSED
"Statement - If (!(workday_time[i][j].equals("""")))",Chrome 67.0.3396.99,,2018-08-10 08:51:54,2018-08-10 08:51:54,0.146s,PASSED
"Statement - setTableValues(5, i, 2)",Chrome 67.0.3396.99,Tuesday column,2018-08-10 08:51:54,2018-08-10 08:51:54,0.000s,PASSED
click,Chrome 67.0.3396.99,,2018-08-10 08:51:54,2018-08-10 08:51:54,0.103s,PASSED
"Statement - If (!(workday_time[i][j].equals("""")))",Chrome 67.0.3396.99,,2018-08-10 08:51:54,2018-08-10 08:51:54,0.197s,PASSED
"Statement - setTableValues(6, i, 3)",Chrome 67.0.3396.99,Wednesday column,2018-08-10 08:51:54,2018-08-10 08:51:54,0.000s,PASSED
click,Chrome 67.0.3396.99,,2018-08-10 08:51:54,2018-08-10 08:51:54,0.119s,PASSED
"Statement - If (!(workday_time[i][j].equals("""")))",Chrome 67.0.3396.99,,2018-08-10 08:51:54,2018-08-10 08:51:54,0.131s,PASSED
"Statement - setTableValues(7, i, 4)",Chrome 67.0.3396.99,Thursday column,2018-08-10 08:51:54,2018-08-10 08:51:54,0.000s,PASSED
click,Chrome 67.0.3396.99,,2018-08-10 08:51:54,2018-08-10 08:51:54,0.092s,PASSED
"Statement - If (!(workday_time[i][j].equals("""")))",Chrome 67.0.3396.99,,2018-08-10 08:51:54,2018-08-10 08:51:54,0.122s,PASSED
"Statement - setTableValues(8, i, 5)",Chrome 67.0.3396.99,Friday column,2018-08-10 08:51:54,2018-08-10 08:51:54,0.000s,PASSED
click,Chrome 67.0.3396.99,,2018-08-10 08:51:54,2018-08-10 08:51:55,0.121s,PASSED
"Statement - If (!(workday_time[i][j].equals("""")))",Chrome 67.0.3396.99,,2018-08-10 08:51:55,2018-08-10 08:51:56,1.002s,PASSED
Statement - timeTypeValue = workday_time[i][0].toString(),Chrome 67.0.3396.99,,2018-08-10 08:51:56,2018-08-10 08:51:56,0.000s,PASSED
click,Chrome 67.0.3396.99,,2018-08-10 08:51:56,2018-08-10 08:51:56,0.064s,PASSED
delay,Chrome 67.0.3396.99,,2018-08-10 08:51:56,2018-08-10 08:51:57,1.001s,PASSED
click,Chrome 67.0.3396.99,,2018-08-10 08:51:57,2018-08-10 08:51:57,0.098s,PASSED
focus,Chrome 67.0.3396.99,,2018-08-10 08:51:57,2018-08-10 08:51:57,0.072s,PASSED
delay,Chrome 67.0.3396.99,,2018-08-10 08:51:57,2018-08-10 08:51:58,1.002s,PASSED
sendKeys,Chrome 67.0.3396.99,,2018-08-10 08:51:58,2018-08-10 08:51:58,0.221s,PASSED
sendKeys,Chrome 67.0.3396.99,,2018-08-10 08:51:58,2018-08-10 08:51:58,0.040s,PASSED
delay,Chrome 67.0.3396.99,,2018-08-10 08:51:58,2018-08-10 08:51:59,1.001s,PASSED
waitForElementPresent,Chrome 67.0.3396.99,,2018-08-10 08:51:59,2018-08-10 08:51:59,0.018s,PASSED
"Statement - setTableValues(4, i, 1)",Chrome 67.0.3396.99,Monday column,2018-08-10 08:51:59,2018-08-10 08:51:59,0.000s,PASSED
click,Chrome 67.0.3396.99,,2018-08-10 08:51:59,2018-08-10 08:51:59,0.103s,PASSED
"Statement - If (!(workday_time[i][j].equals("""")))",Chrome 67.0.3396.99,,2018-08-10 08:51:59,2018-08-10 08:51:59,0.148s,PASSED
"Statement - setTableValues(5, i, 2)",Chrome 67.0.3396.99,Tuesday column,2018-08-10 08:51:59,2018-08-10 08:51:59,0.000s,PASSED
click,Chrome 67.0.3396.99,,2018-08-10 08:51:59,2018-08-10 08:51:59,0.099s,PASSED
"Statement - If (!(workday_time[i][j].equals("""")))",Chrome 67.0.3396.99,,2018-08-10 08:51:59,2018-08-10 08:52:00,0.135s,PASSED
"Statement - setTableValues(6, i, 3)",Chrome 67.0.3396.99,Wednesday column,2018-08-10 08:52:00,2018-08-10 08:52:00,0.000s,PASSED
click,Chrome 67.0.3396.99,,2018-08-10 08:52:00,2018-08-10 08:52:00,0.082s,PASSED
"Statement - If (!(workday_time[i][j].equals("""")))",Chrome 67.0.3396.99,,2018-08-10 08:52:00,2018-08-10 08:52:00,0.000s,PASSED
"Statement - setTableValues(7, i, 4)",Chrome 67.0.3396.99,Thursday column,2018-08-10 08:52:00,2018-08-10 08:52:00,0.000s,PASSED
click,Chrome 67.0.3396.99,,2018-08-10 08:52:00,2018-08-10 08:52:00,0.086s,PASSED
"Statement - If (!(workday_time[i][j].equals("""")))",Chrome 67.0.3396.99,,2018-08-10 08:52:00,2018-08-10 08:52:00,0.001s,PASSED
"Statement - setTableValues(8, i, 5)",Chrome 67.0.3396.99,Friday column,2018-08-10 08:52:00,2018-08-10 08:52:00,0.000s,PASSED
click,Chrome 67.0.3396.99,,2018-08-10 08:52:00,2018-08-10 08:52:00,0.098s,PASSED
"Statement - If (!(workday_time[i][j].equals("""")))",Chrome 67.0.3396.99,,2018-08-10 08:52:00,2018-08-10 08:52:01,1.001s,PASSED
Statement - timeTypeValue = workday_time[i][0].toString(),Chrome 67.0.3396.99,,2018-08-10 08:52:01,2018-08-10 08:52:01,0.001s,PASSED
click,Chrome 67.0.3396.99,,2018-08-10 08:52:01,2018-08-10 08:52:01,0.065s,PASSED
delay,Chrome 67.0.3396.99,,2018-08-10 08:52:01,2018-08-10 08:52:02,1.001s,PASSED
click,Chrome 67.0.3396.99,,2018-08-10 08:52:02,2018-08-10 08:52:02,0.146s,PASSED
focus,Chrome 67.0.3396.99,,2018-08-10 08:52:02,2018-08-10 08:52:02,0.075s,PASSED
delay,Chrome 67.0.3396.99,,2018-08-10 08:52:02,2018-08-10 08:52:03,1.001s,PASSED
sendKeys,Chrome 67.0.3396.99,,2018-08-10 08:52:03,2018-08-10 08:52:04,0.450s,PASSED
sendKeys,Chrome 67.0.3396.99,,2018-08-10 08:52:04,2018-08-10 08:52:04,0.046s,PASSED
delay,Chrome 67.0.3396.99,,2018-08-10 08:52:04,2018-08-10 08:52:05,1.002s,PASSED
waitForElementPresent,Chrome 67.0.3396.99,,2018-08-10 08:52:05,2018-08-10 08:52:05,0.018s,PASSED
"Statement - setTableValues(4, i, 1)",Chrome 67.0.3396.99,Monday column,2018-08-10 08:52:05,2018-08-10 08:52:05,0.001s,PASSED
click,Chrome 67.0.3396.99,,2018-08-10 08:52:05,2018-08-10 08:52:05,0.089s,PASSED
"Statement - If (!(workday_time[i][j].equals("""")))",Chrome 67.0.3396.99,,2018-08-10 08:52:05,2018-08-10 08:52:05,0.177s,PASSED
"Statement - setTableValues(5, i, 2)",Chrome 67.0.3396.99,Tuesday column,2018-08-10 08:52:05,2018-08-10 08:52:05,0.000s,PASSED
click,Chrome 67.0.3396.99,,2018-08-10 08:52:05,2018-08-10 08:52:05,0.176s,PASSED
"Statement - If (!(workday_time[i][j].equals("""")))",Chrome 67.0.3396.99,,2018-08-10 08:52:05,2018-08-10 08:52:05,0.000s,PASSED
"Statement - setTableValues(6, i, 3)",Chrome 67.0.3396.99,Wednesday column,2018-08-10 08:52:05,2018-08-10 08:52:05,0.000s,PASSED
click,Chrome 67.0.3396.99,,2018-08-10 08:52:05,2018-08-10 08:52:05,0.097s,PASSED
"Statement - If (!(workday_time[i][j].equals("""")))",Chrome 67.0.3396.99,,2018-08-10 08:52:05,2018-08-10 08:52:05,0.162s,PASSED
"Statement - setTableValues(7, i, 4)",Chrome 67.0.3396.99,Thursday column,2018-08-10 08:52:05,2018-08-10 08:52:05,0.000s,PASSED
click,Chrome 67.0.3396.99,,2018-08-10 08:52:05,2018-08-10 08:52:05,0.084s,PASSED
"Statement - If (!(workday_time[i][j].equals("""")))",Chrome 67.0.3396.99,,2018-08-10 08:52:05,2018-08-10 08:52:06,0.150s,PASSED
"Statement - setTableValues(8, i, 5)",Chrome 67.0.3396.99,Friday column,2018-08-10 08:52:06,2018-08-10 08:52:06,0.000s,PASSED
click,Chrome 67.0.3396.99,,2018-08-10 08:52:06,2018-08-10 08:52:06,0.081s,PASSED
"Statement - If (!(workday_time[i][j].equals("""")))",Chrome 67.0.3396.99,,2018-08-10 08:52:06,2018-08-10 08:52:07,1.002s,PASSED
Statement - timeTypeValue = workday_time[i][0].toString(),Chrome 67.0.3396.99,,2018-08-10 08:52:07,2018-08-10 08:52:07,0.001s,PASSED
click,Chrome 67.0.3396.99,,2018-08-10 08:52:07,2018-08-10 08:52:07,0.066s,PASSED
delay,Chrome 67.0.3396.99,,2018-08-10 08:52:07,2018-08-10 08:52:08,1.001s,PASSED
click,Chrome 67.0.3396.99,,2018-08-10 08:52:08,2018-08-10 08:52:08,0.095s,PASSED
focus,Chrome 67.0.3396.99,,2018-08-10 08:52:08,2018-08-10 08:52:08,0.067s,PASSED
delay,Chrome 67.0.3396.99,,2018-08-10 08:52:08,2018-08-10 08:52:09,1.000s,PASSED
sendKeys,Chrome 67.0.3396.99,,2018-08-10 08:52:09,2018-08-10 08:52:09,0.281s,PASSED
sendKeys,Chrome 67.0.3396.99,,2018-08-10 08:52:09,2018-08-10 08:52:09,0.040s,PASSED
delay,Chrome 67.0.3396.99,,2018-08-10 08:52:09,2018-08-10 08:52:10,1.001s,PASSED
waitForElementPresent,Chrome 67.0.3396.99,,2018-08-10 08:52:10,2018-08-10 08:52:10,0.024s,PASSED
"Statement - setTableValues(4, i, 1)",Chrome 67.0.3396.99,Monday column,2018-08-10 08:52:10,2018-08-10 08:52:10,0.000s,PASSED
click,Chrome 67.0.3396.99,,2018-08-10 08:52:10,2018-08-10 08:52:10,0.083s,PASSED
"Statement - If (!(workday_time[i][j].equals("""")))",Chrome 67.0.3396.99,,2018-08-10 08:52:10,2018-08-10 08:52:11,0.159s,PASSED
"Statement - setTableValues(5, i, 2)",Chrome 67.0.3396.99,Tuesday column,2018-08-10 08:52:11,2018-08-10 08:52:11,0.000s,PASSED
click,Chrome 67.0.3396.99,,2018-08-10 08:52:11,2018-08-10 08:52:11,0.108s,PASSED
"Statement - If (!(workday_time[i][j].equals("""")))",Chrome 67.0.3396.99,,2018-08-10 08:52:11,2018-08-10 08:52:11,0.132s,PASSED
"Statement - setTableValues(6, i, 3)",Chrome 67.0.3396.99,Wednesday column,2018-08-10 08:52:11,2018-08-10 08:52:11,0.000s,PASSED
click,Chrome 67.0.3396.99,,2018-08-10 08:52:11,2018-08-10 08:52:11,0.116s,PASSED
"Statement - If (!(workday_time[i][j].equals("""")))",Chrome 67.0.3396.99,,2018-08-10 08:52:11,2018-08-10 08:52:11,0.000s,PASSED
"Statement - setTableValues(7, i, 4)",Chrome 67.0.3396.99,Thursday column,2018-08-10 08:52:11,2018-08-10 08:52:11,0.000s,PASSED
click,Chrome 67.0.3396.99,,2018-08-10 08:52:11,2018-08-10 08:52:11,0.080s,PASSED
"Statement - If (!(workday_time[i][j].equals("""")))",Chrome 67.0.3396.99,,2018-08-10 08:52:11,2018-08-10 08:52:11,0.154s,PASSED
"Statement - setTableValues(8, i, 5)",Chrome 67.0.3396.99,Friday column,2018-08-10 08:52:11,2018-08-10 08:52:11,0.000s,PASSED
click,Chrome 67.0.3396.99,,2018-08-10 08:52:11,2018-08-10 08:52:11,0.081s,PASSED
"Statement - If (!(workday_time[i][j].equals("""")))",Chrome 67.0.3396.99,,2018-08-10 08:52:11,2018-08-10 08:52:12,1.002s,PASSED
Statement - timeTypeValue = workday_time[i][0].toString(),Chrome 67.0.3396.99,,2018-08-10 08:52:12,2018-08-10 08:52:12,0.000s,PASSED
click,Chrome 67.0.3396.99,,2018-08-10 08:52:12,2018-08-10 08:52:12,0.069s,PASSED
delay,Chrome 67.0.3396.99,,2018-08-10 08:52:12,2018-08-10 08:52:13,1.001s,PASSED
click,Chrome 67.0.3396.99,,2018-08-10 08:52:13,2018-08-10 08:52:13,0.104s,PASSED
focus,Chrome 67.0.3396.99,,2018-08-10 08:52:13,2018-08-10 08:52:13,0.061s,PASSED
delay,Chrome 67.0.3396.99,,2018-08-10 08:52:13,2018-08-10 08:52:14,1.001s,PASSED
sendKeys,Chrome 67.0.3396.99,,2018-08-10 08:52:14,2018-08-10 08:52:15,0.336s,PASSED
sendKeys,Chrome 67.0.3396.99,,2018-08-10 08:52:15,2018-08-10 08:52:15,0.049s,PASSED
delay,Chrome 67.0.3396.99,,2018-08-10 08:52:15,2018-08-10 08:52:16,1.001s,PASSED
waitForElementPresent,Chrome 67.0.3396.99,,2018-08-10 08:52:16,2018-08-10 08:52:16,0.016s,PASSED
"Statement - setTableValues(4, i, 1)",Chrome 67.0.3396.99,Monday column,2018-08-10 08:52:16,2018-08-10 08:52:16,0.000s,PASSED
click,Chrome 67.0.3396.99,,2018-08-10 08:52:16,2018-08-10 08:52:16,0.121s,PASSED
"Statement - If (!(workday_time[i][j].equals("""")))",Chrome 67.0.3396.99,,2018-08-10 08:52:16,2018-08-10 08:52:16,0.001s,PASSED
"Statement - setTableValues(5, i, 2)",Chrome 67.0.3396.99,Tuesday column,2018-08-10 08:52:16,2018-08-10 08:52:16,0.000s,PASSED
click,Chrome 67.0.3396.99,,2018-08-10 08:52:16,2018-08-10 08:52:16,0.082s,PASSED
"Statement - If (!(workday_time[i][j].equals("""")))",Chrome 67.0.3396.99,,2018-08-10 08:52:16,2018-08-10 08:52:16,0.001s,PASSED
"Statement - setTableValues(6, i, 3)",Chrome 67.0.3396.99,Wednesday column,2018-08-10 08:52:16,2018-08-10 08:52:16,0.000s,PASSED
click,Chrome 67.0.3396.99,,2018-08-10 08:52:16,2018-08-10 08:52:16,0.083s,PASSED
"Statement - If (!(workday_time[i][j].equals("""")))",Chrome 67.0.3396.99,,2018-08-10 08:52:16,2018-08-10 08:52:16,0.159s,PASSED
"Statement - setTableValues(7, i, 4)",Chrome 67.0.3396.99,Thursday column,2018-08-10 08:52:16,2018-08-10 08:52:16,0.000s,PASSED
click,Chrome 67.0.3396.99,,2018-08-10 08:52:16,2018-08-10 08:52:16,0.097s,PASSED
"Statement - If (!(workday_time[i][j].equals("""")))",Chrome 67.0.3396.99,,2018-08-10 08:52:16,2018-08-10 08:52:17,0.219s,PASSED
"Statement - setTableValues(8, i, 5)",Chrome 67.0.3396.99,Friday column,2018-08-10 08:52:17,2018-08-10 08:52:17,0.001s,PASSED
click,Chrome 67.0.3396.99,,2018-08-10 08:52:17,2018-08-10 08:52:17,0.076s,PASSED
"Statement - If (!(workday_time[i][j].equals("""")))",Chrome 67.0.3396.99,,2018-08-10 08:52:17,2018-08-10 08:52:18,1.003s,PASSED
Statement - timeTypeValue = workday_time[i][0].toString(),Chrome 67.0.3396.99,,2018-08-10 08:52:18,2018-08-10 08:52:18,0.001s,PASSED
click,Chrome 67.0.3396.99,,2018-08-10 08:52:18,2018-08-10 08:52:18,0.062s,PASSED
delay,Chrome 67.0.3396.99,,2018-08-10 08:52:18,2018-08-10 08:52:19,1.000s,PASSED
click,Chrome 67.0.3396.99,,2018-08-10 08:52:19,2018-08-10 08:52:19,0.112s,PASSED
focus,Chrome 67.0.3396.99,,2018-08-10 08:52:19,2018-08-10 08:52:19,0.065s,PASSED
delay,Chrome 67.0.3396.99,,2018-08-10 08:52:19,2018-08-10 08:52:20,1.000s,PASSED
sendKeys,Chrome 67.0.3396.99,,2018-08-10 08:52:20,2018-08-10 08:52:20,0.240s,PASSED
sendKeys,Chrome 67.0.3396.99,,2018-08-10 08:52:20,2018-08-10 08:52:20,0.046s,PASSED
delay,Chrome 67.0.3396.99,,2018-08-10 08:52:20,2018-08-10 08:52:21,1.002s,PASSED
waitForElementPresent,Chrome 67.0.3396.99,,2018-08-10 08:52:21,2018-08-10 08:52:21,0.020s,PASSED
"Statement - setTableValues(4, i, 1)",Chrome 67.0.3396.99,Monday column,2018-08-10 08:52:21,2018-08-10 08:52:21,0.001s,PASSED
click,Chrome 67.0.3396.99,,2018-08-10 08:52:21,2018-08-10 08:52:21,0.096s,PASSED
"Statement - If (!(workday_time[i][j].equals("""")))",Chrome 67.0.3396.99,,2018-08-10 08:52:21,2018-08-10 08:52:21,0.000s,PASSED
"Statement - setTableValues(5, i, 2)",Chrome 67.0.3396.99,Tuesday column,2018-08-10 08:52:21,2018-08-10 08:52:21,0.000s,PASSED
click,Chrome 67.0.3396.99,,2018-08-10 08:52:21,2018-08-10 08:52:21,0.092s,PASSED
"Statement - If (!(workday_time[i][j].equals("""")))",Chrome 67.0.3396.99,,2018-08-10 08:52:21,2018-08-10 08:52:21,0.001s,PASSED
"Statement - setTableValues(6, i, 3)",Chrome 67.0.3396.99,Wednesday column,2018-08-10 08:52:21,2018-08-10 08:52:21,0.000s,PASSED
click,Chrome 67.0.3396.99,,2018-08-10 08:52:21,2018-08-10 08:52:22,0.083s,PASSED
"Statement - If (!(workday_time[i][j].equals("""")))",Chrome 67.0.3396.99,,2018-08-10 08:52:22,2018-08-10 08:52:22,0.001s,PASSED
"Statement - setTableValues(7, i, 4)",Chrome 67.0.3396.99,Thursday column,2018-08-10 08:52:22,2018-08-10 08:52:22,0.000s,PASSED
click,Chrome 67.0.3396.99,,2018-08-10 08:52:22,2018-08-10 08:52:22,0.113s,PASSED
"Statement - If (!(workday_time[i][j].equals("""")))",Chrome 67.0.3396.99,,2018-08-10 08:52:22,2018-08-10 08:52:22,0.140s,PASSED
"Statement - setTableValues(8, i, 5)",Chrome 67.0.3396.99,Friday column,2018-08-10 08:52:22,2018-08-10 08:52:22,0.000s,PASSED
click,Chrome 67.0.3396.99,,2018-08-10 08:52:22,2018-08-10 08:52:22,0.086s,PASSED
"Statement - If (!(workday_time[i][j].equals("""")))",Chrome 67.0.3396.99,,2018-08-10 08:52:22,2018-08-10 08:52:22,0.000s,PASSED
delay,Chrome 67.0.3396.99,,2018-08-10 08:52:22,2018-08-10 08:52:24,2.002s,PASSED
Statement - rowSize_after = getTableRowCount(),Chrome 67.0.3396.99,,2018-08-10 08:52:24,2018-08-10 08:52:24,0.000s,PASSED
Statement - driver = com.kms.katalon.core.webui.driver.DriverFactory.getWebDriver(),Chrome 67.0.3396.99,,2018-08-10 08:52:24,2018-08-10 08:52:24,0.001s,PASSED
"Statement - Table = driver.findElement(org.openqa.selenium.By.xpath(""//table[@class='mainTable']""))",Chrome 67.0.3396.99,,2018-08-10 08:52:24,2018-08-10 08:52:24,0.019s,PASSED
"Statement - rows_table = Table.findElements(org.openqa.selenium.By.tagName(""tr""))",Chrome 67.0.3396.99,,2018-08-10 08:52:24,2018-08-10 08:52:24,0.016s,PASSED
Statement - return (rows_table.size() - 2),Chrome 67.0.3396.99,,2018-08-10 08:52:24,2018-08-10 08:52:24,0.001s,PASSED
Statement - row_size_diff = rowSize_after - rowSize_before,Chrome 67.0.3396.99,,2018-08-10 08:52:24,2018-08-10 08:52:24,0.000s,PASSED
Statement - final_row_size = arrayLength + existing_tasks_size,Chrome 67.0.3396.99,,2018-08-10 08:52:24,2018-08-10 08:52:24,0.000s,PASSED
Statement - println(existing_tasks_size),Chrome 67.0.3396.99,,2018-08-10 08:52:24,2018-08-10 08:52:24,0.001s,PASSED
Statement - println(row_size_diff),Chrome 67.0.3396.99,,2018-08-10 08:52:24,2018-08-10 08:52:24,0.000s,PASSED
Statement - println(final_row_size),Chrome 67.0.3396.99,,2018-08-10 08:52:24,2018-08-10 08:52:24,0.001s,PASSED
Statement - println(rowSize_before),Chrome 67.0.3396.99,,2018-08-10 08:52:24,2018-08-10 08:52:24,0.000s,PASSED
Statement - If (rowSize_after > final_row_size),Chrome 67.0.3396.99,,2018-08-10 08:52:24,2018-08-10 08:52:24,0.001s,PASSED
click,Chrome 67.0.3396.99,,2018-08-10 08:52:24,2018-08-10 08:52:24,0.102s,PASSED
waitForElementPresent,Chrome 67.0.3396.99,,2018-08-10 08:52:24,2018-08-10 08:52:26,2.069s,PASSED
closeBrowser,Chrome 67.0.3396.99,,2018-08-10 08:52:26,2018-08-10 08:52:27,0.755s,PASSED
