Suite/Test/Step Name,Browser,Description,Start time,End time,Duration,Status
Timesheet,,,2018-06-26 13:51:45,2018-06-26 13:51:46,1.096s,FAILED
,,,,,,
Test Cases/Login to Navision,,,2018-06-26 13:51:46,2018-06-26 13:51:46,0.784s,FAILED
openBrowser,,,2018-06-26 13:51:46,2018-06-26 13:51:46,0.509s,FAILED
