Suite/Test/Step Name,Browser,Description,Start time,End time,Duration,Status
Timesheet,Chrome 67.0.3396.99,,2018-07-11 15:35:14,2018-07-11 15:37:38,2m - 24.784s,ERROR
,,,,,,
Test Cases/Login to Navision,Chrome 67.0.3396.99,,2018-07-11 15:35:14,2018-07-11 15:36:04,50.014s,PASSED
openBrowser,Chrome 67.0.3396.99,,2018-07-11 15:35:14,2018-07-11 15:35:59,44.237s,PASSED
waitForElementPresent,Chrome 67.0.3396.99,,2018-07-11 15:35:59,2018-07-11 15:35:59,0.082s,PASSED
navigateToUrl,Chrome 67.0.3396.99,,2018-07-11 15:35:59,2018-07-11 15:35:59,0.201s,PASSED
waitForElementPresent,Chrome 67.0.3396.99,,2018-07-11 15:35:59,2018-07-11 15:35:59,0.021s,PASSED
maximizeWindow,Chrome 67.0.3396.99,,2018-07-11 15:35:59,2018-07-11 15:36:00,1.138s,PASSED
click,Chrome 67.0.3396.99,,2018-07-11 15:36:00,2018-07-11 15:36:00,0.075s,PASSED
click,Chrome 67.0.3396.99,,2018-07-11 15:36:00,2018-07-11 15:36:01,0.586s,PASSED
waitForElementPresent,Chrome 67.0.3396.99,,2018-07-11 15:36:01,2018-07-11 15:36:01,0.536s,PASSED
switchToFrame,Chrome 67.0.3396.99,,2018-07-11 15:36:01,2018-07-11 15:36:01,0.050s,PASSED
Statement - driver = com.kms.katalon.core.webui.driver.DriverFactory.getWebDriver(),Chrome 67.0.3396.99,To locate table,2018-07-11 15:36:01,2018-07-11 15:36:01,0.007s,PASSED
"Statement - Table = driver.findElement(org.openqa.selenium.By.xpath(""//table[(@summary = 'Time Sheet')]//tbody""))",Chrome 67.0.3396.99,,2018-07-11 15:36:01,2018-07-11 15:36:01,0.034s,PASSED
"Statement - rows_table = Table.findElements(org.openqa.selenium.By.tagName(""tr""))",Chrome 67.0.3396.99,To locate rows of table it will Capture all the rows available in the table,2018-07-11 15:36:01,2018-07-11 15:36:01,0.026s,PASSED
Statement - rows_count = rows_table.size() - 1,Chrome 67.0.3396.99,To calculate no of rows In table,2018-07-11 15:36:01,2018-07-11 15:36:01,0.003s,PASSED
"Statement - println(""No. of rows: "" + rows_count)",Chrome 67.0.3396.99,,2018-07-11 15:36:01,2018-07-11 15:36:01,0.003s,PASSED
Statement - workday_time = <not implemented yet for class: org.codehaus.groovy.ast.expr.EmptyExpression>,Chrome 67.0.3396.99,,2018-07-11 15:36:01,2018-07-11 15:36:01,0.001s,PASSED
Statement - workday_time = [],Chrome 67.0.3396.99,,2018-07-11 15:36:01,2018-07-11 15:36:01,0.001s,PASSED
"Statement - For ([i = 0, i < rows_count, (i++)])",Chrome 67.0.3396.99,Loop will execute for all the rows of the table,2018-07-11 15:36:01,2018-07-11 15:36:03,1.749s,PASSED
Statement - arrayLength = workday_time.size(),Chrome 67.0.3396.99,,2018-07-11 15:36:03,2018-07-11 15:36:03,0.002s,PASSED
Statement - arrayLength = arrayLength,Chrome 67.0.3396.99,,2018-07-11 15:36:03,2018-07-11 15:36:03,0.009s,PASSED
Statement - workday_time = workday_time,Chrome 67.0.3396.99,,2018-07-11 15:36:03,2018-07-11 15:36:03,0.001s,PASSED
Statement - println(workday_time),Chrome 67.0.3396.99,,2018-07-11 15:36:03,2018-07-11 15:36:03,0.000s,PASSED
Statement - println(arrayLength),Chrome 67.0.3396.99,,2018-07-11 15:36:03,2018-07-11 15:36:03,0.000s,PASSED
closeBrowser,Chrome 67.0.3396.99,,2018-07-11 15:36:03,2018-07-11 15:36:04,0.696s,PASSED
,,,,,,
Test Cases/Login in to workday,Chrome 67.0.3396.99,,2018-07-11 15:36:04,2018-07-11 15:37:38,1m - 33.748s,ERROR
openBrowser,Chrome 67.0.3396.99,,2018-07-11 15:36:04,2018-07-11 15:36:31,27.073s,PASSED
navigateToUrl,Chrome 67.0.3396.99,,2018-07-11 15:36:31,2018-07-11 15:36:33,1.180s,PASSED
setText,Chrome 67.0.3396.99,,2018-07-11 15:36:33,2018-07-11 15:36:37,4.815s,PASSED
setText,Chrome 67.0.3396.99,,2018-07-11 15:36:37,2018-07-11 15:36:38,0.114s,PASSED
click,Chrome 67.0.3396.99,,2018-07-11 15:36:38,2018-07-11 15:36:38,0.087s,PASSED
click,Chrome 67.0.3396.99,,2018-07-11 15:36:38,2018-07-11 15:36:42,4.641s,PASSED
maximizeWindow,Chrome 67.0.3396.99,,2018-07-11 15:36:42,2018-07-11 15:36:43,1.129s,PASSED
click,Chrome 67.0.3396.99,,2018-07-11 15:36:43,2018-07-11 15:36:43,0.123s,PASSED
click,Chrome 67.0.3396.99,,2018-07-11 15:36:43,2018-07-11 15:36:45,1.619s,PASSED
click,Chrome 67.0.3396.99,,2018-07-11 15:36:45,2018-07-11 15:36:46,1.107s,PASSED
click,Chrome 67.0.3396.99,,2018-07-11 15:36:46,2018-07-11 15:36:46,0.145s,PASSED
waitForElementPresent,Chrome 67.0.3396.99,,2018-07-11 15:36:46,2018-07-11 15:36:46,0.028s,PASSED
waitForElementPresent,Chrome 67.0.3396.99,,2018-07-11 15:36:46,2018-07-11 15:36:46,0.026s,PASSED
waitForElementPresent,Chrome 67.0.3396.99,,2018-07-11 15:36:46,2018-07-11 15:36:46,0.018s,PASSED
waitForElementPresent,Chrome 67.0.3396.99,,2018-07-11 15:36:46,2018-07-11 15:36:46,0.023s,PASSED
sendKeys,Chrome 67.0.3396.99,,2018-07-11 15:36:46,2018-07-11 15:36:47,0.088s,PASSED
waitForElementVisible,Chrome 67.0.3396.99,,2018-07-11 15:36:47,2018-07-11 15:36:48,1.100s,PASSED
Statement - driver = com.kms.katalon.core.webui.driver.DriverFactory.getWebDriver(),Chrome 67.0.3396.99,,2018-07-11 15:36:48,2018-07-11 15:36:48,0.001s,PASSED
"Statement - Table = driver.findElement(org.openqa.selenium.By.xpath(""//table[@class='mainTable']""))",Chrome 67.0.3396.99,,2018-07-11 15:36:48,2018-07-11 15:36:48,0.027s,PASSED
"Statement - rows_table = Table.findElements(org.openqa.selenium.By.tagName(""tr""))",Chrome 67.0.3396.99,,2018-07-11 15:36:48,2018-07-11 15:36:48,0.016s,PASSED
"Statement - For ([i = 0, i < arrayLength, (i++)])",Chrome 67.0.3396.99,,2018-07-11 15:36:48,2018-07-11 15:36:49,1.321s,PASSED
Statement - timeTypeValue = workday_time[i][0].toString(),Chrome 67.0.3396.99,,2018-07-11 15:36:49,2018-07-11 15:36:49,0.003s,PASSED
Statement - charLength = timeTypeValue.length(),Chrome 67.0.3396.99,,2018-07-11 15:36:49,2018-07-11 15:36:49,0.000s,PASSED
click,Chrome 67.0.3396.99,,2018-07-11 15:36:49,2018-07-11 15:36:49,0.128s,PASSED
focus,Chrome 67.0.3396.99,,2018-07-11 15:36:49,2018-07-11 15:36:49,0.076s,PASSED
sendKeys,Chrome 67.0.3396.99,,2018-07-11 15:36:49,2018-07-11 15:36:49,0.055s,PASSED
"Statement - For ([x = 0, x < charLength, (x++)])",Chrome 67.0.3396.99,,2018-07-11 15:36:49,2018-07-11 15:36:52,2.343s,PASSED
sendKeys,Chrome 67.0.3396.99,,2018-07-11 15:36:52,2018-07-11 15:36:52,0.039s,PASSED
waitForElementPresent,Chrome 67.0.3396.99,,2018-07-11 15:36:52,2018-07-11 15:37:12,20.438s,PASSED
click,Chrome 67.0.3396.99,,2018-07-11 15:37:12,2018-07-11 15:37:12,0.079s,PASSED
sendKeys,Chrome 67.0.3396.99,,2018-07-11 15:37:12,2018-07-11 15:37:12,0.092s,PASSED
click,Chrome 67.0.3396.99,,2018-07-11 15:37:12,2018-07-11 15:37:12,0.088s,PASSED
sendKeys,Chrome 67.0.3396.99,,2018-07-11 15:37:12,2018-07-11 15:37:12,0.091s,PASSED
click,Chrome 67.0.3396.99,,2018-07-11 15:37:12,2018-07-11 15:37:13,0.086s,PASSED
sendKeys,Chrome 67.0.3396.99,,2018-07-11 15:37:13,2018-07-11 15:37:13,0.053s,PASSED
click,Chrome 67.0.3396.99,,2018-07-11 15:37:13,2018-07-11 15:37:13,0.077s,PASSED
sendKeys,Chrome 67.0.3396.99,,2018-07-11 15:37:13,2018-07-11 15:37:13,0.063s,PASSED
click,Chrome 67.0.3396.99,,2018-07-11 15:37:13,2018-07-11 15:37:13,0.071s,PASSED
sendKeys,Chrome 67.0.3396.99,,2018-07-11 15:37:13,2018-07-11 15:37:14,1.389s,PASSED
Statement - timeTypeValue = workday_time[i][0].toString(),Chrome 67.0.3396.99,,2018-07-11 15:37:14,2018-07-11 15:37:14,0.001s,PASSED
Statement - charLength = timeTypeValue.length(),Chrome 67.0.3396.99,,2018-07-11 15:37:14,2018-07-11 15:37:14,0.000s,PASSED
click,Chrome 67.0.3396.99,,2018-07-11 15:37:14,2018-07-11 15:37:14,0.085s,PASSED
focus,Chrome 67.0.3396.99,,2018-07-11 15:37:14,2018-07-11 15:37:14,0.087s,PASSED
sendKeys,Chrome 67.0.3396.99,,2018-07-11 15:37:14,2018-07-11 15:37:15,0.173s,PASSED
"Statement - For ([x = 0, x < charLength, (x++)])",Chrome 67.0.3396.99,,2018-07-11 15:37:15,2018-07-11 15:37:16,1.924s,PASSED
sendKeys,Chrome 67.0.3396.99,,2018-07-11 15:37:16,2018-07-11 15:37:17,0.041s,PASSED
waitForElementPresent,Chrome 67.0.3396.99,,2018-07-11 15:37:17,2018-07-11 15:37:37,20.432s,PASSED
click,Chrome 67.0.3396.99,,2018-07-11 15:37:37,2018-07-11 15:37:37,0.088s,PASSED
sendKeys,Chrome 67.0.3396.99,,2018-07-11 15:37:37,2018-07-11 15:37:37,0.083s,PASSED
click,Chrome 67.0.3396.99,,2018-07-11 15:37:37,2018-07-11 15:37:37,0.083s,PASSED
sendKeys,Chrome 67.0.3396.99,,2018-07-11 15:37:37,2018-07-11 15:37:37,0.055s,PASSED
click,Chrome 67.0.3396.99,,2018-07-11 15:37:37,2018-07-11 15:37:37,0.074s,PASSED
sendKeys,Chrome 67.0.3396.99,,2018-07-11 15:37:37,2018-07-11 15:37:37,0.050s,PASSED
click,Chrome 67.0.3396.99,,2018-07-11 15:37:37,2018-07-11 15:37:37,0.066s,PASSED
sendKeys,Chrome 67.0.3396.99,,2018-07-11 15:37:37,2018-07-11 15:37:37,0.048s,PASSED
click,Chrome 67.0.3396.99,,2018-07-11 15:37:37,2018-07-11 15:37:38,0.080s,PASSED
sendKeys,Chrome 67.0.3396.99,,2018-07-11 15:37:38,2018-07-11 15:37:38,0.048s,PASSED
