Suite/Test/Step Name,Browser,Description,Start time,End time,Duration,Status
Timesheet,Chrome 67.0.3396.99,,2018-07-06 15:30:09,2018-07-06 15:31:32,1m - 22.703s,FAILED
,,,,,,
Test Cases/Login to Navision,Chrome 67.0.3396.99,,2018-07-06 15:30:10,2018-07-06 15:30:49,39.250s,PASSED
openBrowser,Chrome 67.0.3396.99,,2018-07-06 15:30:10,2018-07-06 15:30:43,33.084s,PASSED
waitForElementPresent,Chrome 67.0.3396.99,,2018-07-06 15:30:43,2018-07-06 15:30:43,0.085s,PASSED
navigateToUrl,Chrome 67.0.3396.99,,2018-07-06 15:30:43,2018-07-06 15:30:44,0.234s,PASSED
waitForElementPresent,Chrome 67.0.3396.99,,2018-07-06 15:30:44,2018-07-06 15:30:44,0.027s,PASSED
maximizeWindow,Chrome 67.0.3396.99,,2018-07-06 15:30:44,2018-07-06 15:30:45,1.139s,PASSED
click,Chrome 67.0.3396.99,,2018-07-06 15:30:45,2018-07-06 15:30:45,0.090s,PASSED
click,Chrome 67.0.3396.99,,2018-07-06 15:30:45,2018-07-06 15:30:45,0.601s,PASSED
waitForElementPresent,Chrome 67.0.3396.99,,2018-07-06 15:30:45,2018-07-06 15:30:46,0.540s,PASSED
switchToFrame,Chrome 67.0.3396.99,,2018-07-06 15:30:46,2018-07-06 15:30:46,0.056s,PASSED
Statement - driver = com.kms.katalon.core.webui.driver.DriverFactory.getWebDriver(),Chrome 67.0.3396.99,To locate table,2018-07-06 15:30:46,2018-07-06 15:30:46,0.008s,PASSED
"Statement - Table = driver.findElement(org.openqa.selenium.By.xpath(""//table[(@summary = 'Time Sheet')]//tbody""))",Chrome 67.0.3396.99,,2018-07-06 15:30:46,2018-07-06 15:30:46,0.041s,PASSED
"Statement - rows_table = Table.findElements(org.openqa.selenium.By.tagName(""tr""))",Chrome 67.0.3396.99,To locate rows of table it will Capture all the rows available in the table,2018-07-06 15:30:46,2018-07-06 15:30:46,0.027s,PASSED
Statement - rows_count = rows_table.size() - 1,Chrome 67.0.3396.99,To calculate no of rows In table,2018-07-06 15:30:46,2018-07-06 15:30:46,0.002s,PASSED
"Statement - println(""No. of rows: "" + rows_count)",Chrome 67.0.3396.99,,2018-07-06 15:30:46,2018-07-06 15:30:46,0.003s,PASSED
Statement - workday_time = <not implemented yet for class: org.codehaus.groovy.ast.expr.EmptyExpression>,Chrome 67.0.3396.99,,2018-07-06 15:30:46,2018-07-06 15:30:46,0.001s,PASSED
Statement - workday_time = [],Chrome 67.0.3396.99,,2018-07-06 15:30:46,2018-07-06 15:30:46,0.000s,PASSED
"Statement - For ([i = 0, i < rows_count, (i++)])",Chrome 67.0.3396.99,Loop will execute for all the rows of the table,2018-07-06 15:30:46,2018-07-06 15:30:48,2.080s,PASSED
Statement - arrayLength = workday_time.size(),Chrome 67.0.3396.99,,2018-07-06 15:30:48,2018-07-06 15:30:48,0.001s,PASSED
Statement - arrayLength = arrayLength,Chrome 67.0.3396.99,,2018-07-06 15:30:48,2018-07-06 15:30:48,0.011s,PASSED
Statement - workday_time = workday_time,Chrome 67.0.3396.99,,2018-07-06 15:30:48,2018-07-06 15:30:48,0.001s,PASSED
Statement - println(workday_time),Chrome 67.0.3396.99,,2018-07-06 15:30:48,2018-07-06 15:30:48,0.001s,PASSED
Statement - println(arrayLength),Chrome 67.0.3396.99,,2018-07-06 15:30:48,2018-07-06 15:30:48,0.001s,PASSED
closeBrowser,Chrome 67.0.3396.99,,2018-07-06 15:30:48,2018-07-06 15:30:49,0.740s,PASSED
,,,,,,
Test Cases/Login in to workday,Chrome 67.0.3396.99,,2018-07-06 15:30:49,2018-07-06 15:31:31,42.336s,FAILED
openBrowser,Chrome 67.0.3396.99,,2018-07-06 15:30:49,2018-07-06 15:31:16,26.556s,PASSED
navigateToUrl,Chrome 67.0.3396.99,,2018-07-06 15:31:16,2018-07-06 15:31:17,1.154s,PASSED
setText,Chrome 67.0.3396.99,,2018-07-06 15:31:17,2018-07-06 15:31:19,2.379s,PASSED
setText,Chrome 67.0.3396.99,,2018-07-06 15:31:19,2018-07-06 15:31:20,0.123s,PASSED
click,Chrome 67.0.3396.99,,2018-07-06 15:31:20,2018-07-06 15:31:20,0.100s,PASSED
click,Chrome 67.0.3396.99,,2018-07-06 15:31:20,2018-07-06 15:31:25,5.464s,PASSED
maximizeWindow,Chrome 67.0.3396.99,,2018-07-06 15:31:25,2018-07-06 15:31:26,1.124s,PASSED
click,Chrome 67.0.3396.99,,2018-07-06 15:31:26,2018-07-06 15:31:27,0.273s,PASSED
click,Chrome 67.0.3396.99,,2018-07-06 15:31:27,2018-07-06 15:31:28,1.622s,PASSED
click,Chrome 67.0.3396.99,,2018-07-06 15:31:28,2018-07-06 15:31:29,1.110s,PASSED
click,Chrome 67.0.3396.99,,2018-07-06 15:31:29,2018-07-06 15:31:29,0.155s,PASSED
waitForElementVisible,Chrome 67.0.3396.99,,2018-07-06 15:31:29,2018-07-06 15:31:29,0.058s,PASSED
click,Chrome 67.0.3396.99,,2018-07-06 15:31:29,2018-07-06 15:31:30,0.063s,PASSED
waitForElementVisible,Chrome 67.0.3396.99,,2018-07-06 15:31:30,2018-07-06 15:31:30,0.031s,PASSED
sendKeys,Chrome 67.0.3396.99,,2018-07-06 15:31:30,2018-07-06 15:31:30,0.070s,PASSED
waitForElementVisible,Chrome 67.0.3396.99,,2018-07-06 15:31:30,2018-07-06 15:31:31,1.055s,PASSED
Statement - driver = com.kms.katalon.core.webui.driver.DriverFactory.getWebDriver(),Chrome 67.0.3396.99,,2018-07-06 15:31:31,2018-07-06 15:31:31,0.001s,PASSED
"Statement - Table = driver.findElement(org.openqa.selenium.By.xpath(""//table[@class='mainTable']""))",Chrome 67.0.3396.99,,2018-07-06 15:31:31,2018-07-06 15:31:31,0.019s,PASSED
"Statement - rows_table = Table.findElements(org.openqa.selenium.By.tagName(""tr""))",Chrome 67.0.3396.99,,2018-07-06 15:31:31,2018-07-06 15:31:31,0.016s,PASSED
Statement - println(arrayLength),Chrome 67.0.3396.99,,2018-07-06 15:31:31,2018-07-06 15:31:31,0.000s,PASSED
Statement - println(workday_time),Chrome 67.0.3396.99,,2018-07-06 15:31:31,2018-07-06 15:31:31,0.001s,PASSED
"Statement - For ([i = 0, i < arrayLength, (i++)])",Chrome 67.0.3396.99,,2018-07-06 15:31:31,2018-07-06 15:31:31,0.510s,FAILED
