Suite/Test/Step Name,Browser,Description,Start time,End time,Duration,Status
Timesheet,Chrome 67.0.3396.99,,2018-07-10 09:03:31,2018-07-10 09:05:35,2m - 4.047s,PASSED
,,,,,,
Test Cases/Login to Navision,Chrome 67.0.3396.99,,2018-07-10 09:03:31,2018-07-10 09:04:41,1m - 10.602s,PASSED
openBrowser,Chrome 67.0.3396.99,,2018-07-10 09:03:31,2018-07-10 09:04:37,1m - 5.964s,PASSED
waitForElementPresent,Chrome 67.0.3396.99,,2018-07-10 09:04:37,2018-07-10 09:04:37,0.089s,PASSED
navigateToUrl,Chrome 67.0.3396.99,,2018-07-10 09:04:37,2018-07-10 09:04:38,0.222s,PASSED
waitForElementPresent,Chrome 67.0.3396.99,,2018-07-10 09:04:38,2018-07-10 09:04:38,0.021s,PASSED
maximizeWindow,Chrome 67.0.3396.99,,2018-07-10 09:04:38,2018-07-10 09:04:39,1.132s,PASSED
click,Chrome 67.0.3396.99,,2018-07-10 09:04:39,2018-07-10 09:04:39,0.092s,PASSED
click,Chrome 67.0.3396.99,,2018-07-10 09:04:39,2018-07-10 09:04:39,0.588s,PASSED
waitForElementPresent,Chrome 67.0.3396.99,,2018-07-10 09:04:39,2018-07-10 09:04:40,0.540s,PASSED
switchToFrame,Chrome 67.0.3396.99,,2018-07-10 09:04:40,2018-07-10 09:04:40,0.054s,PASSED
Statement - driver = com.kms.katalon.core.webui.driver.DriverFactory.getWebDriver(),Chrome 67.0.3396.99,To locate table,2018-07-10 09:04:40,2018-07-10 09:04:40,0.007s,PASSED
"Statement - Table = driver.findElement(org.openqa.selenium.By.xpath(""//table[(@summary = 'Time Sheet')]//tbody""))",Chrome 67.0.3396.99,,2018-07-10 09:04:40,2018-07-10 09:04:40,0.057s,PASSED
"Statement - rows_table = Table.findElements(org.openqa.selenium.By.tagName(""tr""))",Chrome 67.0.3396.99,To locate rows of table it will Capture all the rows available in the table,2018-07-10 09:04:40,2018-07-10 09:04:40,0.022s,PASSED
Statement - rows_count = rows_table.size() - 1,Chrome 67.0.3396.99,To calculate no of rows In table,2018-07-10 09:04:40,2018-07-10 09:04:40,0.002s,PASSED
"Statement - println(""No. of rows: "" + rows_count)",Chrome 67.0.3396.99,,2018-07-10 09:04:40,2018-07-10 09:04:40,0.003s,PASSED
Statement - workday_time = <not implemented yet for class: org.codehaus.groovy.ast.expr.EmptyExpression>,Chrome 67.0.3396.99,,2018-07-10 09:04:40,2018-07-10 09:04:40,0.001s,PASSED
Statement - workday_time = [],Chrome 67.0.3396.99,,2018-07-10 09:04:40,2018-07-10 09:04:40,0.000s,PASSED
"Statement - For ([i = 0, i < rows_count, (i++)])",Chrome 67.0.3396.99,Loop will execute for all the rows of the table,2018-07-10 09:04:40,2018-07-10 09:04:41,0.545s,PASSED
Statement - arrayLength = workday_time.size(),Chrome 67.0.3396.99,,2018-07-10 09:04:41,2018-07-10 09:04:41,0.002s,PASSED
Statement - arrayLength = arrayLength,Chrome 67.0.3396.99,,2018-07-10 09:04:41,2018-07-10 09:04:41,0.012s,PASSED
Statement - workday_time = workday_time,Chrome 67.0.3396.99,,2018-07-10 09:04:41,2018-07-10 09:04:41,0.001s,PASSED
Statement - println(workday_time),Chrome 67.0.3396.99,,2018-07-10 09:04:41,2018-07-10 09:04:41,0.001s,PASSED
Statement - println(arrayLength),Chrome 67.0.3396.99,,2018-07-10 09:04:41,2018-07-10 09:04:41,0.001s,PASSED
closeBrowser,Chrome 67.0.3396.99,,2018-07-10 09:04:41,2018-07-10 09:04:41,0.750s,PASSED
,,,,,,
Test Cases/Login in to workday,Chrome 67.0.3396.99,,2018-07-10 09:04:41,2018-07-10 09:05:35,53.086s,PASSED
openBrowser,Chrome 67.0.3396.99,,2018-07-10 09:04:42,2018-07-10 09:05:09,26.918s,PASSED
navigateToUrl,Chrome 67.0.3396.99,,2018-07-10 09:05:09,2018-07-10 09:05:10,1.141s,PASSED
setText,Chrome 67.0.3396.99,,2018-07-10 09:05:10,2018-07-10 09:05:15,4.858s,PASSED
setText,Chrome 67.0.3396.99,,2018-07-10 09:05:15,2018-07-10 09:05:15,0.129s,PASSED
click,Chrome 67.0.3396.99,,2018-07-10 09:05:15,2018-07-10 09:05:15,0.092s,PASSED
click,Chrome 67.0.3396.99,,2018-07-10 09:05:15,2018-07-10 09:05:23,8.448s,PASSED
maximizeWindow,Chrome 67.0.3396.99,,2018-07-10 09:05:23,2018-07-10 09:05:25,1.125s,PASSED
click,Chrome 67.0.3396.99,,2018-07-10 09:05:25,2018-07-10 09:05:25,0.589s,PASSED
click,Chrome 67.0.3396.99,,2018-07-10 09:05:25,2018-07-10 09:05:26,1.105s,PASSED
click,Chrome 67.0.3396.99,,2018-07-10 09:05:26,2018-07-10 09:05:27,1.106s,PASSED
click,Chrome 67.0.3396.99,,2018-07-10 09:05:27,2018-07-10 09:05:28,0.151s,PASSED
waitForElementVisible,Chrome 67.0.3396.99,,2018-07-10 09:05:28,2018-07-10 09:05:28,0.064s,PASSED
click,Chrome 67.0.3396.99,,2018-07-10 09:05:28,2018-07-10 09:05:28,0.062s,PASSED
waitForElementVisible,Chrome 67.0.3396.99,,2018-07-10 09:05:28,2018-07-10 09:05:28,0.023s,PASSED
sendKeys,Chrome 67.0.3396.99,,2018-07-10 09:05:28,2018-07-10 09:05:28,0.072s,PASSED
waitForElementVisible,Chrome 67.0.3396.99,,2018-07-10 09:05:28,2018-07-10 09:05:29,1.171s,PASSED
Statement - driver = com.kms.katalon.core.webui.driver.DriverFactory.getWebDriver(),Chrome 67.0.3396.99,,2018-07-10 09:05:29,2018-07-10 09:05:29,0.000s,PASSED
"Statement - Table = driver.findElement(org.openqa.selenium.By.xpath(""//table[@class='mainTable']""))",Chrome 67.0.3396.99,,2018-07-10 09:05:29,2018-07-10 09:05:29,0.018s,PASSED
"Statement - rows_table = Table.findElements(org.openqa.selenium.By.tagName(""tr""))",Chrome 67.0.3396.99,,2018-07-10 09:05:29,2018-07-10 09:05:29,0.016s,PASSED
Statement - println(arrayLength),Chrome 67.0.3396.99,,2018-07-10 09:05:29,2018-07-10 09:05:29,0.001s,PASSED
Statement - println(workday_time),Chrome 67.0.3396.99,,2018-07-10 09:05:29,2018-07-10 09:05:29,0.000s,PASSED
"Statement - For ([i = 0, i < arrayLength, (i++)])",Chrome 67.0.3396.99,,2018-07-10 09:05:29,2018-07-10 09:05:29,0.105s,PASSED
click,Chrome 67.0.3396.99,,2018-07-10 09:05:29,2018-07-10 09:05:29,0.143s,PASSED
waitForElementClickable,Chrome 67.0.3396.99,,2018-07-10 09:05:29,2018-07-10 09:05:29,0.046s,PASSED
setText,Chrome 67.0.3396.99,,2018-07-10 09:05:29,2018-07-10 09:05:30,0.583s,PASSED
setText,Chrome 67.0.3396.99,,2018-07-10 09:05:30,2018-07-10 09:05:30,0.125s,PASSED
click,Chrome 67.0.3396.99,,2018-07-10 09:05:30,2018-07-10 09:05:30,0.123s,PASSED
waitForElementClickable,Chrome 67.0.3396.99,,2018-07-10 09:05:30,2018-07-10 09:05:30,0.034s,PASSED
setText,Chrome 67.0.3396.99,,2018-07-10 09:05:30,2018-07-10 09:05:30,0.142s,PASSED
setText,Chrome 67.0.3396.99,,2018-07-10 09:05:30,2018-07-10 09:05:30,0.065s,PASSED
click,Chrome 67.0.3396.99,,2018-07-10 09:05:30,2018-07-10 09:05:30,0.087s,PASSED
waitForElementClickable,Chrome 67.0.3396.99,,2018-07-10 09:05:30,2018-07-10 09:05:30,0.027s,PASSED
setText,Chrome 67.0.3396.99,,2018-07-10 09:05:30,2018-07-10 09:05:31,0.088s,PASSED
setText,Chrome 67.0.3396.99,,2018-07-10 09:05:31,2018-07-10 09:05:31,0.071s,PASSED
click,Chrome 67.0.3396.99,,2018-07-10 09:05:31,2018-07-10 09:05:31,0.077s,PASSED
waitForElementClickable,Chrome 67.0.3396.99,,2018-07-10 09:05:31,2018-07-10 09:05:31,0.026s,PASSED
setText,Chrome 67.0.3396.99,,2018-07-10 09:05:31,2018-07-10 09:05:31,0.080s,PASSED
setText,Chrome 67.0.3396.99,,2018-07-10 09:05:31,2018-07-10 09:05:31,0.061s,PASSED
click,Chrome 67.0.3396.99,,2018-07-10 09:05:31,2018-07-10 09:05:31,0.086s,PASSED
waitForElementClickable,Chrome 67.0.3396.99,,2018-07-10 09:05:31,2018-07-10 09:05:31,0.024s,PASSED
setText,Chrome 67.0.3396.99,,2018-07-10 09:05:31,2018-07-10 09:05:31,0.088s,PASSED
setText,Chrome 67.0.3396.99,,2018-07-10 09:05:31,2018-07-10 09:05:31,0.062s,PASSED
click,Chrome 67.0.3396.99,,2018-07-10 09:05:31,2018-07-10 09:05:31,0.078s,PASSED
waitForElementClickable,Chrome 67.0.3396.99,,2018-07-10 09:05:31,2018-07-10 09:05:31,0.026s,PASSED
setText,Chrome 67.0.3396.99,,2018-07-10 09:05:31,2018-07-10 09:05:31,0.091s,PASSED
setText,Chrome 67.0.3396.99,,2018-07-10 09:05:31,2018-07-10 09:05:31,0.164s,PASSED
click,Chrome 67.0.3396.99,,2018-07-10 09:05:31,2018-07-10 09:05:32,0.120s,PASSED
waitForElementClickable,Chrome 67.0.3396.99,,2018-07-10 09:05:32,2018-07-10 09:05:32,0.027s,PASSED
setText,Chrome 67.0.3396.99,,2018-07-10 09:05:32,2018-07-10 09:05:32,0.633s,PASSED
setText,Chrome 67.0.3396.99,,2018-07-10 09:05:32,2018-07-10 09:05:32,0.121s,PASSED
click,Chrome 67.0.3396.99,,2018-07-10 09:05:32,2018-07-10 09:05:32,0.105s,PASSED
waitForElementClickable,Chrome 67.0.3396.99,,2018-07-10 09:05:32,2018-07-10 09:05:33,0.026s,PASSED
setText,Chrome 67.0.3396.99,,2018-07-10 09:05:33,2018-07-10 09:05:33,0.140s,PASSED
setText,Chrome 67.0.3396.99,,2018-07-10 09:05:33,2018-07-10 09:05:33,0.062s,PASSED
click,Chrome 67.0.3396.99,,2018-07-10 09:05:33,2018-07-10 09:05:33,0.079s,PASSED
waitForElementClickable,Chrome 67.0.3396.99,,2018-07-10 09:05:33,2018-07-10 09:05:33,0.032s,PASSED
setText,Chrome 67.0.3396.99,,2018-07-10 09:05:33,2018-07-10 09:05:33,0.076s,PASSED
setText,Chrome 67.0.3396.99,,2018-07-10 09:05:33,2018-07-10 09:05:33,0.065s,PASSED
click,Chrome 67.0.3396.99,,2018-07-10 09:05:33,2018-07-10 09:05:33,0.081s,PASSED
waitForElementClickable,Chrome 67.0.3396.99,,2018-07-10 09:05:33,2018-07-10 09:05:33,0.026s,PASSED
setText,Chrome 67.0.3396.99,,2018-07-10 09:05:33,2018-07-10 09:05:33,0.083s,PASSED
setText,Chrome 67.0.3396.99,,2018-07-10 09:05:33,2018-07-10 09:05:33,0.058s,PASSED
click,Chrome 67.0.3396.99,,2018-07-10 09:05:33,2018-07-10 09:05:33,0.066s,PASSED
waitForElementClickable,Chrome 67.0.3396.99,,2018-07-10 09:05:33,2018-07-10 09:05:33,0.025s,PASSED
setText,Chrome 67.0.3396.99,,2018-07-10 09:05:33,2018-07-10 09:05:33,0.079s,PASSED
setText,Chrome 67.0.3396.99,,2018-07-10 09:05:33,2018-07-10 09:05:33,0.061s,PASSED
click,Chrome 67.0.3396.99,,2018-07-10 09:05:33,2018-07-10 09:05:34,0.070s,PASSED
waitForElementClickable,Chrome 67.0.3396.99,,2018-07-10 09:05:34,2018-07-10 09:05:34,0.025s,PASSED
setText,Chrome 67.0.3396.99,,2018-07-10 09:05:34,2018-07-10 09:05:34,0.076s,PASSED
setText,Chrome 67.0.3396.99,,2018-07-10 09:05:34,2018-07-10 09:05:34,0.062s,PASSED
click,Chrome 67.0.3396.99,,2018-07-10 09:05:34,2018-07-10 09:05:34,0.090s,PASSED
closeBrowser,Chrome 67.0.3396.99,,2018-07-10 09:05:34,2018-07-10 09:05:35,0.749s,PASSED
