Suite/Test/Step Name,Browser,Description,Start time,End time,Duration,Status
Timesheet,Chrome 67.0.3396.99,,2018-07-11 12:38:13,2018-07-11 12:40:17,2m - 3.639s,ERROR
,,,,,,
Test Cases/Login to Navision,Chrome 67.0.3396.99,,2018-07-11 12:38:13,2018-07-11 12:38:50,36.204s,PASSED
openBrowser,Chrome 67.0.3396.99,,2018-07-11 12:38:14,2018-07-11 12:38:44,30.381s,PASSED
waitForElementPresent,Chrome 67.0.3396.99,,2018-07-11 12:38:44,2018-07-11 12:38:44,0.092s,PASSED
navigateToUrl,Chrome 67.0.3396.99,,2018-07-11 12:38:44,2018-07-11 12:38:45,0.242s,PASSED
waitForElementPresent,Chrome 67.0.3396.99,,2018-07-11 12:38:45,2018-07-11 12:38:45,0.026s,PASSED
maximizeWindow,Chrome 67.0.3396.99,,2018-07-11 12:38:45,2018-07-11 12:38:46,1.149s,PASSED
click,Chrome 67.0.3396.99,,2018-07-11 12:38:46,2018-07-11 12:38:46,0.085s,PASSED
click,Chrome 67.0.3396.99,,2018-07-11 12:38:46,2018-07-11 12:38:46,0.595s,PASSED
waitForElementPresent,Chrome 67.0.3396.99,,2018-07-11 12:38:46,2018-07-11 12:38:47,0.538s,PASSED
switchToFrame,Chrome 67.0.3396.99,,2018-07-11 12:38:47,2018-07-11 12:38:47,0.062s,PASSED
Statement - driver = com.kms.katalon.core.webui.driver.DriverFactory.getWebDriver(),Chrome 67.0.3396.99,To locate table,2018-07-11 12:38:47,2018-07-11 12:38:47,0.008s,PASSED
"Statement - Table = driver.findElement(org.openqa.selenium.By.xpath(""//table[(@summary = 'Time Sheet')]//tbody""))",Chrome 67.0.3396.99,,2018-07-11 12:38:47,2018-07-11 12:38:47,0.037s,PASSED
"Statement - rows_table = Table.findElements(org.openqa.selenium.By.tagName(""tr""))",Chrome 67.0.3396.99,To locate rows of table it will Capture all the rows available in the table,2018-07-11 12:38:47,2018-07-11 12:38:47,0.025s,PASSED
Statement - rows_count = rows_table.size() - 1,Chrome 67.0.3396.99,To calculate no of rows In table,2018-07-11 12:38:47,2018-07-11 12:38:47,0.003s,PASSED
"Statement - println(""No. of rows: "" + rows_count)",Chrome 67.0.3396.99,,2018-07-11 12:38:47,2018-07-11 12:38:47,0.002s,PASSED
Statement - workday_time = <not implemented yet for class: org.codehaus.groovy.ast.expr.EmptyExpression>,Chrome 67.0.3396.99,,2018-07-11 12:38:47,2018-07-11 12:38:47,0.000s,PASSED
Statement - workday_time = [],Chrome 67.0.3396.99,,2018-07-11 12:38:47,2018-07-11 12:38:47,0.000s,PASSED
"Statement - For ([i = 0, i < rows_count, (i++)])",Chrome 67.0.3396.99,Loop will execute for all the rows of the table,2018-07-11 12:38:47,2018-07-11 12:38:49,1.820s,PASSED
Statement - arrayLength = workday_time.size(),Chrome 67.0.3396.99,,2018-07-11 12:38:49,2018-07-11 12:38:49,0.002s,PASSED
Statement - arrayLength = arrayLength,Chrome 67.0.3396.99,,2018-07-11 12:38:49,2018-07-11 12:38:49,0.011s,PASSED
Statement - workday_time = workday_time,Chrome 67.0.3396.99,,2018-07-11 12:38:49,2018-07-11 12:38:49,0.001s,PASSED
Statement - println(workday_time),Chrome 67.0.3396.99,,2018-07-11 12:38:49,2018-07-11 12:38:49,0.000s,PASSED
Statement - println(arrayLength),Chrome 67.0.3396.99,,2018-07-11 12:38:49,2018-07-11 12:38:49,0.000s,PASSED
closeBrowser,Chrome 67.0.3396.99,,2018-07-11 12:38:49,2018-07-11 12:38:50,0.677s,PASSED
,,,,,,
Test Cases/Login in to workday,Chrome 67.0.3396.99,,2018-07-11 12:38:50,2018-07-11 12:40:16,1m - 26.401s,ERROR
openBrowser,Chrome 67.0.3396.99,,2018-07-11 12:38:50,2018-07-11 12:39:17,26.751s,PASSED
navigateToUrl,Chrome 67.0.3396.99,,2018-07-11 12:39:17,2018-07-11 12:39:18,1.179s,PASSED
setText,Chrome 67.0.3396.99,,2018-07-11 12:39:18,2018-07-11 12:39:22,3.805s,PASSED
setText,Chrome 67.0.3396.99,,2018-07-11 12:39:22,2018-07-11 12:39:22,0.117s,PASSED
click,Chrome 67.0.3396.99,,2018-07-11 12:39:22,2018-07-11 12:39:22,0.083s,PASSED
click,Chrome 67.0.3396.99,,2018-07-11 12:39:22,2018-07-11 12:39:27,4.603s,PASSED
maximizeWindow,Chrome 67.0.3396.99,,2018-07-11 12:39:27,2018-07-11 12:39:28,1.127s,PASSED
click,Chrome 67.0.3396.99,,2018-07-11 12:39:28,2018-07-11 12:39:28,0.091s,PASSED
click,Chrome 67.0.3396.99,,2018-07-11 12:39:28,2018-07-11 12:39:29,1.168s,PASSED
click,Chrome 67.0.3396.99,,2018-07-11 12:39:29,2018-07-11 12:39:30,1.108s,PASSED
click,Chrome 67.0.3396.99,,2018-07-11 12:39:30,2018-07-11 12:39:30,0.141s,PASSED
waitForElementPresent,Chrome 67.0.3396.99,,2018-07-11 12:39:30,2018-07-11 12:39:30,0.024s,PASSED
waitForElementPresent,Chrome 67.0.3396.99,,2018-07-11 12:39:30,2018-07-11 12:39:30,0.024s,PASSED
waitForElementPresent,Chrome 67.0.3396.99,,2018-07-11 12:39:30,2018-07-11 12:39:30,0.017s,PASSED
waitForElementPresent,Chrome 67.0.3396.99,,2018-07-11 12:39:30,2018-07-11 12:39:30,0.021s,PASSED
sendKeys,Chrome 67.0.3396.99,,2018-07-11 12:39:30,2018-07-11 12:39:30,0.082s,PASSED
waitForElementVisible,Chrome 67.0.3396.99,,2018-07-11 12:39:30,2018-07-11 12:39:32,1.126s,PASSED
Statement - driver = com.kms.katalon.core.webui.driver.DriverFactory.getWebDriver(),Chrome 67.0.3396.99,,2018-07-11 12:39:32,2018-07-11 12:39:32,0.000s,PASSED
"Statement - Table = driver.findElement(org.openqa.selenium.By.xpath(""//table[@class='mainTable']""))",Chrome 67.0.3396.99,,2018-07-11 12:39:32,2018-07-11 12:39:32,0.016s,PASSED
"Statement - rows_table = Table.findElements(org.openqa.selenium.By.tagName(""tr""))",Chrome 67.0.3396.99,,2018-07-11 12:39:32,2018-07-11 12:39:32,0.016s,PASSED
"Statement - For ([i = 0, i < arrayLength, (i++)])",Chrome 67.0.3396.99,,2018-07-11 12:39:32,2018-07-11 12:39:32,0.093s,PASSED
Statement - timeTypeValue = workday_time[i][0].toString(),Chrome 67.0.3396.99,,2018-07-11 12:39:32,2018-07-11 12:39:32,0.003s,PASSED
Statement - charLength = timeTypeValue.length(),Chrome 67.0.3396.99,,2018-07-11 12:39:32,2018-07-11 12:39:32,0.001s,PASSED
click,Chrome 67.0.3396.99,,2018-07-11 12:39:32,2018-07-11 12:39:32,0.140s,PASSED
focus,Chrome 67.0.3396.99,,2018-07-11 12:39:32,2018-07-11 12:39:32,0.071s,PASSED
setText,Chrome 67.0.3396.99,,2018-07-11 12:39:32,2018-07-11 12:39:32,0.593s,PASSED
sendKeys,Chrome 67.0.3396.99,,2018-07-11 12:39:32,2018-07-11 12:39:33,0.076s,PASSED
waitForElementPresent,Chrome 67.0.3396.99,,2018-07-11 12:39:33,2018-07-11 12:39:53,20.460s,PASSED
click,Chrome 67.0.3396.99,,2018-07-11 12:39:53,2018-07-11 12:39:53,0.081s,PASSED
sendKeys,Chrome 67.0.3396.99,,2018-07-11 12:39:53,2018-07-11 12:39:53,0.097s,PASSED
click,Chrome 67.0.3396.99,,2018-07-11 12:39:53,2018-07-11 12:39:53,0.086s,PASSED
sendKeys,Chrome 67.0.3396.99,,2018-07-11 12:39:53,2018-07-11 12:39:53,0.088s,PASSED
click,Chrome 67.0.3396.99,,2018-07-11 12:39:53,2018-07-11 12:39:53,0.077s,PASSED
sendKeys,Chrome 67.0.3396.99,,2018-07-11 12:39:53,2018-07-11 12:39:53,0.055s,PASSED
click,Chrome 67.0.3396.99,,2018-07-11 12:39:53,2018-07-11 12:39:54,0.078s,PASSED
sendKeys,Chrome 67.0.3396.99,,2018-07-11 12:39:54,2018-07-11 12:39:54,0.054s,PASSED
click,Chrome 67.0.3396.99,,2018-07-11 12:39:54,2018-07-11 12:39:54,0.092s,PASSED
sendKeys,Chrome 67.0.3396.99,,2018-07-11 12:39:54,2018-07-11 12:39:54,0.149s,PASSED
Statement - timeTypeValue = workday_time[i][0].toString(),Chrome 67.0.3396.99,,2018-07-11 12:39:54,2018-07-11 12:39:54,0.000s,PASSED
Statement - charLength = timeTypeValue.length(),Chrome 67.0.3396.99,,2018-07-11 12:39:54,2018-07-11 12:39:54,0.000s,PASSED
click,Chrome 67.0.3396.99,,2018-07-11 12:39:54,2018-07-11 12:39:54,0.133s,PASSED
focus,Chrome 67.0.3396.99,,2018-07-11 12:39:54,2018-07-11 12:39:54,0.057s,PASSED
setText,Chrome 67.0.3396.99,,2018-07-11 12:39:54,2018-07-11 12:39:55,0.564s,PASSED
sendKeys,Chrome 67.0.3396.99,,2018-07-11 12:39:55,2018-07-11 12:39:55,0.078s,PASSED
waitForElementPresent,Chrome 67.0.3396.99,,2018-07-11 12:39:55,2018-07-11 12:40:15,20.491s,PASSED
click,Chrome 67.0.3396.99,,2018-07-11 12:40:15,2018-07-11 12:40:15,0.088s,PASSED
sendKeys,Chrome 67.0.3396.99,,2018-07-11 12:40:15,2018-07-11 12:40:15,0.106s,PASSED
click,Chrome 67.0.3396.99,,2018-07-11 12:40:15,2018-07-11 12:40:15,0.108s,PASSED
sendKeys,Chrome 67.0.3396.99,,2018-07-11 12:40:15,2018-07-11 12:40:16,0.063s,PASSED
click,Chrome 67.0.3396.99,,2018-07-11 12:40:16,2018-07-11 12:40:16,0.090s,PASSED
sendKeys,Chrome 67.0.3396.99,,2018-07-11 12:40:16,2018-07-11 12:40:16,0.055s,PASSED
click,Chrome 67.0.3396.99,,2018-07-11 12:40:16,2018-07-11 12:40:16,0.095s,PASSED
sendKeys,Chrome 67.0.3396.99,,2018-07-11 12:40:16,2018-07-11 12:40:16,0.060s,PASSED
click,Chrome 67.0.3396.99,,2018-07-11 12:40:16,2018-07-11 12:40:16,0.079s,PASSED
sendKeys,Chrome 67.0.3396.99,,2018-07-11 12:40:16,2018-07-11 12:40:16,0.082s,PASSED
