Suite/Test/Step Name,Browser,Description,Start time,End time,Duration,Status
Timesheet,Chrome 67.0.3396.99,,2018-07-10 14:08:28,2018-07-10 14:09:52,1m - 24.360s,ERROR
,,,,,,
Test Cases/Login to Navision,Chrome 67.0.3396.99,,2018-07-10 14:08:28,2018-07-10 14:09:10,42.164s,PASSED
openBrowser,Chrome 67.0.3396.99,,2018-07-10 14:08:28,2018-07-10 14:09:06,37.694s,PASSED
waitForElementPresent,Chrome 67.0.3396.99,,2018-07-10 14:09:06,2018-07-10 14:09:06,0.086s,PASSED
navigateToUrl,Chrome 67.0.3396.99,,2018-07-10 14:09:06,2018-07-10 14:09:07,0.227s,PASSED
waitForElementPresent,Chrome 67.0.3396.99,,2018-07-10 14:09:07,2018-07-10 14:09:07,0.028s,PASSED
maximizeWindow,Chrome 67.0.3396.99,,2018-07-10 14:09:07,2018-07-10 14:09:08,1.146s,PASSED
click,Chrome 67.0.3396.99,,2018-07-10 14:09:08,2018-07-10 14:09:08,0.085s,PASSED
click,Chrome 67.0.3396.99,,2018-07-10 14:09:08,2018-07-10 14:09:08,0.596s,PASSED
waitForElementPresent,Chrome 67.0.3396.99,,2018-07-10 14:09:08,2018-07-10 14:09:09,0.538s,PASSED
switchToFrame,Chrome 67.0.3396.99,,2018-07-10 14:09:09,2018-07-10 14:09:09,0.055s,PASSED
Statement - driver = com.kms.katalon.core.webui.driver.DriverFactory.getWebDriver(),Chrome 67.0.3396.99,To locate table,2018-07-10 14:09:09,2018-07-10 14:09:09,0.007s,PASSED
"Statement - Table = driver.findElement(org.openqa.selenium.By.xpath(""//table[(@summary = 'Time Sheet')]//tbody""))",Chrome 67.0.3396.99,,2018-07-10 14:09:09,2018-07-10 14:09:09,0.038s,PASSED
"Statement - rows_table = Table.findElements(org.openqa.selenium.By.tagName(""tr""))",Chrome 67.0.3396.99,To locate rows of table it will Capture all the rows available in the table,2018-07-10 14:09:09,2018-07-10 14:09:09,0.022s,PASSED
Statement - rows_count = rows_table.size() - 1,Chrome 67.0.3396.99,To calculate no of rows In table,2018-07-10 14:09:09,2018-07-10 14:09:09,0.002s,PASSED
"Statement - println(""No. of rows: "" + rows_count)",Chrome 67.0.3396.99,,2018-07-10 14:09:09,2018-07-10 14:09:09,0.003s,PASSED
Statement - workday_time = <not implemented yet for class: org.codehaus.groovy.ast.expr.EmptyExpression>,Chrome 67.0.3396.99,,2018-07-10 14:09:09,2018-07-10 14:09:09,0.001s,PASSED
Statement - workday_time = [],Chrome 67.0.3396.99,,2018-07-10 14:09:09,2018-07-10 14:09:09,0.001s,PASSED
"Statement - For ([i = 0, i < rows_count, (i++)])",Chrome 67.0.3396.99,Loop will execute for all the rows of the table,2018-07-10 14:09:09,2018-07-10 14:09:10,0.516s,PASSED
Statement - arrayLength = workday_time.size(),Chrome 67.0.3396.99,,2018-07-10 14:09:10,2018-07-10 14:09:10,0.002s,PASSED
Statement - arrayLength = arrayLength,Chrome 67.0.3396.99,,2018-07-10 14:09:10,2018-07-10 14:09:10,0.010s,PASSED
Statement - workday_time = workday_time,Chrome 67.0.3396.99,,2018-07-10 14:09:10,2018-07-10 14:09:10,0.000s,PASSED
Statement - println(workday_time),Chrome 67.0.3396.99,,2018-07-10 14:09:10,2018-07-10 14:09:10,0.000s,PASSED
Statement - println(arrayLength),Chrome 67.0.3396.99,,2018-07-10 14:09:10,2018-07-10 14:09:10,0.000s,PASSED
closeBrowser,Chrome 67.0.3396.99,,2018-07-10 14:09:10,2018-07-10 14:09:10,0.669s,PASSED
,,,,,,
Test Cases/Login in to workday,Chrome 67.0.3396.99,,2018-07-10 14:09:10,2018-07-10 14:09:51,41.175s,ERROR
openBrowser,Chrome 67.0.3396.99,,2018-07-10 14:09:11,2018-07-10 14:09:37,26.704s,PASSED
navigateToUrl,Chrome 67.0.3396.99,,2018-07-10 14:09:37,2018-07-10 14:09:39,1.355s,PASSED
setText,Chrome 67.0.3396.99,,2018-07-10 14:09:39,2018-07-10 14:09:43,4.345s,PASSED
setText,Chrome 67.0.3396.99,,2018-07-10 14:09:43,2018-07-10 14:09:43,0.117s,PASSED
click,Chrome 67.0.3396.99,,2018-07-10 14:09:43,2018-07-10 14:09:43,0.098s,PASSED
click,Chrome 67.0.3396.99,,2018-07-10 14:09:43,2018-07-10 14:09:48,4.611s,PASSED
maximizeWindow,Chrome 67.0.3396.99,,2018-07-10 14:09:48,2018-07-10 14:09:49,1.129s,PASSED
click,Chrome 67.0.3396.99,,2018-07-10 14:09:49,2018-07-10 14:09:49,0.087s,PASSED
click,Chrome 67.0.3396.99,,2018-07-10 14:09:49,2018-07-10 14:09:50,1.118s,PASSED
click,Chrome 67.0.3396.99,,2018-07-10 14:09:50,2018-07-10 14:09:51,1.123s,PASSED
click,Chrome 67.0.3396.99,,2018-07-10 14:09:51,2018-07-10 14:09:51,0.011s,PASSED
