Suite/Test/Step Name,Browser,Description,Start time,End time,Duration,Status
Timesheet,Chrome 67.0.3396.87,,2018-07-03 15:35:32,2018-07-03 15:36:54,1m - 21.698s,ERROR
,,,,,,
Test Cases/Login to Navision,Chrome 67.0.3396.87,,2018-07-03 15:35:32,2018-07-03 15:36:10,37.559s,PASSED
openBrowser,Chrome 67.0.3396.87,,2018-07-03 15:35:33,2018-07-03 15:36:05,32.184s,PASSED
waitForElementPresent,Chrome 67.0.3396.87,,2018-07-03 15:36:05,2018-07-03 15:36:05,0.121s,PASSED
navigateToUrl,Chrome 67.0.3396.87,,2018-07-03 15:36:05,2018-07-03 15:36:05,0.377s,PASSED
waitForElementPresent,Chrome 67.0.3396.87,,2018-07-03 15:36:05,2018-07-03 15:36:05,0.021s,PASSED
maximizeWindow,Chrome 67.0.3396.87,,2018-07-03 15:36:05,2018-07-03 15:36:07,1.151s,PASSED
click,Chrome 67.0.3396.87,,2018-07-03 15:36:07,2018-07-03 15:36:07,0.083s,PASSED
click,Chrome 67.0.3396.87,,2018-07-03 15:36:07,2018-07-03 15:36:07,0.602s,PASSED
waitForElementPresent,Chrome 67.0.3396.87,,2018-07-03 15:36:07,2018-07-03 15:36:08,0.542s,PASSED
switchToFrame,Chrome 67.0.3396.87,,2018-07-03 15:36:08,2018-07-03 15:36:08,0.053s,PASSED
Statement - driver = com.kms.katalon.core.webui.driver.DriverFactory.getWebDriver(),Chrome 67.0.3396.87,To locate table,2018-07-03 15:36:08,2018-07-03 15:36:08,0.007s,PASSED
"Statement - Table = driver.findElement(org.openqa.selenium.By.xpath(""//table[(@summary = 'Time Sheet')]//tbody""))",Chrome 67.0.3396.87,,2018-07-03 15:36:08,2018-07-03 15:36:08,0.037s,PASSED
"Statement - rows_table = Table.findElements(org.openqa.selenium.By.tagName(""tr""))",Chrome 67.0.3396.87,To locate rows of table it will Capture all the rows available in the table,2018-07-03 15:36:08,2018-07-03 15:36:08,0.027s,PASSED
Statement - rows_count = rows_table.size() - 1,Chrome 67.0.3396.87,To calculate no of rows In table,2018-07-03 15:36:08,2018-07-03 15:36:08,0.002s,PASSED
"Statement - println(""No. of rows: "" + rows_count)",Chrome 67.0.3396.87,,2018-07-03 15:36:08,2018-07-03 15:36:08,0.002s,PASSED
Statement - workday_time = <not implemented yet for class: org.codehaus.groovy.ast.expr.EmptyExpression>,Chrome 67.0.3396.87,,2018-07-03 15:36:08,2018-07-03 15:36:08,0.000s,PASSED
Statement - workday_time = [],Chrome 67.0.3396.87,,2018-07-03 15:36:08,2018-07-03 15:36:08,0.000s,PASSED
"Statement - For ([i = 0, i < rows_count, (i++)])",Chrome 67.0.3396.87,Loop will execute for all the rows of the table,2018-07-03 15:36:08,2018-07-03 15:36:09,1.088s,PASSED
Statement - arrayLength = workday_time.size(),Chrome 67.0.3396.87,,2018-07-03 15:36:09,2018-07-03 15:36:09,0.009s,PASSED
Statement - workday_time = workday_time,Chrome 67.0.3396.87,,2018-07-03 15:36:09,2018-07-03 15:36:09,0.000s,PASSED
Statement - println(workday_time),Chrome 67.0.3396.87,,2018-07-03 15:36:09,2018-07-03 15:36:09,0.001s,PASSED
Statement - println(arrayLength),Chrome 67.0.3396.87,,2018-07-03 15:36:09,2018-07-03 15:36:09,0.001s,PASSED
closeBrowser,Chrome 67.0.3396.87,,2018-07-03 15:36:09,2018-07-03 15:36:10,0.827s,PASSED
,,,,,,
Test Cases/Login in to workday,Chrome 67.0.3396.87,,2018-07-03 15:36:10,2018-07-03 15:36:53,42.768s,ERROR
openBrowser,Chrome 67.0.3396.87,,2018-07-03 15:36:10,2018-07-03 15:36:37,27.044s,PASSED
navigateToUrl,Chrome 67.0.3396.87,,2018-07-03 15:36:37,2018-07-03 15:36:38,1.146s,PASSED
setText,Chrome 67.0.3396.87,,2018-07-03 15:36:38,2018-07-03 15:36:41,2.459s,PASSED
setText,Chrome 67.0.3396.87,,2018-07-03 15:36:41,2018-07-03 15:36:41,0.170s,PASSED
click,Chrome 67.0.3396.87,,2018-07-03 15:36:41,2018-07-03 15:36:41,0.111s,PASSED
click,Chrome 67.0.3396.87,,2018-07-03 15:36:41,2018-07-03 15:36:47,5.785s,PASSED
maximizeWindow,Chrome 67.0.3396.87,,2018-07-03 15:36:47,2018-07-03 15:36:48,1.135s,PASSED
click,Chrome 67.0.3396.87,,2018-07-03 15:36:48,2018-07-03 15:36:48,0.157s,PASSED
click,Chrome 67.0.3396.87,,2018-07-03 15:36:48,2018-07-03 15:36:50,1.604s,PASSED
click,Chrome 67.0.3396.87,,2018-07-03 15:36:50,2018-07-03 15:36:51,1.166s,PASSED
click,Chrome 67.0.3396.87,,2018-07-03 15:36:51,2018-07-03 15:36:51,0.136s,PASSED
waitForElementVisible,Chrome 67.0.3396.87,,2018-07-03 15:36:51,2018-07-03 15:36:51,0.059s,PASSED
click,Chrome 67.0.3396.87,,2018-07-03 15:36:51,2018-07-03 15:36:51,0.059s,PASSED
waitForElementVisible,Chrome 67.0.3396.87,,2018-07-03 15:36:51,2018-07-03 15:36:51,0.033s,PASSED
sendKeys,Chrome 67.0.3396.87,,2018-07-03 15:36:51,2018-07-03 15:36:51,0.071s,PASSED
waitForElementVisible,Chrome 67.0.3396.87,,2018-07-03 15:36:51,2018-07-03 15:36:53,1.180s,PASSED
Statement - driver = com.kms.katalon.core.webui.driver.DriverFactory.getWebDriver(),Chrome 67.0.3396.87,,2018-07-03 15:36:53,2018-07-03 15:36:53,0.000s,PASSED
"Statement - Table = driver.findElement(org.openqa.selenium.By.xpath(""//table[@class='mainTable']""))",Chrome 67.0.3396.87,,2018-07-03 15:36:53,2018-07-03 15:36:53,0.026s,PASSED
"Statement - rows_table = Table.findElements(org.openqa.selenium.By.tagName(""tr""))",Chrome 67.0.3396.87,,2018-07-03 15:36:53,2018-07-03 15:36:53,0.019s,PASSED
Statement - println(arrayLength),Chrome 67.0.3396.87,,2018-07-03 15:36:53,2018-07-03 15:36:53,0.000s,PASSED
Statement - println(workday_time),Chrome 67.0.3396.87,,2018-07-03 15:36:53,2018-07-03 15:36:53,0.000s,PASSED
"Statement - For ([i = 0, i < arrayLength, (i++)])",Chrome 67.0.3396.87,,2018-07-03 15:36:53,2018-07-03 15:36:53,0.026s,PASSED
