Suite/Test/Step Name,Browser,Description,Start time,End time,Duration,Status
Timesheet,Chrome 67.0.3396.99,,2018-07-10 10:02:38,2018-07-10 10:03:57,1m - 19.265s,ERROR
,,,,,,
Test Cases/Login to Navision,Chrome 67.0.3396.99,,2018-07-10 10:02:38,2018-07-10 10:03:14,35.592s,PASSED
openBrowser,Chrome 67.0.3396.99,,2018-07-10 10:02:39,2018-07-10 10:03:10,31.042s,PASSED
waitForElementPresent,Chrome 67.0.3396.99,,2018-07-10 10:03:10,2018-07-10 10:03:10,0.089s,PASSED
navigateToUrl,Chrome 67.0.3396.99,,2018-07-10 10:03:10,2018-07-10 10:03:10,0.223s,PASSED
waitForElementPresent,Chrome 67.0.3396.99,,2018-07-10 10:03:10,2018-07-10 10:03:10,0.022s,PASSED
maximizeWindow,Chrome 67.0.3396.99,,2018-07-10 10:03:10,2018-07-10 10:03:11,1.134s,PASSED
click,Chrome 67.0.3396.99,,2018-07-10 10:03:11,2018-07-10 10:03:11,0.081s,PASSED
click,Chrome 67.0.3396.99,,2018-07-10 10:03:11,2018-07-10 10:03:12,0.590s,PASSED
waitForElementPresent,Chrome 67.0.3396.99,,2018-07-10 10:03:12,2018-07-10 10:03:12,0.538s,PASSED
switchToFrame,Chrome 67.0.3396.99,,2018-07-10 10:03:12,2018-07-10 10:03:13,0.058s,PASSED
Statement - driver = com.kms.katalon.core.webui.driver.DriverFactory.getWebDriver(),Chrome 67.0.3396.99,To locate table,2018-07-10 10:03:13,2018-07-10 10:03:13,0.010s,PASSED
"Statement - Table = driver.findElement(org.openqa.selenium.By.xpath(""//table[(@summary = 'Time Sheet')]//tbody""))",Chrome 67.0.3396.99,,2018-07-10 10:03:13,2018-07-10 10:03:13,0.036s,PASSED
"Statement - rows_table = Table.findElements(org.openqa.selenium.By.tagName(""tr""))",Chrome 67.0.3396.99,To locate rows of table it will Capture all the rows available in the table,2018-07-10 10:03:13,2018-07-10 10:03:13,0.023s,PASSED
Statement - rows_count = rows_table.size() - 1,Chrome 67.0.3396.99,To calculate no of rows In table,2018-07-10 10:03:13,2018-07-10 10:03:13,0.002s,PASSED
"Statement - println(""No. of rows: "" + rows_count)",Chrome 67.0.3396.99,,2018-07-10 10:03:13,2018-07-10 10:03:13,0.003s,PASSED
Statement - workday_time = <not implemented yet for class: org.codehaus.groovy.ast.expr.EmptyExpression>,Chrome 67.0.3396.99,,2018-07-10 10:03:13,2018-07-10 10:03:13,0.001s,PASSED
Statement - workday_time = [],Chrome 67.0.3396.99,,2018-07-10 10:03:13,2018-07-10 10:03:13,0.000s,PASSED
"Statement - For ([i = 0, i < rows_count, (i++)])",Chrome 67.0.3396.99,Loop will execute for all the rows of the table,2018-07-10 10:03:13,2018-07-10 10:03:13,0.522s,PASSED
Statement - arrayLength = workday_time.size(),Chrome 67.0.3396.99,,2018-07-10 10:03:13,2018-07-10 10:03:13,0.002s,PASSED
Statement - arrayLength = arrayLength,Chrome 67.0.3396.99,,2018-07-10 10:03:13,2018-07-10 10:03:13,0.012s,PASSED
Statement - workday_time = workday_time,Chrome 67.0.3396.99,,2018-07-10 10:03:13,2018-07-10 10:03:13,0.001s,PASSED
Statement - println(workday_time),Chrome 67.0.3396.99,,2018-07-10 10:03:13,2018-07-10 10:03:13,0.001s,PASSED
Statement - println(arrayLength),Chrome 67.0.3396.99,,2018-07-10 10:03:13,2018-07-10 10:03:13,0.001s,PASSED
closeBrowser,Chrome 67.0.3396.99,,2018-07-10 10:03:13,2018-07-10 10:03:14,0.729s,PASSED
,,,,,,
Test Cases/Login in to workday,Chrome 67.0.3396.99,,2018-07-10 10:03:14,2018-07-10 10:03:56,42.560s,ERROR
openBrowser,Chrome 67.0.3396.99,,2018-07-10 10:03:14,2018-07-10 10:03:41,26.988s,PASSED
navigateToUrl,Chrome 67.0.3396.99,,2018-07-10 10:03:41,2018-07-10 10:03:43,1.153s,PASSED
setText,Chrome 67.0.3396.99,,2018-07-10 10:03:43,2018-07-10 10:03:45,2.389s,PASSED
setText,Chrome 67.0.3396.99,,2018-07-10 10:03:45,2018-07-10 10:03:45,0.110s,PASSED
click,Chrome 67.0.3396.99,,2018-07-10 10:03:45,2018-07-10 10:03:45,0.077s,PASSED
click,Chrome 67.0.3396.99,,2018-07-10 10:03:45,2018-07-10 10:03:50,4.592s,PASSED
maximizeWindow,Chrome 67.0.3396.99,,2018-07-10 10:03:50,2018-07-10 10:03:51,1.126s,PASSED
click,Chrome 67.0.3396.99,,2018-07-10 10:03:51,2018-07-10 10:03:51,0.589s,PASSED
click,Chrome 67.0.3396.99,,2018-07-10 10:03:51,2018-07-10 10:03:52,1.107s,PASSED
click,Chrome 67.0.3396.99,,2018-07-10 10:03:52,2018-07-10 10:03:54,1.104s,PASSED
click,Chrome 67.0.3396.99,,2018-07-10 10:03:54,2018-07-10 10:03:54,0.134s,PASSED
waitForElementVisible,Chrome 67.0.3396.99,,2018-07-10 10:03:54,2018-07-10 10:03:54,0.073s,PASSED
click,Chrome 67.0.3396.99,,2018-07-10 10:03:54,2018-07-10 10:03:54,0.052s,PASSED
waitForElementVisible,Chrome 67.0.3396.99,,2018-07-10 10:03:54,2018-07-10 10:03:54,0.021s,PASSED
sendKeys,Chrome 67.0.3396.99,,2018-07-10 10:03:54,2018-07-10 10:03:54,0.071s,PASSED
waitForElementVisible,Chrome 67.0.3396.99,,2018-07-10 10:03:54,2018-07-10 10:03:55,1.115s,PASSED
Statement - driver = com.kms.katalon.core.webui.driver.DriverFactory.getWebDriver(),Chrome 67.0.3396.99,,2018-07-10 10:03:55,2018-07-10 10:03:55,0.000s,PASSED
"Statement - Table = driver.findElement(org.openqa.selenium.By.xpath(""//table[@class='mainTable']""))",Chrome 67.0.3396.99,,2018-07-10 10:03:55,2018-07-10 10:03:55,0.015s,PASSED
"Statement - rows_table = Table.findElements(org.openqa.selenium.By.tagName(""tr""))",Chrome 67.0.3396.99,,2018-07-10 10:03:55,2018-07-10 10:03:55,0.024s,PASSED
Statement - println(arrayLength),Chrome 67.0.3396.99,,2018-07-10 10:03:55,2018-07-10 10:03:55,0.001s,PASSED
Statement - println(workday_time),Chrome 67.0.3396.99,,2018-07-10 10:03:55,2018-07-10 10:03:55,0.000s,PASSED
"Statement - For ([i = 0, i < arrayLength, (i++)])",Chrome 67.0.3396.99,,2018-07-10 10:03:55,2018-07-10 10:03:55,0.109s,PASSED
click,Chrome 67.0.3396.99,,2018-07-10 10:03:55,2018-07-10 10:03:55,0.143s,PASSED
sendKeys,Chrome 67.0.3396.99,,2018-07-10 10:03:55,2018-07-10 10:03:56,0.600s,PASSED
Statement - java.lang.Thread.sleep(500),Chrome 67.0.3396.99,,2018-07-10 10:03:56,2018-07-10 10:03:56,0.507s,PASSED
