Suite/Test/Step Name,Browser,Description,Start time,End time,Duration,Status
Timesheet,Chrome 67.0.3396.99,,2018-07-10 09:22:16,2018-07-10 09:23:38,1m - 22.550s,FAILED
,,,,,,
Test Cases/Login to Navision,Chrome 67.0.3396.99,,2018-07-10 09:22:16,2018-07-10 09:22:53,37.410s,PASSED
openBrowser,Chrome 67.0.3396.99,,2018-07-10 09:22:16,2018-07-10 09:22:49,32.916s,PASSED
waitForElementPresent,Chrome 67.0.3396.99,,2018-07-10 09:22:49,2018-07-10 09:22:49,0.079s,PASSED
navigateToUrl,Chrome 67.0.3396.99,,2018-07-10 09:22:49,2018-07-10 09:22:50,0.195s,PASSED
waitForElementPresent,Chrome 67.0.3396.99,,2018-07-10 09:22:50,2018-07-10 09:22:50,0.022s,PASSED
maximizeWindow,Chrome 67.0.3396.99,,2018-07-10 09:22:50,2018-07-10 09:22:51,1.138s,PASSED
click,Chrome 67.0.3396.99,,2018-07-10 09:22:51,2018-07-10 09:22:51,0.079s,PASSED
click,Chrome 67.0.3396.99,,2018-07-10 09:22:51,2018-07-10 09:22:51,0.595s,PASSED
waitForElementPresent,Chrome 67.0.3396.99,,2018-07-10 09:22:51,2018-07-10 09:22:52,0.537s,PASSED
switchToFrame,Chrome 67.0.3396.99,,2018-07-10 09:22:52,2018-07-10 09:22:52,0.049s,PASSED
Statement - driver = com.kms.katalon.core.webui.driver.DriverFactory.getWebDriver(),Chrome 67.0.3396.99,To locate table,2018-07-10 09:22:52,2018-07-10 09:22:52,0.007s,PASSED
"Statement - Table = driver.findElement(org.openqa.selenium.By.xpath(""//table[(@summary = 'Time Sheet')]//tbody""))",Chrome 67.0.3396.99,,2018-07-10 09:22:52,2018-07-10 09:22:52,0.036s,PASSED
"Statement - rows_table = Table.findElements(org.openqa.selenium.By.tagName(""tr""))",Chrome 67.0.3396.99,To locate rows of table it will Capture all the rows available in the table,2018-07-10 09:22:52,2018-07-10 09:22:52,0.026s,PASSED
Statement - rows_count = rows_table.size() - 1,Chrome 67.0.3396.99,To calculate no of rows In table,2018-07-10 09:22:52,2018-07-10 09:22:52,0.003s,PASSED
"Statement - println(""No. of rows: "" + rows_count)",Chrome 67.0.3396.99,,2018-07-10 09:22:52,2018-07-10 09:22:52,0.004s,PASSED
Statement - workday_time = <not implemented yet for class: org.codehaus.groovy.ast.expr.EmptyExpression>,Chrome 67.0.3396.99,,2018-07-10 09:22:52,2018-07-10 09:22:52,0.001s,PASSED
Statement - workday_time = [],Chrome 67.0.3396.99,,2018-07-10 09:22:52,2018-07-10 09:22:52,0.001s,PASSED
"Statement - For ([i = 0, i < rows_count, (i++)])",Chrome 67.0.3396.99,Loop will execute for all the rows of the table,2018-07-10 09:22:52,2018-07-10 09:22:53,0.499s,PASSED
Statement - arrayLength = workday_time.size(),Chrome 67.0.3396.99,,2018-07-10 09:22:53,2018-07-10 09:22:53,0.001s,PASSED
Statement - arrayLength = arrayLength,Chrome 67.0.3396.99,,2018-07-10 09:22:53,2018-07-10 09:22:53,0.009s,PASSED
Statement - workday_time = workday_time,Chrome 67.0.3396.99,,2018-07-10 09:22:53,2018-07-10 09:22:53,0.001s,PASSED
Statement - println(workday_time),Chrome 67.0.3396.99,,2018-07-10 09:22:53,2018-07-10 09:22:53,0.001s,PASSED
Statement - println(arrayLength),Chrome 67.0.3396.99,,2018-07-10 09:22:53,2018-07-10 09:22:53,0.000s,PASSED
closeBrowser,Chrome 67.0.3396.99,,2018-07-10 09:22:53,2018-07-10 09:22:53,0.718s,PASSED
,,,,,,
Test Cases/Login in to workday,Chrome 67.0.3396.99,,2018-07-10 09:22:53,2018-07-10 09:23:37,44.050s,FAILED
openBrowser,Chrome 67.0.3396.99,,2018-07-10 09:22:54,2018-07-10 09:23:20,26.732s,PASSED
navigateToUrl,Chrome 67.0.3396.99,,2018-07-10 09:23:20,2018-07-10 09:23:22,1.153s,PASSED
setText,Chrome 67.0.3396.99,,2018-07-10 09:23:22,2018-07-10 09:23:24,2.472s,PASSED
setText,Chrome 67.0.3396.99,,2018-07-10 09:23:24,2018-07-10 09:23:24,0.116s,PASSED
click,Chrome 67.0.3396.99,,2018-07-10 09:23:24,2018-07-10 09:23:24,0.071s,PASSED
click,Chrome 67.0.3396.99,,2018-07-10 09:23:24,2018-07-10 09:23:29,4.694s,PASSED
maximizeWindow,Chrome 67.0.3396.99,,2018-07-10 09:23:29,2018-07-10 09:23:30,1.132s,PASSED
click,Chrome 67.0.3396.99,,2018-07-10 09:23:30,2018-07-10 09:23:31,0.582s,PASSED
click,Chrome 67.0.3396.99,,2018-07-10 09:23:31,2018-07-10 09:23:32,1.104s,PASSED
click,Chrome 67.0.3396.99,,2018-07-10 09:23:32,2018-07-10 09:23:33,1.125s,PASSED
click,Chrome 67.0.3396.99,,2018-07-10 09:23:33,2018-07-10 09:23:33,0.147s,PASSED
waitForElementVisible,Chrome 67.0.3396.99,,2018-07-10 09:23:33,2018-07-10 09:23:33,0.059s,PASSED
click,Chrome 67.0.3396.99,,2018-07-10 09:23:33,2018-07-10 09:23:33,0.053s,PASSED
waitForElementVisible,Chrome 67.0.3396.99,,2018-07-10 09:23:33,2018-07-10 09:23:33,0.029s,PASSED
sendKeys,Chrome 67.0.3396.99,,2018-07-10 09:23:33,2018-07-10 09:23:33,0.069s,PASSED
waitForElementVisible,Chrome 67.0.3396.99,,2018-07-10 09:23:33,2018-07-10 09:23:34,1.056s,PASSED
Statement - driver = com.kms.katalon.core.webui.driver.DriverFactory.getWebDriver(),Chrome 67.0.3396.99,,2018-07-10 09:23:34,2018-07-10 09:23:34,0.000s,PASSED
"Statement - Table = driver.findElement(org.openqa.selenium.By.xpath(""//table[@class='mainTable']""))",Chrome 67.0.3396.99,,2018-07-10 09:23:34,2018-07-10 09:23:34,0.017s,PASSED
"Statement - rows_table = Table.findElements(org.openqa.selenium.By.tagName(""tr""))",Chrome 67.0.3396.99,,2018-07-10 09:23:34,2018-07-10 09:23:34,0.017s,PASSED
Statement - println(arrayLength),Chrome 67.0.3396.99,,2018-07-10 09:23:34,2018-07-10 09:23:34,0.001s,PASSED
Statement - println(workday_time),Chrome 67.0.3396.99,,2018-07-10 09:23:34,2018-07-10 09:23:34,0.000s,PASSED
"Statement - For ([i = 0, i < arrayLength, (i++)])",Chrome 67.0.3396.99,,2018-07-10 09:23:34,2018-07-10 09:23:34,0.105s,PASSED
click,Chrome 67.0.3396.99,,2018-07-10 09:23:34,2018-07-10 09:23:35,0.139s,PASSED
setText,Chrome 67.0.3396.99,,2018-07-10 09:23:35,2018-07-10 09:23:35,0.600s,PASSED
click,Chrome 67.0.3396.99,,2018-07-10 09:23:35,2018-07-10 09:23:35,0.088s,PASSED
setText,Chrome 67.0.3396.99,,2018-07-10 09:23:35,2018-07-10 09:23:35,0.136s,PASSED
click,Chrome 67.0.3396.99,,2018-07-10 09:23:35,2018-07-10 09:23:36,0.080s,PASSED
setText,Chrome 67.0.3396.99,,2018-07-10 09:23:36,2018-07-10 09:23:36,0.085s,PASSED
click,Chrome 67.0.3396.99,,2018-07-10 09:23:36,2018-07-10 09:23:36,0.082s,PASSED
setText,Chrome 67.0.3396.99,,2018-07-10 09:23:36,2018-07-10 09:23:36,0.137s,PASSED
click,Chrome 67.0.3396.99,,2018-07-10 09:23:36,2018-07-10 09:23:36,0.096s,PASSED
setText,Chrome 67.0.3396.99,,2018-07-10 09:23:36,2018-07-10 09:23:36,0.092s,PASSED
click,Chrome 67.0.3396.99,,2018-07-10 09:23:36,2018-07-10 09:23:36,0.092s,PASSED
setText,Chrome 67.0.3396.99,,2018-07-10 09:23:36,2018-07-10 09:23:36,0.150s,PASSED
click,Chrome 67.0.3396.99,,2018-07-10 09:23:36,2018-07-10 09:23:36,0.070s,PASSED
setText,Chrome 67.0.3396.99,,2018-07-10 09:23:36,2018-07-10 09:23:37,0.448s,PASSED
click,Chrome 67.0.3396.99,,2018-07-10 09:23:37,2018-07-10 09:23:37,0.602s,FAILED
