Suite/Test/Step Name,Browser,Description,Start time,End time,Duration,Status
Timesheet,Chrome 67.0.3396.99,,2018-08-03 08:30:50,2018-08-03 08:32:18,1m - 27.446s,ERROR
,,,,,,
Test Cases/Login to Navision,Chrome 67.0.3396.99,,2018-08-03 08:30:51,2018-08-03 08:31:27,36.845s,PASSED
openBrowser,Chrome 67.0.3396.99,,2018-08-03 08:30:51,2018-08-03 08:31:22,31.267s,PASSED
waitForElementPresent,Chrome 67.0.3396.99,,2018-08-03 08:31:22,2018-08-03 08:31:22,0.078s,PASSED
navigateToUrl,Chrome 67.0.3396.99,,2018-08-03 08:31:22,2018-08-03 08:31:23,0.229s,PASSED
waitForElementPresent,Chrome 67.0.3396.99,,2018-08-03 08:31:23,2018-08-03 08:31:23,0.024s,PASSED
maximizeWindow,Chrome 67.0.3396.99,,2018-08-03 08:31:23,2018-08-03 08:31:24,1.144s,PASSED
click,Chrome 67.0.3396.99,,2018-08-03 08:31:24,2018-08-03 08:31:24,0.090s,PASSED
click,Chrome 67.0.3396.99,,2018-08-03 08:31:24,2018-08-03 08:31:24,0.593s,PASSED
waitForElementPresent,Chrome 67.0.3396.99,,2018-08-03 08:31:24,2018-08-03 08:31:25,0.537s,PASSED
switchToFrame,Chrome 67.0.3396.99,,2018-08-03 08:31:25,2018-08-03 08:31:25,0.060s,PASSED
Statement - driver = com.kms.katalon.core.webui.driver.DriverFactory.getWebDriver(),Chrome 67.0.3396.99,To locate table,2018-08-03 08:31:25,2018-08-03 08:31:25,0.007s,PASSED
"Statement - Table = driver.findElement(org.openqa.selenium.By.xpath(""//table[(@summary = 'Time Sheet')]//tbody""))",Chrome 67.0.3396.99,,2018-08-03 08:31:25,2018-08-03 08:31:25,0.036s,PASSED
"Statement - rows_table = Table.findElements(org.openqa.selenium.By.tagName(""tr""))",Chrome 67.0.3396.99,To locate rows of table it will Capture all the rows available in the table,2018-08-03 08:31:25,2018-08-03 08:31:25,0.020s,PASSED
Statement - rows_count = rows_table.size() - 1,Chrome 67.0.3396.99,To calculate no of rows In table,2018-08-03 08:31:25,2018-08-03 08:31:25,0.002s,PASSED
"Statement - println(""No. of rows: "" + rows_count)",Chrome 67.0.3396.99,,2018-08-03 08:31:25,2018-08-03 08:31:25,0.003s,PASSED
Statement - workday_time = <not implemented yet for class: org.codehaus.groovy.ast.expr.EmptyExpression>,Chrome 67.0.3396.99,,2018-08-03 08:31:25,2018-08-03 08:31:25,0.001s,PASSED
Statement - workday_time = [],Chrome 67.0.3396.99,,2018-08-03 08:31:25,2018-08-03 08:31:25,0.001s,PASSED
"Statement - For ([i = 0, i < rows_count, (i++)])",Chrome 67.0.3396.99,Loop will execute for all the rows of the table,2018-08-03 08:31:25,2018-08-03 08:31:27,1.474s,PASSED
Statement - arrayLength = workday_time.size(),Chrome 67.0.3396.99,,2018-08-03 08:31:27,2018-08-03 08:31:27,0.002s,PASSED
Statement - arrayLength = arrayLength,Chrome 67.0.3396.99,,2018-08-03 08:31:27,2018-08-03 08:31:27,0.009s,PASSED
Statement - workday_time = workday_time,Chrome 67.0.3396.99,,2018-08-03 08:31:27,2018-08-03 08:31:27,0.000s,PASSED
Statement - println(workday_time),Chrome 67.0.3396.99,,2018-08-03 08:31:27,2018-08-03 08:31:27,0.001s,PASSED
Statement - println(arrayLength),Chrome 67.0.3396.99,,2018-08-03 08:31:27,2018-08-03 08:31:27,0.001s,PASSED
closeBrowser,Chrome 67.0.3396.99,,2018-08-03 08:31:27,2018-08-03 08:31:27,0.754s,PASSED
,,,,,,
Test Cases/Login in to workday,Chrome 67.0.3396.99,,2018-08-03 08:31:27,2018-08-03 08:32:17,49.447s,ERROR
openBrowser,Chrome 67.0.3396.99,,2018-08-03 08:31:28,2018-08-03 08:31:55,26.807s,PASSED
navigateToUrl,Chrome 67.0.3396.99,,2018-08-03 08:31:55,2018-08-03 08:31:56,1.179s,PASSED
setText,Chrome 67.0.3396.99,,2018-08-03 08:31:56,2018-08-03 08:31:58,2.396s,PASSED
setText,Chrome 67.0.3396.99,,2018-08-03 08:31:58,2018-08-03 08:31:58,0.118s,PASSED
click,Chrome 67.0.3396.99,,2018-08-03 08:31:58,2018-08-03 08:31:58,0.080s,PASSED
click,Chrome 67.0.3396.99,,2018-08-03 08:31:58,2018-08-03 08:32:08,9.552s,PASSED
maximizeWindow,Chrome 67.0.3396.99,,2018-08-03 08:32:08,2018-08-03 08:32:09,1.141s,PASSED
click,Chrome 67.0.3396.99,,2018-08-03 08:32:09,2018-08-03 08:32:10,0.591s,PASSED
click,Chrome 67.0.3396.99,,2018-08-03 08:32:10,2018-08-03 08:32:11,1.174s,PASSED
focus,Chrome 67.0.3396.99,,2018-08-03 08:32:11,2018-08-03 08:32:12,1.109s,PASSED
delay,Chrome 67.0.3396.99,,2018-08-03 08:32:12,2018-08-03 08:32:13,1.018s,PASSED
click,Chrome 67.0.3396.99,,2018-08-03 08:32:13,2018-08-03 08:32:13,0.079s,PASSED
delay,Chrome 67.0.3396.99,,2018-08-03 08:32:13,2018-08-03 08:32:14,1.002s,PASSED
click,Chrome 67.0.3396.99,,2018-08-03 08:32:14,2018-08-03 08:32:14,0.077s,PASSED
waitForElementVisible,Chrome 67.0.3396.99,,2018-08-03 08:32:14,2018-08-03 08:32:15,1.237s,PASSED
Statement - rowSize_before = getTableRowCount(),Chrome 67.0.3396.99,,2018-08-03 08:32:15,2018-08-03 08:32:15,0.000s,PASSED
Statement - driver = com.kms.katalon.core.webui.driver.DriverFactory.getWebDriver(),Chrome 67.0.3396.99,,2018-08-03 08:32:15,2018-08-03 08:32:15,0.000s,PASSED
"Statement - Table = driver.findElement(org.openqa.selenium.By.xpath(""//table[@class='mainTable']""))",Chrome 67.0.3396.99,,2018-08-03 08:32:15,2018-08-03 08:32:15,0.015s,PASSED
"Statement - rows_table = Table.findElements(org.openqa.selenium.By.tagName(""tr""))",Chrome 67.0.3396.99,,2018-08-03 08:32:15,2018-08-03 08:32:15,0.014s,PASSED
Statement - return (rows_table.size() - 2),Chrome 67.0.3396.99,,2018-08-03 08:32:15,2018-08-03 08:32:15,0.001s,PASSED
Statement - arrayLength = arrayLength,Chrome 67.0.3396.99,,2018-08-03 08:32:15,2018-08-03 08:32:15,0.000s,PASSED
Statement - rows_size_refined = getTableRowCount(),Chrome 67.0.3396.99,,2018-08-03 08:32:15,2018-08-03 08:32:15,0.001s,PASSED
Statement - driver = com.kms.katalon.core.webui.driver.DriverFactory.getWebDriver(),Chrome 67.0.3396.99,,2018-08-03 08:32:15,2018-08-03 08:32:15,0.000s,PASSED
"Statement - Table = driver.findElement(org.openqa.selenium.By.xpath(""//table[@class='mainTable']""))",Chrome 67.0.3396.99,,2018-08-03 08:32:15,2018-08-03 08:32:15,0.011s,PASSED
"Statement - rows_table = Table.findElements(org.openqa.selenium.By.tagName(""tr""))",Chrome 67.0.3396.99,,2018-08-03 08:32:15,2018-08-03 08:32:15,0.010s,PASSED
Statement - return (rows_table.size() - 2),Chrome 67.0.3396.99,,2018-08-03 08:32:15,2018-08-03 08:32:15,0.000s,PASSED
Statement - existing_tasks = <not implemented yet for class: org.codehaus.groovy.ast.expr.EmptyExpression>,Chrome 67.0.3396.99,,2018-08-03 08:32:15,2018-08-03 08:32:15,0.001s,PASSED
Statement - existing_tasks = [],Chrome 67.0.3396.99,,2018-08-03 08:32:15,2018-08-03 08:32:15,0.000s,PASSED
Statement - existing_tasks_size = <not implemented yet for class: org.codehaus.groovy.ast.expr.EmptyExpression>,Chrome 67.0.3396.99,,2018-08-03 08:32:15,2018-08-03 08:32:15,0.000s,PASSED
"Statement - For ([x = 1, x <= rows_size_refined, (x++)])",Chrome 67.0.3396.99,,2018-08-03 08:32:15,2018-08-03 08:32:16,0.358s,PASSED
Statement - If (existing_tasks == [null]),Chrome 67.0.3396.99,,2018-08-03 08:32:16,2018-08-03 08:32:16,0.000s,PASSED
Statement - Else,Chrome 67.0.3396.99,,2018-08-03 08:32:16,2018-08-03 08:32:16,0.001s,PASSED
"Statement - For ([i = 0, i < arrayLength, (i++)])",Chrome 67.0.3396.99,,2018-08-03 08:32:16,2018-08-03 08:32:17,1.003s,PASSED
Statement - timeTypeValue = workday_time[i][0].toString(),Chrome 67.0.3396.99,,2018-08-03 08:32:17,2018-08-03 08:32:17,0.003s,PASSED
"Statement - result = verifyTaskIsPresent(timeTypeValue, rows, existing_tasks)",Chrome 67.0.3396.99,,2018-08-03 08:32:17,2018-08-03 08:32:17,0.000s,PASSED
"Statement - navision_job_split = timeType_navision.split("" "")",Chrome 67.0.3396.99,,2018-08-03 08:32:17,2018-08-03 08:32:17,0.003s,PASSED
Statement - arraySize = navision_job_split.size(),Chrome 67.0.3396.99,,2018-08-03 08:32:17,2018-08-03 08:32:17,0.000s,PASSED
Statement - result = true,Chrome 67.0.3396.99,,2018-08-03 08:32:17,2018-08-03 08:32:17,0.000s,PASSED
Statement - For (int x : rows_size),Chrome 67.0.3396.99,,2018-08-03 08:32:17,2018-08-03 08:32:17,0.004s,PASSED
