Suite/Test/Step Name,Browser,Description,Start time,End time,Duration,Status
Timesheet,Chrome 67.0.3396.99,,2018-07-10 12:53:38,2018-07-10 12:55:09,1m - 31.667s,ERROR
,,,,,,
Test Cases/Login to Navision,Chrome 67.0.3396.99,,2018-07-10 12:53:38,2018-07-10 12:54:19,40.940s,PASSED
openBrowser,Chrome 67.0.3396.99,,2018-07-10 12:53:39,2018-07-10 12:54:15,36.318s,PASSED
waitForElementPresent,Chrome 67.0.3396.99,,2018-07-10 12:54:15,2018-07-10 12:54:15,0.098s,PASSED
navigateToUrl,Chrome 67.0.3396.99,,2018-07-10 12:54:15,2018-07-10 12:54:15,0.209s,PASSED
waitForElementPresent,Chrome 67.0.3396.99,,2018-07-10 12:54:15,2018-07-10 12:54:15,0.031s,PASSED
maximizeWindow,Chrome 67.0.3396.99,,2018-07-10 12:54:15,2018-07-10 12:54:16,1.152s,PASSED
click,Chrome 67.0.3396.99,,2018-07-10 12:54:16,2018-07-10 12:54:16,0.092s,PASSED
click,Chrome 67.0.3396.99,,2018-07-10 12:54:16,2018-07-10 12:54:17,0.594s,PASSED
waitForElementPresent,Chrome 67.0.3396.99,,2018-07-10 12:54:17,2018-07-10 12:54:18,0.537s,PASSED
switchToFrame,Chrome 67.0.3396.99,,2018-07-10 12:54:18,2018-07-10 12:54:18,0.054s,PASSED
Statement - driver = com.kms.katalon.core.webui.driver.DriverFactory.getWebDriver(),Chrome 67.0.3396.99,To locate table,2018-07-10 12:54:18,2018-07-10 12:54:18,0.009s,PASSED
"Statement - Table = driver.findElement(org.openqa.selenium.By.xpath(""//table[(@summary = 'Time Sheet')]//tbody""))",Chrome 67.0.3396.99,,2018-07-10 12:54:18,2018-07-10 12:54:18,0.035s,PASSED
"Statement - rows_table = Table.findElements(org.openqa.selenium.By.tagName(""tr""))",Chrome 67.0.3396.99,To locate rows of table it will Capture all the rows available in the table,2018-07-10 12:54:18,2018-07-10 12:54:18,0.022s,PASSED
Statement - rows_count = rows_table.size() - 1,Chrome 67.0.3396.99,To calculate no of rows In table,2018-07-10 12:54:18,2018-07-10 12:54:18,0.003s,PASSED
"Statement - println(""No. of rows: "" + rows_count)",Chrome 67.0.3396.99,,2018-07-10 12:54:18,2018-07-10 12:54:18,0.004s,PASSED
Statement - workday_time = <not implemented yet for class: org.codehaus.groovy.ast.expr.EmptyExpression>,Chrome 67.0.3396.99,,2018-07-10 12:54:18,2018-07-10 12:54:18,0.002s,PASSED
Statement - workday_time = [],Chrome 67.0.3396.99,,2018-07-10 12:54:18,2018-07-10 12:54:18,0.001s,PASSED
"Statement - For ([i = 0, i < rows_count, (i++)])",Chrome 67.0.3396.99,Loop will execute for all the rows of the table,2018-07-10 12:54:18,2018-07-10 12:54:18,0.547s,PASSED
Statement - arrayLength = workday_time.size(),Chrome 67.0.3396.99,,2018-07-10 12:54:18,2018-07-10 12:54:18,0.003s,PASSED
Statement - arrayLength = arrayLength,Chrome 67.0.3396.99,,2018-07-10 12:54:18,2018-07-10 12:54:18,0.011s,PASSED
Statement - workday_time = workday_time,Chrome 67.0.3396.99,,2018-07-10 12:54:18,2018-07-10 12:54:18,0.000s,PASSED
Statement - println(workday_time),Chrome 67.0.3396.99,,2018-07-10 12:54:18,2018-07-10 12:54:18,0.000s,PASSED
Statement - println(arrayLength),Chrome 67.0.3396.99,,2018-07-10 12:54:18,2018-07-10 12:54:18,0.000s,PASSED
closeBrowser,Chrome 67.0.3396.99,,2018-07-10 12:54:18,2018-07-10 12:54:19,0.746s,PASSED
,,,,,,
Test Cases/Login in to workday,Chrome 67.0.3396.99,,2018-07-10 12:54:19,2018-07-10 12:55:09,49.624s,ERROR
openBrowser,Chrome 67.0.3396.99,,2018-07-10 12:54:19,2018-07-10 12:54:46,26.877s,PASSED
navigateToUrl,Chrome 67.0.3396.99,,2018-07-10 12:54:46,2018-07-10 12:54:47,1.158s,PASSED
setText,Chrome 67.0.3396.99,,2018-07-10 12:54:47,2018-07-10 12:54:50,2.378s,PASSED
setText,Chrome 67.0.3396.99,,2018-07-10 12:54:50,2018-07-10 12:54:50,0.118s,PASSED
click,Chrome 67.0.3396.99,,2018-07-10 12:54:50,2018-07-10 12:54:50,0.086s,PASSED
click,Chrome 67.0.3396.99,,2018-07-10 12:54:50,2018-07-10 12:54:55,4.625s,PASSED
maximizeWindow,Chrome 67.0.3396.99,,2018-07-10 12:54:55,2018-07-10 12:54:56,1.130s,PASSED
click,Chrome 67.0.3396.99,,2018-07-10 12:54:56,2018-07-10 12:54:56,0.601s,PASSED
click,Chrome 67.0.3396.99,,2018-07-10 12:54:56,2018-07-10 12:54:58,1.103s,PASSED
click,Chrome 67.0.3396.99,,2018-07-10 12:54:58,2018-07-10 12:54:59,1.143s,PASSED
click,Chrome 67.0.3396.99,,2018-07-10 12:54:59,2018-07-10 12:54:59,0.138s,PASSED
waitForElementVisible,Chrome 67.0.3396.99,,2018-07-10 12:54:59,2018-07-10 12:54:59,0.073s,PASSED
click,Chrome 67.0.3396.99,,2018-07-10 12:54:59,2018-07-10 12:54:59,0.063s,PASSED
waitForElementVisible,Chrome 67.0.3396.99,,2018-07-10 12:54:59,2018-07-10 12:54:59,0.022s,PASSED
sendKeys,Chrome 67.0.3396.99,,2018-07-10 12:54:59,2018-07-10 12:54:59,0.062s,PASSED
waitForElementVisible,Chrome 67.0.3396.99,,2018-07-10 12:54:59,2018-07-10 12:55:08,9.238s,PASSED
Statement - driver = com.kms.katalon.core.webui.driver.DriverFactory.getWebDriver(),Chrome 67.0.3396.99,,2018-07-10 12:55:08,2018-07-10 12:55:08,0.001s,PASSED
"Statement - Table = driver.findElement(org.openqa.selenium.By.xpath(""//table[@class='mainTable']""))",Chrome 67.0.3396.99,,2018-07-10 12:55:08,2018-07-10 12:55:08,0.017s,PASSED
"Statement - rows_table = Table.findElements(org.openqa.selenium.By.tagName(""tr""))",Chrome 67.0.3396.99,,2018-07-10 12:55:08,2018-07-10 12:55:08,0.017s,PASSED
Statement - println(arrayLength),Chrome 67.0.3396.99,,2018-07-10 12:55:08,2018-07-10 12:55:08,0.001s,PASSED
Statement - println(workday_time),Chrome 67.0.3396.99,,2018-07-10 12:55:08,2018-07-10 12:55:08,0.001s,PASSED
"Statement - For ([i = 0, i < arrayLength, (i++)])",Chrome 67.0.3396.99,,2018-07-10 12:55:08,2018-07-10 12:55:08,0.147s,PASSED
Statement - timeTypeValue = workday_time[i][0].toString(),Chrome 67.0.3396.99,,2018-07-10 12:55:08,2018-07-10 12:55:08,0.005s,PASSED
Statement - charLength = timeTypeValue.length(),Chrome 67.0.3396.99,,2018-07-10 12:55:08,2018-07-10 12:55:08,0.001s,PASSED
click,Chrome 67.0.3396.99,,2018-07-10 12:55:08,2018-07-10 12:55:09,0.143s,PASSED
"Statement - For ([x = 0, x < charLength, (x++)])",Chrome 67.0.3396.99,,2018-07-10 12:55:09,2018-07-10 12:55:09,0.008s,PASSED
