Suite/Test/Step Name,Browser,Description,Start time,End time,Duration,Status
Timesheet,Chrome 67.0.3396.99,,2018-08-03 14:02:09,2018-08-03 14:03:36,1m - 26.640s,FAILED
,,,,,,
Test Cases/Login to Navision,Chrome 67.0.3396.99,,2018-08-03 14:02:10,2018-08-03 14:02:49,38.776s,PASSED
openBrowser,Chrome 67.0.3396.99,,2018-08-03 14:02:10,2018-08-03 14:02:43,32.393s,PASSED
waitForElementPresent,Chrome 67.0.3396.99,,2018-08-03 14:02:43,2018-08-03 14:02:43,0.116s,PASSED
navigateToUrl,Chrome 67.0.3396.99,,2018-08-03 14:02:43,2018-08-03 14:02:43,0.284s,PASSED
waitForElementPresent,Chrome 67.0.3396.99,,2018-08-03 14:02:43,2018-08-03 14:02:43,0.028s,PASSED
maximizeWindow,Chrome 67.0.3396.99,,2018-08-03 14:02:43,2018-08-03 14:02:44,1.151s,PASSED
click,Chrome 67.0.3396.99,,2018-08-03 14:02:44,2018-08-03 14:02:45,0.096s,PASSED
click,Chrome 67.0.3396.99,,2018-08-03 14:02:45,2018-08-03 14:02:45,0.599s,PASSED
waitForElementPresent,Chrome 67.0.3396.99,,2018-08-03 14:02:45,2018-08-03 14:02:46,0.537s,PASSED
switchToFrame,Chrome 67.0.3396.99,,2018-08-03 14:02:46,2018-08-03 14:02:46,0.055s,PASSED
Statement - driver = com.kms.katalon.core.webui.driver.DriverFactory.getWebDriver(),Chrome 67.0.3396.99,To locate table,2018-08-03 14:02:46,2018-08-03 14:02:46,0.006s,PASSED
"Statement - Table = driver.findElement(org.openqa.selenium.By.xpath(""//table[(@summary = 'Time Sheet')]//tbody""))",Chrome 67.0.3396.99,,2018-08-03 14:02:46,2018-08-03 14:02:46,0.034s,PASSED
"Statement - rows_table = Table.findElements(org.openqa.selenium.By.tagName(""tr""))",Chrome 67.0.3396.99,To locate rows of table it will Capture all the rows available in the table,2018-08-03 14:02:46,2018-08-03 14:02:46,0.024s,PASSED
Statement - rows_count = rows_table.size() - 1,Chrome 67.0.3396.99,To calculate no of rows In table,2018-08-03 14:02:46,2018-08-03 14:02:46,0.003s,PASSED
"Statement - println(""No. of rows: "" + rows_count)",Chrome 67.0.3396.99,,2018-08-03 14:02:46,2018-08-03 14:02:46,0.003s,PASSED
Statement - workday_time = <not implemented yet for class: org.codehaus.groovy.ast.expr.EmptyExpression>,Chrome 67.0.3396.99,,2018-08-03 14:02:46,2018-08-03 14:02:46,0.001s,PASSED
Statement - workday_time = [],Chrome 67.0.3396.99,,2018-08-03 14:02:46,2018-08-03 14:02:46,0.001s,PASSED
"Statement - For ([i = 0, i < rows_count, (i++)])",Chrome 67.0.3396.99,Loop will execute for all the rows of the table,2018-08-03 14:02:46,2018-08-03 14:02:48,2.049s,PASSED
Statement - arrayLength = workday_time.size(),Chrome 67.0.3396.99,,2018-08-03 14:02:48,2018-08-03 14:02:48,0.002s,PASSED
Statement - arrayLength = arrayLength,Chrome 67.0.3396.99,,2018-08-03 14:02:48,2018-08-03 14:02:48,0.012s,PASSED
Statement - workday_time = workday_time,Chrome 67.0.3396.99,,2018-08-03 14:02:48,2018-08-03 14:02:48,0.000s,PASSED
Statement - println(workday_time),Chrome 67.0.3396.99,,2018-08-03 14:02:48,2018-08-03 14:02:48,0.001s,PASSED
Statement - println(arrayLength),Chrome 67.0.3396.99,,2018-08-03 14:02:48,2018-08-03 14:02:48,0.000s,PASSED
closeBrowser,Chrome 67.0.3396.99,,2018-08-03 14:02:48,2018-08-03 14:02:49,0.780s,PASSED
,,,,,,
Test Cases/Login in to workday,Chrome 67.0.3396.99,,2018-08-03 14:02:49,2018-08-03 14:03:35,46.292s,FAILED
openBrowser,Chrome 67.0.3396.99,,2018-08-03 14:02:49,2018-08-03 14:03:17,27.487s,PASSED
navigateToUrl,Chrome 67.0.3396.99,,2018-08-03 14:03:17,2018-08-03 14:03:18,1.156s,PASSED
setText,Chrome 67.0.3396.99,,2018-08-03 14:03:18,2018-08-03 14:03:20,1.990s,PASSED
setText,Chrome 67.0.3396.99,,2018-08-03 14:03:20,2018-08-03 14:03:20,0.149s,PASSED
click,Chrome 67.0.3396.99,,2018-08-03 14:03:20,2018-08-03 14:03:20,0.102s,PASSED
click,Chrome 67.0.3396.99,,2018-08-03 14:03:20,2018-08-03 14:03:25,4.842s,PASSED
maximizeWindow,Chrome 67.0.3396.99,,2018-08-03 14:03:25,2018-08-03 14:03:26,1.148s,PASSED
click,Chrome 67.0.3396.99,,2018-08-03 14:03:26,2018-08-03 14:03:26,0.136s,PASSED
click,Chrome 67.0.3396.99,,2018-08-03 14:03:26,2018-08-03 14:03:28,1.620s,PASSED
focus,Chrome 67.0.3396.99,,2018-08-03 14:03:28,2018-08-03 14:03:29,1.278s,PASSED
delay,Chrome 67.0.3396.99,,2018-08-03 14:03:29,2018-08-03 14:03:30,1.019s,PASSED
click,Chrome 67.0.3396.99,,2018-08-03 14:03:30,2018-08-03 14:03:30,0.074s,PASSED
delay,Chrome 67.0.3396.99,,2018-08-03 14:03:30,2018-08-03 14:03:31,1.000s,PASSED
click,Chrome 67.0.3396.99,,2018-08-03 14:03:31,2018-08-03 14:03:31,0.087s,PASSED
waitForElementVisible,Chrome 67.0.3396.99,,2018-08-03 14:03:31,2018-08-03 14:03:33,1.325s,PASSED
Statement - rowSize_before = getTableRowCount(),Chrome 67.0.3396.99,,2018-08-03 14:03:33,2018-08-03 14:03:33,0.000s,PASSED
Statement - driver = com.kms.katalon.core.webui.driver.DriverFactory.getWebDriver(),Chrome 67.0.3396.99,,2018-08-03 14:03:33,2018-08-03 14:03:33,0.000s,PASSED
"Statement - Table = driver.findElement(org.openqa.selenium.By.xpath(""//table[@class='mainTable']""))",Chrome 67.0.3396.99,,2018-08-03 14:03:33,2018-08-03 14:03:33,0.024s,PASSED
"Statement - rows_table = Table.findElements(org.openqa.selenium.By.tagName(""tr""))",Chrome 67.0.3396.99,,2018-08-03 14:03:33,2018-08-03 14:03:33,0.017s,PASSED
Statement - return (rows_table.size() - 2),Chrome 67.0.3396.99,,2018-08-03 14:03:33,2018-08-03 14:03:33,0.000s,PASSED
Statement - arrayLength = arrayLength,Chrome 67.0.3396.99,,2018-08-03 14:03:33,2018-08-03 14:03:33,0.000s,PASSED
Statement - rows_size_refined = getTableRowCount(),Chrome 67.0.3396.99,,2018-08-03 14:03:33,2018-08-03 14:03:33,0.000s,PASSED
Statement - driver = com.kms.katalon.core.webui.driver.DriverFactory.getWebDriver(),Chrome 67.0.3396.99,,2018-08-03 14:03:33,2018-08-03 14:03:33,0.001s,PASSED
"Statement - Table = driver.findElement(org.openqa.selenium.By.xpath(""//table[@class='mainTable']""))",Chrome 67.0.3396.99,,2018-08-03 14:03:33,2018-08-03 14:03:33,0.010s,PASSED
"Statement - rows_table = Table.findElements(org.openqa.selenium.By.tagName(""tr""))",Chrome 67.0.3396.99,,2018-08-03 14:03:33,2018-08-03 14:03:33,0.009s,PASSED
Statement - return (rows_table.size() - 2),Chrome 67.0.3396.99,,2018-08-03 14:03:33,2018-08-03 14:03:33,0.000s,PASSED
Statement - existing_tasks = <not implemented yet for class: org.codehaus.groovy.ast.expr.EmptyExpression>,Chrome 67.0.3396.99,,2018-08-03 14:03:33,2018-08-03 14:03:33,0.000s,PASSED
Statement - existing_tasks = [],Chrome 67.0.3396.99,,2018-08-03 14:03:33,2018-08-03 14:03:33,0.000s,PASSED
Statement - existing_tasks_size = <not implemented yet for class: org.codehaus.groovy.ast.expr.EmptyExpression>,Chrome 67.0.3396.99,,2018-08-03 14:03:33,2018-08-03 14:03:33,0.001s,PASSED
"Statement - For ([x = 1, x <= rows_size_refined, (x++)])",Chrome 67.0.3396.99,,2018-08-03 14:03:33,2018-08-03 14:03:33,0.436s,PASSED
Statement - If (existing_tasks == [null]),Chrome 67.0.3396.99,,2018-08-03 14:03:33,2018-08-03 14:03:33,0.000s,PASSED
Statement - Else,Chrome 67.0.3396.99,,2018-08-03 14:03:33,2018-08-03 14:03:33,0.001s,PASSED
"Statement - For ([i = 0, i < arrayLength, (i++)])",Chrome 67.0.3396.99,,2018-08-03 14:03:33,2018-08-03 14:03:34,1.002s,PASSED
Statement - timeTypeValue = workday_time[i][0].toString(),Chrome 67.0.3396.99,,2018-08-03 14:03:34,2018-08-03 14:03:34,0.004s,PASSED
"Statement - result = verifyTaskIsPresent(timeTypeValue, rows, existing_tasks)",Chrome 67.0.3396.99,,2018-08-03 14:03:34,2018-08-03 14:03:34,0.000s,PASSED
"Statement - navision_job_split = timeType_navision.split("" "")",Chrome 67.0.3396.99,,2018-08-03 14:03:34,2018-08-03 14:03:34,0.003s,PASSED
Statement - arraySize = navision_job_split.size(),Chrome 67.0.3396.99,,2018-08-03 14:03:34,2018-08-03 14:03:34,0.000s,PASSED
Statement - result = <not implemented yet for class: org.codehaus.groovy.ast.expr.EmptyExpression>,Chrome 67.0.3396.99,,2018-08-03 14:03:34,2018-08-03 14:03:34,0.000s,PASSED
Statement - println(timeType_navision),Chrome 67.0.3396.99,,2018-08-03 14:03:34,2018-08-03 14:03:34,0.001s,PASSED
Statement - println(rows_size),Chrome 67.0.3396.99,,2018-08-03 14:03:34,2018-08-03 14:03:34,0.000s,PASSED
Statement - println(existing_tasks),Chrome 67.0.3396.99,,2018-08-03 14:03:34,2018-08-03 14:03:34,0.001s,PASSED
"Statement - For ([x = <not implemented yet for class: org.codehaus.groovy.ast.expr.EmptyExpression>, x < rows_size, (x++)])",Chrome 67.0.3396.99,,2018-08-03 14:03:34,2018-08-03 14:03:34,0.011s,PASSED
"Statement - setTableValues(4, i, 1)",Chrome 67.0.3396.99,Monday column,2018-08-03 14:03:34,2018-08-03 14:03:34,0.000s,PASSED
click,Chrome 67.0.3396.99,,2018-08-03 14:03:34,2018-08-03 14:03:34,0.148s,PASSED
"Statement - If (!(workday_time[i][j].equals("""")))",Chrome 67.0.3396.99,,2018-08-03 14:03:34,2018-08-03 14:03:35,0.546s,FAILED
