Suite/Test/Step Name,Browser,Description,Start time,End time,Duration,Status
Timesheet,Chrome 67.0.3396.99,,2018-07-20 11:32:43,2018-07-20 11:34:25,1m - 42.002s,PASSED
,,,,,,
Test Cases/Login to Navision,Chrome 67.0.3396.99,,2018-07-20 11:32:44,2018-07-20 11:33:19,35.613s,PASSED
openBrowser,Chrome 67.0.3396.99,,2018-07-20 11:32:44,2018-07-20 11:33:15,30.707s,PASSED
waitForElementPresent,Chrome 67.0.3396.99,,2018-07-20 11:33:15,2018-07-20 11:33:15,0.085s,PASSED
navigateToUrl,Chrome 67.0.3396.99,,2018-07-20 11:33:15,2018-07-20 11:33:15,0.202s,PASSED
waitForElementPresent,Chrome 67.0.3396.99,,2018-07-20 11:33:15,2018-07-20 11:33:15,0.028s,PASSED
maximizeWindow,Chrome 67.0.3396.99,,2018-07-20 11:33:15,2018-07-20 11:33:16,1.140s,PASSED
click,Chrome 67.0.3396.99,,2018-07-20 11:33:16,2018-07-20 11:33:16,0.087s,PASSED
click,Chrome 67.0.3396.99,,2018-07-20 11:33:16,2018-07-20 11:33:17,0.663s,PASSED
waitForElementPresent,Chrome 67.0.3396.99,,2018-07-20 11:33:17,2018-07-20 11:33:17,0.613s,PASSED
switchToFrame,Chrome 67.0.3396.99,,2018-07-20 11:33:17,2018-07-20 11:33:18,0.063s,PASSED
Statement - driver = com.kms.katalon.core.webui.driver.DriverFactory.getWebDriver(),Chrome 67.0.3396.99,To locate table,2018-07-20 11:33:18,2018-07-20 11:33:18,0.008s,PASSED
"Statement - Table = driver.findElement(org.openqa.selenium.By.xpath(""//table[(@summary = 'Time Sheet')]//tbody""))",Chrome 67.0.3396.99,,2018-07-20 11:33:18,2018-07-20 11:33:18,0.043s,PASSED
"Statement - rows_table = Table.findElements(org.openqa.selenium.By.tagName(""tr""))",Chrome 67.0.3396.99,To locate rows of table it will Capture all the rows available in the table,2018-07-20 11:33:18,2018-07-20 11:33:18,0.023s,PASSED
Statement - rows_count = rows_table.size() - 1,Chrome 67.0.3396.99,To calculate no of rows In table,2018-07-20 11:33:18,2018-07-20 11:33:18,0.004s,PASSED
"Statement - println(""No. of rows: "" + rows_count)",Chrome 67.0.3396.99,,2018-07-20 11:33:18,2018-07-20 11:33:18,0.004s,PASSED
Statement - workday_time = <not implemented yet for class: org.codehaus.groovy.ast.expr.EmptyExpression>,Chrome 67.0.3396.99,,2018-07-20 11:33:18,2018-07-20 11:33:18,0.001s,PASSED
Statement - workday_time = [],Chrome 67.0.3396.99,,2018-07-20 11:33:18,2018-07-20 11:33:18,0.001s,PASSED
"Statement - For ([i = 0, i < rows_count, (i++)])",Chrome 67.0.3396.99,Loop will execute for all the rows of the table,2018-07-20 11:33:18,2018-07-20 11:33:18,0.802s,PASSED
Statement - arrayLength = workday_time.size(),Chrome 67.0.3396.99,,2018-07-20 11:33:18,2018-07-20 11:33:18,0.002s,PASSED
Statement - arrayLength = arrayLength,Chrome 67.0.3396.99,,2018-07-20 11:33:18,2018-07-20 11:33:18,0.008s,PASSED
Statement - workday_time = workday_time,Chrome 67.0.3396.99,,2018-07-20 11:33:18,2018-07-20 11:33:18,0.001s,PASSED
Statement - println(workday_time),Chrome 67.0.3396.99,,2018-07-20 11:33:18,2018-07-20 11:33:18,0.001s,PASSED
Statement - println(arrayLength),Chrome 67.0.3396.99,,2018-07-20 11:33:18,2018-07-20 11:33:18,0.001s,PASSED
closeBrowser,Chrome 67.0.3396.99,,2018-07-20 11:33:18,2018-07-20 11:33:19,0.711s,PASSED
,,,,,,
Test Cases/Login in to workday,Chrome 67.0.3396.99,,2018-07-20 11:33:19,2018-07-20 11:34:25,1m - 6.053s,PASSED
openBrowser,Chrome 67.0.3396.99,,2018-07-20 11:33:20,2018-07-20 11:33:47,27.605s,PASSED
navigateToUrl,Chrome 67.0.3396.99,,2018-07-20 11:33:47,2018-07-20 11:33:49,1.444s,PASSED
setText,Chrome 67.0.3396.99,,2018-07-20 11:33:49,2018-07-20 11:33:51,2.347s,PASSED
setText,Chrome 67.0.3396.99,,2018-07-20 11:33:51,2018-07-20 11:33:51,0.134s,PASSED
click,Chrome 67.0.3396.99,,2018-07-20 11:33:51,2018-07-20 11:33:51,0.172s,PASSED
click,Chrome 67.0.3396.99,,2018-07-20 11:33:51,2018-07-20 11:33:56,4.855s,PASSED
maximizeWindow,Chrome 67.0.3396.99,,2018-07-20 11:33:56,2018-07-20 11:33:57,1.132s,PASSED
click,Chrome 67.0.3396.99,,2018-07-20 11:33:57,2018-07-20 11:33:58,0.615s,PASSED
click,Chrome 67.0.3396.99,,2018-07-20 11:33:58,2018-07-20 11:33:59,1.114s,PASSED
focus,Chrome 67.0.3396.99,,2018-07-20 11:33:59,2018-07-20 11:34:00,1.113s,PASSED
delay,Chrome 67.0.3396.99,,2018-07-20 11:34:00,2018-07-20 11:34:01,1.019s,PASSED
click,Chrome 67.0.3396.99,,2018-07-20 11:34:01,2018-07-20 11:34:01,0.106s,PASSED
delay,Chrome 67.0.3396.99,,2018-07-20 11:34:01,2018-07-20 11:34:02,1.001s,PASSED
click,Chrome 67.0.3396.99,,2018-07-20 11:34:02,2018-07-20 11:34:02,0.100s,PASSED
waitForElementVisible,Chrome 67.0.3396.99,,2018-07-20 11:34:02,2018-07-20 11:34:03,1.081s,PASSED
Statement - driver = com.kms.katalon.core.webui.driver.DriverFactory.getWebDriver(),Chrome 67.0.3396.99,,2018-07-20 11:34:03,2018-07-20 11:34:03,0.000s,PASSED
"Statement - Table = driver.findElement(org.openqa.selenium.By.xpath(""//table[@class='mainTable']""))",Chrome 67.0.3396.99,,2018-07-20 11:34:03,2018-07-20 11:34:03,0.019s,PASSED
Statement - arrayLength = arrayLength,Chrome 67.0.3396.99,,2018-07-20 11:34:03,2018-07-20 11:34:03,0.001s,PASSED
"Statement - For ([i = 0, i < arrayLength, (i++)])",Chrome 67.0.3396.99,,2018-07-20 11:34:03,2018-07-20 11:34:05,2.081s,PASSED
Statement - timeTypeValue = workday_time[i][0].toString(),Chrome 67.0.3396.99,,2018-07-20 11:34:05,2018-07-20 11:34:05,0.005s,PASSED
click,Chrome 67.0.3396.99,,2018-07-20 11:34:05,2018-07-20 11:34:06,0.169s,PASSED
focus,Chrome 67.0.3396.99,,2018-07-20 11:34:06,2018-07-20 11:34:06,0.085s,PASSED
delay,Chrome 67.0.3396.99,,2018-07-20 11:34:06,2018-07-20 11:34:07,1.002s,PASSED
sendKeys,Chrome 67.0.3396.99,,2018-07-20 11:34:07,2018-07-20 11:34:07,0.485s,PASSED
sendKeys,Chrome 67.0.3396.99,,2018-07-20 11:34:07,2018-07-20 11:34:07,0.050s,PASSED
delay,Chrome 67.0.3396.99,,2018-07-20 11:34:07,2018-07-20 11:34:08,1.002s,PASSED
waitForElementPresent,Chrome 67.0.3396.99,,2018-07-20 11:34:08,2018-07-20 11:34:08,0.029s,PASSED
click,Chrome 67.0.3396.99,,2018-07-20 11:34:08,2018-07-20 11:34:08,0.085s,PASSED
sendKeys,Chrome 67.0.3396.99,,2018-07-20 11:34:08,2018-07-20 11:34:08,0.092s,PASSED
click,Chrome 67.0.3396.99,,2018-07-20 11:34:08,2018-07-20 11:34:09,0.129s,PASSED
sendKeys,Chrome 67.0.3396.99,,2018-07-20 11:34:09,2018-07-20 11:34:09,0.066s,PASSED
click,Chrome 67.0.3396.99,,2018-07-20 11:34:09,2018-07-20 11:34:09,0.101s,PASSED
sendKeys,Chrome 67.0.3396.99,,2018-07-20 11:34:09,2018-07-20 11:34:09,0.067s,PASSED
click,Chrome 67.0.3396.99,,2018-07-20 11:34:09,2018-07-20 11:34:09,0.085s,PASSED
sendKeys,Chrome 67.0.3396.99,,2018-07-20 11:34:09,2018-07-20 11:34:09,0.093s,PASSED
click,Chrome 67.0.3396.99,,2018-07-20 11:34:09,2018-07-20 11:34:09,0.090s,PASSED
sendKeys,Chrome 67.0.3396.99,,2018-07-20 11:34:09,2018-07-20 11:34:11,2.132s,PASSED
Statement - timeTypeValue = workday_time[i][0].toString(),Chrome 67.0.3396.99,,2018-07-20 11:34:11,2018-07-20 11:34:11,0.000s,PASSED
click,Chrome 67.0.3396.99,,2018-07-20 11:34:11,2018-07-20 11:34:11,0.098s,PASSED
focus,Chrome 67.0.3396.99,,2018-07-20 11:34:11,2018-07-20 11:34:11,0.072s,PASSED
delay,Chrome 67.0.3396.99,,2018-07-20 11:34:11,2018-07-20 11:34:12,1.001s,PASSED
sendKeys,Chrome 67.0.3396.99,,2018-07-20 11:34:12,2018-07-20 11:34:13,0.350s,PASSED
sendKeys,Chrome 67.0.3396.99,,2018-07-20 11:34:13,2018-07-20 11:34:13,0.045s,PASSED
delay,Chrome 67.0.3396.99,,2018-07-20 11:34:13,2018-07-20 11:34:14,1.001s,PASSED
waitForElementPresent,Chrome 67.0.3396.99,,2018-07-20 11:34:14,2018-07-20 11:34:14,0.022s,PASSED
click,Chrome 67.0.3396.99,,2018-07-20 11:34:14,2018-07-20 11:34:14,0.098s,PASSED
sendKeys,Chrome 67.0.3396.99,,2018-07-20 11:34:14,2018-07-20 11:34:14,0.078s,PASSED
click,Chrome 67.0.3396.99,,2018-07-20 11:34:14,2018-07-20 11:34:14,0.100s,PASSED
sendKeys,Chrome 67.0.3396.99,,2018-07-20 11:34:14,2018-07-20 11:34:14,0.070s,PASSED
click,Chrome 67.0.3396.99,,2018-07-20 11:34:14,2018-07-20 11:34:14,0.077s,PASSED
sendKeys,Chrome 67.0.3396.99,,2018-07-20 11:34:14,2018-07-20 11:34:14,0.048s,PASSED
click,Chrome 67.0.3396.99,,2018-07-20 11:34:14,2018-07-20 11:34:14,0.071s,PASSED
sendKeys,Chrome 67.0.3396.99,,2018-07-20 11:34:14,2018-07-20 11:34:14,0.046s,PASSED
click,Chrome 67.0.3396.99,,2018-07-20 11:34:14,2018-07-20 11:34:15,0.105s,PASSED
sendKeys,Chrome 67.0.3396.99,,2018-07-20 11:34:15,2018-07-20 11:34:17,2.174s,PASSED
Statement - timeTypeValue = workday_time[i][0].toString(),Chrome 67.0.3396.99,,2018-07-20 11:34:17,2018-07-20 11:34:17,0.000s,PASSED
click,Chrome 67.0.3396.99,,2018-07-20 11:34:17,2018-07-20 11:34:17,0.117s,PASSED
focus,Chrome 67.0.3396.99,,2018-07-20 11:34:17,2018-07-20 11:34:17,0.083s,PASSED
delay,Chrome 67.0.3396.99,,2018-07-20 11:34:17,2018-07-20 11:34:18,1.001s,PASSED
sendKeys,Chrome 67.0.3396.99,,2018-07-20 11:34:18,2018-07-20 11:34:18,0.234s,PASSED
sendKeys,Chrome 67.0.3396.99,,2018-07-20 11:34:18,2018-07-20 11:34:18,0.045s,PASSED
delay,Chrome 67.0.3396.99,,2018-07-20 11:34:18,2018-07-20 11:34:19,1.002s,PASSED
waitForElementPresent,Chrome 67.0.3396.99,,2018-07-20 11:34:19,2018-07-20 11:34:19,0.020s,PASSED
click,Chrome 67.0.3396.99,,2018-07-20 11:34:19,2018-07-20 11:34:19,0.089s,PASSED
sendKeys,Chrome 67.0.3396.99,,2018-07-20 11:34:19,2018-07-20 11:34:19,0.053s,PASSED
click,Chrome 67.0.3396.99,,2018-07-20 11:34:19,2018-07-20 11:34:19,0.091s,PASSED
sendKeys,Chrome 67.0.3396.99,,2018-07-20 11:34:19,2018-07-20 11:34:20,0.068s,PASSED
click,Chrome 67.0.3396.99,,2018-07-20 11:34:20,2018-07-20 11:34:20,0.110s,PASSED
sendKeys,Chrome 67.0.3396.99,,2018-07-20 11:34:20,2018-07-20 11:34:20,0.049s,PASSED
click,Chrome 67.0.3396.99,,2018-07-20 11:34:20,2018-07-20 11:34:20,0.069s,PASSED
sendKeys,Chrome 67.0.3396.99,,2018-07-20 11:34:20,2018-07-20 11:34:20,0.083s,PASSED
click,Chrome 67.0.3396.99,,2018-07-20 11:34:20,2018-07-20 11:34:20,0.102s,PASSED
sendKeys,Chrome 67.0.3396.99,,2018-07-20 11:34:20,2018-07-20 11:34:20,0.051s,PASSED
"Statement - rows_table = Table.findElements(org.openqa.selenium.By.tagName(""tr""))",Chrome 67.0.3396.99,,2018-07-20 11:34:20,2018-07-20 11:34:20,0.018s,PASSED
Statement - rowSize = rows_table.size() - 2,Chrome 67.0.3396.99,,2018-07-20 11:34:20,2018-07-20 11:34:20,0.000s,PASSED
delay,Chrome 67.0.3396.99,,2018-07-20 11:34:20,2018-07-20 11:34:22,2.000s,PASSED
Statement - If (rowSize > arrayLength),Chrome 67.0.3396.99,,2018-07-20 11:34:22,2018-07-20 11:34:22,0.177s,PASSED
click,Chrome 67.0.3396.99,,2018-07-20 11:34:22,2018-07-20 11:34:22,0.129s,PASSED
waitForElementPresent,Chrome 67.0.3396.99,,2018-07-20 11:34:22,2018-07-20 11:34:24,2.167s,PASSED
closeBrowser,Chrome 67.0.3396.99,,2018-07-20 11:34:24,2018-07-20 11:34:25,0.729s,PASSED
