Suite/Test/Step Name,Browser,Description,Start time,End time,Duration,Status
Timesheet,Chrome 67.0.3396.99,,2018-07-31 09:35:48,2018-07-31 09:37:24,1m - 35.082s,ERROR
,,,,,,
Test Cases/Login to Navision,Chrome 67.0.3396.99,,2018-07-31 09:35:49,2018-07-31 09:36:33,44.063s,PASSED
openBrowser,Chrome 67.0.3396.99,,2018-07-31 09:35:49,2018-07-31 09:36:28,39.204s,PASSED
waitForElementPresent,Chrome 67.0.3396.99,,2018-07-31 09:36:28,2018-07-31 09:36:28,0.087s,PASSED
navigateToUrl,Chrome 67.0.3396.99,,2018-07-31 09:36:28,2018-07-31 09:36:29,0.214s,PASSED
waitForElementPresent,Chrome 67.0.3396.99,,2018-07-31 09:36:29,2018-07-31 09:36:29,0.024s,PASSED
maximizeWindow,Chrome 67.0.3396.99,,2018-07-31 09:36:29,2018-07-31 09:36:30,1.147s,PASSED
click,Chrome 67.0.3396.99,,2018-07-31 09:36:30,2018-07-31 09:36:30,0.088s,PASSED
click,Chrome 67.0.3396.99,,2018-07-31 09:36:30,2018-07-31 09:36:31,0.595s,PASSED
waitForElementPresent,Chrome 67.0.3396.99,,2018-07-31 09:36:31,2018-07-31 09:36:31,0.539s,PASSED
switchToFrame,Chrome 67.0.3396.99,,2018-07-31 09:36:31,2018-07-31 09:36:31,0.052s,PASSED
Statement - driver = com.kms.katalon.core.webui.driver.DriverFactory.getWebDriver(),Chrome 67.0.3396.99,To locate table,2018-07-31 09:36:31,2018-07-31 09:36:31,0.007s,PASSED
"Statement - Table = driver.findElement(org.openqa.selenium.By.xpath(""//table[(@summary = 'Time Sheet')]//tbody""))",Chrome 67.0.3396.99,,2018-07-31 09:36:31,2018-07-31 09:36:31,0.039s,PASSED
"Statement - rows_table = Table.findElements(org.openqa.selenium.By.tagName(""tr""))",Chrome 67.0.3396.99,To locate rows of table it will Capture all the rows available in the table,2018-07-31 09:36:31,2018-07-31 09:36:31,0.022s,PASSED
Statement - rows_count = rows_table.size() - 1,Chrome 67.0.3396.99,To calculate no of rows In table,2018-07-31 09:36:31,2018-07-31 09:36:31,0.003s,PASSED
"Statement - println(""No. of rows: "" + rows_count)",Chrome 67.0.3396.99,,2018-07-31 09:36:31,2018-07-31 09:36:31,0.003s,PASSED
Statement - workday_time = <not implemented yet for class: org.codehaus.groovy.ast.expr.EmptyExpression>,Chrome 67.0.3396.99,,2018-07-31 09:36:31,2018-07-31 09:36:31,0.001s,PASSED
Statement - workday_time = [],Chrome 67.0.3396.99,,2018-07-31 09:36:31,2018-07-31 09:36:31,0.001s,PASSED
"Statement - For ([i = 0, i < rows_count, (i++)])",Chrome 67.0.3396.99,Loop will execute for all the rows of the table,2018-07-31 09:36:31,2018-07-31 09:36:32,0.823s,PASSED
Statement - arrayLength = workday_time.size(),Chrome 67.0.3396.99,,2018-07-31 09:36:32,2018-07-31 09:36:32,0.001s,PASSED
Statement - arrayLength = arrayLength,Chrome 67.0.3396.99,,2018-07-31 09:36:32,2018-07-31 09:36:32,0.008s,PASSED
Statement - workday_time = workday_time,Chrome 67.0.3396.99,,2018-07-31 09:36:32,2018-07-31 09:36:32,0.001s,PASSED
Statement - println(workday_time),Chrome 67.0.3396.99,,2018-07-31 09:36:32,2018-07-31 09:36:32,0.001s,PASSED
Statement - println(arrayLength),Chrome 67.0.3396.99,,2018-07-31 09:36:32,2018-07-31 09:36:32,0.001s,PASSED
closeBrowser,Chrome 67.0.3396.99,,2018-07-31 09:36:32,2018-07-31 09:36:33,0.782s,PASSED
,,,,,,
Test Cases/Login in to workday,Chrome 67.0.3396.99,,2018-07-31 09:36:33,2018-07-31 09:37:23,49.899s,ERROR
openBrowser,Chrome 67.0.3396.99,,2018-07-31 09:36:33,2018-07-31 09:37:00,26.989s,PASSED
navigateToUrl,Chrome 67.0.3396.99,,2018-07-31 09:37:00,2018-07-31 09:37:01,1.165s,PASSED
setText,Chrome 67.0.3396.99,,2018-07-31 09:37:01,2018-07-31 09:37:04,2.402s,PASSED
setText,Chrome 67.0.3396.99,,2018-07-31 09:37:04,2018-07-31 09:37:04,0.128s,PASSED
click,Chrome 67.0.3396.99,,2018-07-31 09:37:04,2018-07-31 09:37:04,0.081s,PASSED
click,Chrome 67.0.3396.99,,2018-07-31 09:37:04,2018-07-31 09:37:09,4.661s,PASSED
maximizeWindow,Chrome 67.0.3396.99,,2018-07-31 09:37:09,2018-07-31 09:37:10,1.141s,PASSED
click,Chrome 67.0.3396.99,,2018-07-31 09:37:10,2018-07-31 09:37:10,0.591s,PASSED
click,Chrome 67.0.3396.99,,2018-07-31 09:37:10,2018-07-31 09:37:12,1.103s,PASSED
focus,Chrome 67.0.3396.99,,2018-07-31 09:37:12,2018-07-31 09:37:13,1.194s,PASSED
delay,Chrome 67.0.3396.99,,2018-07-31 09:37:13,2018-07-31 09:37:14,1.020s,PASSED
click,Chrome 67.0.3396.99,,2018-07-31 09:37:14,2018-07-31 09:37:14,0.073s,PASSED
delay,Chrome 67.0.3396.99,,2018-07-31 09:37:14,2018-07-31 09:37:15,1.000s,PASSED
click,Chrome 67.0.3396.99,,2018-07-31 09:37:15,2018-07-31 09:37:15,0.084s,PASSED
waitForElementVisible,Chrome 67.0.3396.99,,2018-07-31 09:37:15,2018-07-31 09:37:16,1.133s,PASSED
Statement - rowSize_before = getTableRowCount(),Chrome 67.0.3396.99,,2018-07-31 09:37:16,2018-07-31 09:37:16,0.000s,PASSED
Statement - driver = com.kms.katalon.core.webui.driver.DriverFactory.getWebDriver(),Chrome 67.0.3396.99,,2018-07-31 09:37:16,2018-07-31 09:37:16,0.000s,PASSED
"Statement - Table = driver.findElement(org.openqa.selenium.By.xpath(""//table[@class='mainTable']""))",Chrome 67.0.3396.99,,2018-07-31 09:37:16,2018-07-31 09:37:16,0.016s,PASSED
"Statement - rows_table = Table.findElements(org.openqa.selenium.By.tagName(""tr""))",Chrome 67.0.3396.99,,2018-07-31 09:37:16,2018-07-31 09:37:16,0.015s,PASSED
Statement - return (rows_table.size() - 2),Chrome 67.0.3396.99,,2018-07-31 09:37:16,2018-07-31 09:37:16,0.001s,PASSED
Statement - arrayLength = arrayLength,Chrome 67.0.3396.99,,2018-07-31 09:37:16,2018-07-31 09:37:16,0.000s,PASSED
Statement - rows_size_refined = getTableRowCount(),Chrome 67.0.3396.99,,2018-07-31 09:37:16,2018-07-31 09:37:16,0.000s,PASSED
Statement - driver = com.kms.katalon.core.webui.driver.DriverFactory.getWebDriver(),Chrome 67.0.3396.99,,2018-07-31 09:37:16,2018-07-31 09:37:16,0.001s,PASSED
"Statement - Table = driver.findElement(org.openqa.selenium.By.xpath(""//table[@class='mainTable']""))",Chrome 67.0.3396.99,,2018-07-31 09:37:16,2018-07-31 09:37:16,0.011s,PASSED
"Statement - rows_table = Table.findElements(org.openqa.selenium.By.tagName(""tr""))",Chrome 67.0.3396.99,,2018-07-31 09:37:16,2018-07-31 09:37:16,0.010s,PASSED
Statement - return (rows_table.size() - 2),Chrome 67.0.3396.99,,2018-07-31 09:37:16,2018-07-31 09:37:16,0.001s,PASSED
Statement - existing_tasks = <not implemented yet for class: org.codehaus.groovy.ast.expr.EmptyExpression>,Chrome 67.0.3396.99,,2018-07-31 09:37:16,2018-07-31 09:37:16,0.000s,PASSED
Statement - existing_tasks = [],Chrome 67.0.3396.99,,2018-07-31 09:37:16,2018-07-31 09:37:16,0.000s,PASSED
"Statement - For ([x = 1, x <= rows_size_refined, (x++)])",Chrome 67.0.3396.99,,2018-07-31 09:37:16,2018-07-31 09:37:16,0.132s,PASSED
Statement - println(existing_tasks),Chrome 67.0.3396.99,,2018-07-31 09:37:16,2018-07-31 09:37:16,0.001s,PASSED
"Statement - For ([i = 0, i < arrayLength, (i++)])",Chrome 67.0.3396.99,,2018-07-31 09:37:16,2018-07-31 09:37:17,1.003s,PASSED
Statement - timeTypeValue = workday_time[i][0].toString(),Chrome 67.0.3396.99,,2018-07-31 09:37:17,2018-07-31 09:37:17,0.004s,PASSED
"Statement - result = verifyTaskIsPresent(timeTypeValue, rows, existing_tasks)",Chrome 67.0.3396.99,,2018-07-31 09:37:17,2018-07-31 09:37:17,0.000s,PASSED
"Statement - For ([x = 0, x < rows_size, (x++)])",Chrome 67.0.3396.99,,2018-07-31 09:37:17,2018-07-31 09:37:17,0.001s,PASSED
"Statement - tok = new java.util.StringTokenizer(timeType_navision.toLowerCase(),  )",Chrome 67.0.3396.99,,2018-07-31 09:37:17,2018-07-31 09:37:17,0.003s,PASSED
Statement - result = true,Chrome 67.0.3396.99,,2018-07-31 09:37:17,2018-07-31 09:37:17,0.000s,PASSED
Statement - While (tok.hasMoreTokens() && result == true),Chrome 67.0.3396.99,,2018-07-31 09:37:17,2018-07-31 09:37:17,0.004s,PASSED
Statement - return result,Chrome 67.0.3396.99,,2018-07-31 09:37:17,2018-07-31 09:37:17,0.001s,PASSED
"Statement - tok = new java.util.StringTokenizer(timeType_navision.toLowerCase(),  )",Chrome 67.0.3396.99,,2018-07-31 09:37:17,2018-07-31 09:37:17,0.000s,PASSED
Statement - result = true,Chrome 67.0.3396.99,,2018-07-31 09:37:17,2018-07-31 09:37:17,0.000s,PASSED
Statement - While (tok.hasMoreTokens() && result == true),Chrome 67.0.3396.99,,2018-07-31 09:37:17,2018-07-31 09:37:17,0.002s,PASSED
Statement - return result,Chrome 67.0.3396.99,,2018-07-31 09:37:17,2018-07-31 09:37:17,0.000s,PASSED
Statement - return 0,Chrome 67.0.3396.99,,2018-07-31 09:37:17,2018-07-31 09:37:17,0.001s,PASSED
Statement - println(result),Chrome 67.0.3396.99,,2018-07-31 09:37:17,2018-07-31 09:37:17,0.000s,PASSED
Statement - If (result != 0),Chrome 67.0.3396.99,,2018-07-31 09:37:17,2018-07-31 09:37:17,0.001s,PASSED
click,Chrome 67.0.3396.99,,2018-07-31 09:37:17,2018-07-31 09:37:17,0.092s,PASSED
delay,Chrome 67.0.3396.99,,2018-07-31 09:37:17,2018-07-31 09:37:18,1.002s,PASSED
click,Chrome 67.0.3396.99,,2018-07-31 09:37:18,2018-07-31 09:37:19,0.134s,PASSED
focus,Chrome 67.0.3396.99,,2018-07-31 09:37:19,2018-07-31 09:37:19,0.088s,PASSED
delay,Chrome 67.0.3396.99,,2018-07-31 09:37:19,2018-07-31 09:37:20,1.001s,PASSED
sendKeys,Chrome 67.0.3396.99,,2018-07-31 09:37:20,2018-07-31 09:37:20,0.389s,PASSED
sendKeys,Chrome 67.0.3396.99,,2018-07-31 09:37:20,2018-07-31 09:37:20,0.049s,PASSED
delay,Chrome 67.0.3396.99,,2018-07-31 09:37:20,2018-07-31 09:37:21,1.000s,PASSED
waitForElementPresent,Chrome 67.0.3396.99,,2018-07-31 09:37:21,2018-07-31 09:37:21,0.026s,PASSED
"Statement - setTableValues(4, i, 1)",Chrome 67.0.3396.99,Monday column,2018-07-31 09:37:21,2018-07-31 09:37:21,0.001s,PASSED
click,Chrome 67.0.3396.99,,2018-07-31 09:37:21,2018-07-31 09:37:21,0.082s,PASSED
"Statement - If (!(workday_time[i][j].equals("""")))",Chrome 67.0.3396.99,,2018-07-31 09:37:21,2018-07-31 09:37:21,0.125s,PASSED
"Statement - setTableValues(5, i, 2)",Chrome 67.0.3396.99,Tuesday column,2018-07-31 09:37:21,2018-07-31 09:37:21,0.001s,PASSED
click,Chrome 67.0.3396.99,,2018-07-31 09:37:21,2018-07-31 09:37:21,0.109s,PASSED
"Statement - If (!(workday_time[i][j].equals("""")))",Chrome 67.0.3396.99,,2018-07-31 09:37:21,2018-07-31 09:37:21,0.000s,PASSED
"Statement - setTableValues(6, i, 3)",Chrome 67.0.3396.99,Wednesday column,2018-07-31 09:37:21,2018-07-31 09:37:21,0.000s,PASSED
click,Chrome 67.0.3396.99,,2018-07-31 09:37:21,2018-07-31 09:37:21,0.074s,PASSED
"Statement - If (!(workday_time[i][j].equals("""")))",Chrome 67.0.3396.99,,2018-07-31 09:37:21,2018-07-31 09:37:21,0.000s,PASSED
"Statement - setTableValues(7, i, 4)",Chrome 67.0.3396.99,Thursday column,2018-07-31 09:37:21,2018-07-31 09:37:21,0.001s,PASSED
click,Chrome 67.0.3396.99,,2018-07-31 09:37:21,2018-07-31 09:37:22,0.081s,PASSED
"Statement - If (!(workday_time[i][j].equals("""")))",Chrome 67.0.3396.99,,2018-07-31 09:37:22,2018-07-31 09:37:22,0.001s,PASSED
"Statement - setTableValues(8, i, 5)",Chrome 67.0.3396.99,Friday column,2018-07-31 09:37:22,2018-07-31 09:37:22,0.000s,PASSED
click,Chrome 67.0.3396.99,,2018-07-31 09:37:22,2018-07-31 09:37:22,0.083s,PASSED
"Statement - If (!(workday_time[i][j].equals("""")))",Chrome 67.0.3396.99,,2018-07-31 09:37:22,2018-07-31 09:37:23,1.003s,PASSED
Statement - timeTypeValue = workday_time[i][0].toString(),Chrome 67.0.3396.99,,2018-07-31 09:37:23,2018-07-31 09:37:23,0.000s,PASSED
"Statement - result = verifyTaskIsPresent(timeTypeValue, rows, existing_tasks)",Chrome 67.0.3396.99,,2018-07-31 09:37:23,2018-07-31 09:37:23,0.000s,PASSED
"Statement - For ([x = 0, x < rows_size, (x++)])",Chrome 67.0.3396.99,,2018-07-31 09:37:23,2018-07-31 09:37:23,0.001s,PASSED
"Statement - tok = new java.util.StringTokenizer(timeType_navision.toLowerCase(),  )",Chrome 67.0.3396.99,,2018-07-31 09:37:23,2018-07-31 09:37:23,0.000s,PASSED
Statement - result = true,Chrome 67.0.3396.99,,2018-07-31 09:37:23,2018-07-31 09:37:23,0.001s,PASSED
Statement - While (tok.hasMoreTokens() && result == true),Chrome 67.0.3396.99,,2018-07-31 09:37:23,2018-07-31 09:37:23,0.003s,PASSED
Statement - return result,Chrome 67.0.3396.99,,2018-07-31 09:37:23,2018-07-31 09:37:23,0.000s,PASSED
Statement - driver = com.kms.katalon.core.webui.driver.DriverFactory.getWebDriver(),Chrome 67.0.3396.99,,2018-07-31 09:37:23,2018-07-31 09:37:23,0.000s,PASSED
"Statement - Table = driver.findElement(org.openqa.selenium.By.xpath(""//table[@class='mainTable']""))",Chrome 67.0.3396.99,,2018-07-31 09:37:23,2018-07-31 09:37:23,0.012s,PASSED
"Statement - rows_table = Table.findElements(org.openqa.selenium.By.tagName(""tr""))",Chrome 67.0.3396.99,,2018-07-31 09:37:23,2018-07-31 09:37:23,0.010s,PASSED
Statement - return (rows_table.size() - 2),Chrome 67.0.3396.99,,2018-07-31 09:37:23,2018-07-31 09:37:23,0.001s,PASSED
Statement - driver = com.kms.katalon.core.webui.driver.DriverFactory.getWebDriver(),Chrome 67.0.3396.99,,2018-07-31 09:37:23,2018-07-31 09:37:23,0.000s,PASSED
"Statement - Table = driver.findElement(org.openqa.selenium.By.xpath(""//table[@class='mainTable']""))",Chrome 67.0.3396.99,,2018-07-31 09:37:23,2018-07-31 09:37:23,0.014s,PASSED
"Statement - rows_table = Table.findElements(org.openqa.selenium.By.tagName(""tr""))",Chrome 67.0.3396.99,,2018-07-31 09:37:23,2018-07-31 09:37:23,0.010s,PASSED
Statement - return (rows_table.size() - 2),Chrome 67.0.3396.99,,2018-07-31 09:37:23,2018-07-31 09:37:23,0.001s,PASSED
Statement - println(result),Chrome 67.0.3396.99,,2018-07-31 09:37:23,2018-07-31 09:37:23,0.000s,PASSED
Statement - If (result != 0),Chrome 67.0.3396.99,,2018-07-31 09:37:23,2018-07-31 09:37:23,0.000s,PASSED
"Statement - setTableValues(4, i, 1)",Chrome 67.0.3396.99,Monday column,2018-07-31 09:37:23,2018-07-31 09:37:23,0.001s,PASSED
click,Chrome 67.0.3396.99,,2018-07-31 09:37:23,2018-07-31 09:37:23,0.059s,PASSED
"Statement - If (!(workday_time[i][j].equals("""")))",Chrome 67.0.3396.99,,2018-07-31 09:37:23,2018-07-31 09:37:23,0.001s,PASSED
