Suite/Test/Step Name,Browser,Description,Start time,End time,Duration,Status
Timesheet,Chrome 67.0.3396.99,,2018-07-26 14:42:20,2018-07-26 14:43:42,1m - 22.370s,ERROR
,,,,,,
Test Cases/Login to Navision,Chrome 67.0.3396.99,,2018-07-26 14:42:20,2018-07-26 14:42:57,36.586s,PASSED
openBrowser,Chrome 67.0.3396.99,,2018-07-26 14:42:20,2018-07-26 14:42:52,31.779s,PASSED
waitForElementPresent,Chrome 67.0.3396.99,,2018-07-26 14:42:52,2018-07-26 14:42:52,0.081s,PASSED
navigateToUrl,Chrome 67.0.3396.99,,2018-07-26 14:42:52,2018-07-26 14:42:53,0.271s,PASSED
waitForElementPresent,Chrome 67.0.3396.99,,2018-07-26 14:42:53,2018-07-26 14:42:53,0.025s,PASSED
maximizeWindow,Chrome 67.0.3396.99,,2018-07-26 14:42:53,2018-07-26 14:42:54,1.139s,PASSED
click,Chrome 67.0.3396.99,,2018-07-26 14:42:54,2018-07-26 14:42:54,0.086s,PASSED
click,Chrome 67.0.3396.99,,2018-07-26 14:42:54,2018-07-26 14:42:54,0.602s,PASSED
waitForElementPresent,Chrome 67.0.3396.99,,2018-07-26 14:42:54,2018-07-26 14:42:55,0.536s,PASSED
switchToFrame,Chrome 67.0.3396.99,,2018-07-26 14:42:55,2018-07-26 14:42:55,0.054s,PASSED
Statement - driver = com.kms.katalon.core.webui.driver.DriverFactory.getWebDriver(),Chrome 67.0.3396.99,To locate table,2018-07-26 14:42:55,2018-07-26 14:42:55,0.009s,PASSED
"Statement - Table = driver.findElement(org.openqa.selenium.By.xpath(""//table[(@summary = 'Time Sheet')]//tbody""))",Chrome 67.0.3396.99,,2018-07-26 14:42:55,2018-07-26 14:42:55,0.035s,PASSED
"Statement - rows_table = Table.findElements(org.openqa.selenium.By.tagName(""tr""))",Chrome 67.0.3396.99,To locate rows of table it will Capture all the rows available in the table,2018-07-26 14:42:55,2018-07-26 14:42:55,0.021s,PASSED
Statement - rows_count = rows_table.size() - 1,Chrome 67.0.3396.99,To calculate no of rows In table,2018-07-26 14:42:55,2018-07-26 14:42:55,0.003s,PASSED
"Statement - println(""No. of rows: "" + rows_count)",Chrome 67.0.3396.99,,2018-07-26 14:42:55,2018-07-26 14:42:55,0.003s,PASSED
Statement - workday_time = <not implemented yet for class: org.codehaus.groovy.ast.expr.EmptyExpression>,Chrome 67.0.3396.99,,2018-07-26 14:42:55,2018-07-26 14:42:55,0.001s,PASSED
Statement - workday_time = [],Chrome 67.0.3396.99,,2018-07-26 14:42:55,2018-07-26 14:42:55,0.001s,PASSED
"Statement - For ([i = 0, i < rows_count, (i++)])",Chrome 67.0.3396.99,Loop will execute for all the rows of the table,2018-07-26 14:42:55,2018-07-26 14:42:56,0.808s,PASSED
Statement - arrayLength = workday_time.size(),Chrome 67.0.3396.99,,2018-07-26 14:42:56,2018-07-26 14:42:56,0.002s,PASSED
Statement - arrayLength = arrayLength,Chrome 67.0.3396.99,,2018-07-26 14:42:56,2018-07-26 14:42:56,0.008s,PASSED
Statement - workday_time = workday_time,Chrome 67.0.3396.99,,2018-07-26 14:42:56,2018-07-26 14:42:56,0.001s,PASSED
Statement - println(workday_time),Chrome 67.0.3396.99,,2018-07-26 14:42:56,2018-07-26 14:42:56,0.001s,PASSED
Statement - println(arrayLength),Chrome 67.0.3396.99,,2018-07-26 14:42:56,2018-07-26 14:42:56,0.001s,PASSED
closeBrowser,Chrome 67.0.3396.99,,2018-07-26 14:42:56,2018-07-26 14:42:57,0.746s,PASSED
,,,,,,
Test Cases/Login in to workday,Chrome 67.0.3396.99,,2018-07-26 14:42:57,2018-07-26 14:43:41,44.731s,ERROR
openBrowser,Chrome 67.0.3396.99,,2018-07-26 14:42:57,2018-07-26 14:43:24,26.593s,PASSED
navigateToUrl,Chrome 67.0.3396.99,,2018-07-26 14:43:24,2018-07-26 14:43:25,1.161s,PASSED
setText,Chrome 67.0.3396.99,,2018-07-26 14:43:25,2018-07-26 14:43:27,1.949s,PASSED
setText,Chrome 67.0.3396.99,,2018-07-26 14:43:27,2018-07-26 14:43:27,0.134s,PASSED
click,Chrome 67.0.3396.99,,2018-07-26 14:43:27,2018-07-26 14:43:27,0.081s,PASSED
click,Chrome 67.0.3396.99,,2018-07-26 14:43:27,2018-07-26 14:43:32,4.839s,PASSED
maximizeWindow,Chrome 67.0.3396.99,,2018-07-26 14:43:32,2018-07-26 14:43:33,1.138s,PASSED
click,Chrome 67.0.3396.99,,2018-07-26 14:43:33,2018-07-26 14:43:34,0.612s,PASSED
click,Chrome 67.0.3396.99,,2018-07-26 14:43:34,2018-07-26 14:43:35,1.106s,PASSED
focus,Chrome 67.0.3396.99,,2018-07-26 14:43:35,2018-07-26 14:43:36,1.261s,PASSED
delay,Chrome 67.0.3396.99,,2018-07-26 14:43:36,2018-07-26 14:43:37,1.017s,PASSED
click,Chrome 67.0.3396.99,,2018-07-26 14:43:37,2018-07-26 14:43:37,0.074s,PASSED
delay,Chrome 67.0.3396.99,,2018-07-26 14:43:37,2018-07-26 14:43:38,1.002s,PASSED
click,Chrome 67.0.3396.99,,2018-07-26 14:43:38,2018-07-26 14:43:38,0.084s,PASSED
waitForElementVisible,Chrome 67.0.3396.99,,2018-07-26 14:43:38,2018-07-26 14:43:39,1.068s,PASSED
Statement - rowSize_before = getTableRowCount(),Chrome 67.0.3396.99,,2018-07-26 14:43:39,2018-07-26 14:43:39,0.000s,PASSED
Statement - driver = com.kms.katalon.core.webui.driver.DriverFactory.getWebDriver(),Chrome 67.0.3396.99,,2018-07-26 14:43:39,2018-07-26 14:43:39,0.000s,PASSED
"Statement - Table = driver.findElement(org.openqa.selenium.By.xpath(""//table[@class='mainTable']""))",Chrome 67.0.3396.99,,2018-07-26 14:43:39,2018-07-26 14:43:39,0.017s,PASSED
"Statement - rows_table = Table.findElements(org.openqa.selenium.By.tagName(""tr""))",Chrome 67.0.3396.99,,2018-07-26 14:43:39,2018-07-26 14:43:39,0.017s,PASSED
Statement - return rows_table.size(),Chrome 67.0.3396.99,,2018-07-26 14:43:39,2018-07-26 14:43:39,0.000s,PASSED
Statement - arrayLength = arrayLength,Chrome 67.0.3396.99,,2018-07-26 14:43:39,2018-07-26 14:43:39,0.000s,PASSED
"Statement - For ([i = 0, i < arrayLength, (i++)])",Chrome 67.0.3396.99,,2018-07-26 14:43:39,2018-07-26 14:43:41,2.083s,PASSED
Statement - timeTypeValue = workday_time[i][0].toString(),Chrome 67.0.3396.99,,2018-07-26 14:43:41,2018-07-26 14:43:41,0.004s,PASSED
Statement - If (verifyTaskIsPresent(timeTypeValue) != 0),Chrome 67.0.3396.99,,2018-07-26 14:43:41,2018-07-26 14:43:41,0.000s,PASSED
Statement - rows_size = getTableRowCount() - 2,Chrome 67.0.3396.99,,2018-07-26 14:43:41,2018-07-26 14:43:41,0.000s,PASSED
Statement - driver = com.kms.katalon.core.webui.driver.DriverFactory.getWebDriver(),Chrome 67.0.3396.99,,2018-07-26 14:43:41,2018-07-26 14:43:41,0.001s,PASSED
"Statement - Table = driver.findElement(org.openqa.selenium.By.xpath(""//table[@class='mainTable']""))",Chrome 67.0.3396.99,,2018-07-26 14:43:41,2018-07-26 14:43:41,0.009s,PASSED
"Statement - rows_table = Table.findElements(org.openqa.selenium.By.tagName(""tr""))",Chrome 67.0.3396.99,,2018-07-26 14:43:41,2018-07-26 14:43:41,0.009s,PASSED
Statement - return rows_table.size(),Chrome 67.0.3396.99,,2018-07-26 14:43:41,2018-07-26 14:43:41,0.001s,PASSED
"Statement - For ([x = 1, x <= rows_size, (x++)])",Chrome 67.0.3396.99,,2018-07-26 14:43:41,2018-07-26 14:43:41,0.071s,PASSED
"Statement - tok = new java.util.StringTokenizer(timeType_navision.toLowerCase(),  )",Chrome 67.0.3396.99,,2018-07-26 14:43:41,2018-07-26 14:43:41,0.004s,PASSED
Statement - While (tok.hasMoreTokens()),Chrome 67.0.3396.99,,2018-07-26 14:43:41,2018-07-26 14:43:41,0.002s,PASSED
