Suite/Test/Step Name,Browser,Description,Start time,End time,Duration,Status
Timesheet,Chrome 67.0.3396.99,,2018-07-06 14:31:38,2018-07-06 14:33:00,1m - 21.332s,ERROR
,,,,,,
Test Cases/Login to Navision,Chrome 67.0.3396.99,,2018-07-06 14:31:39,2018-07-06 14:32:16,37.480s,ERROR
openBrowser,Chrome 67.0.3396.99,,2018-07-06 14:31:39,2018-07-06 14:32:11,31.841s,PASSED
waitForElementPresent,Chrome 67.0.3396.99,,2018-07-06 14:32:11,2018-07-06 14:32:11,0.083s,PASSED
navigateToUrl,Chrome 67.0.3396.99,,2018-07-06 14:32:11,2018-07-06 14:32:11,0.229s,PASSED
waitForElementPresent,Chrome 67.0.3396.99,,2018-07-06 14:32:11,2018-07-06 14:32:11,0.023s,PASSED
maximizeWindow,Chrome 67.0.3396.99,,2018-07-06 14:32:11,2018-07-06 14:32:12,1.142s,PASSED
click,Chrome 67.0.3396.99,,2018-07-06 14:32:12,2018-07-06 14:32:12,0.086s,PASSED
click,Chrome 67.0.3396.99,,2018-07-06 14:32:12,2018-07-06 14:32:13,0.601s,PASSED
waitForElementPresent,Chrome 67.0.3396.99,,2018-07-06 14:32:13,2018-07-06 14:32:14,0.544s,PASSED
switchToFrame,Chrome 67.0.3396.99,,2018-07-06 14:32:14,2018-07-06 14:32:14,0.059s,PASSED
Statement - driver = com.kms.katalon.core.webui.driver.DriverFactory.getWebDriver(),Chrome 67.0.3396.99,To locate table,2018-07-06 14:32:14,2018-07-06 14:32:14,0.010s,PASSED
"Statement - Table = driver.findElement(org.openqa.selenium.By.xpath(""//table[(@summary = 'Time Sheet')]//tbody""))",Chrome 67.0.3396.99,,2018-07-06 14:32:14,2018-07-06 14:32:14,0.043s,PASSED
"Statement - rows_table = Table.findElements(org.openqa.selenium.By.tagName(""tr""))",Chrome 67.0.3396.99,To locate rows of table it will Capture all the rows available in the table,2018-07-06 14:32:14,2018-07-06 14:32:14,0.026s,PASSED
Statement - rows_count = rows_table.size() - 1,Chrome 67.0.3396.99,To calculate no of rows In table,2018-07-06 14:32:14,2018-07-06 14:32:14,0.003s,PASSED
"Statement - println(""No. of rows: "" + rows_count)",Chrome 67.0.3396.99,,2018-07-06 14:32:14,2018-07-06 14:32:14,0.004s,PASSED
Statement - workday_time = <not implemented yet for class: org.codehaus.groovy.ast.expr.EmptyExpression>,Chrome 67.0.3396.99,,2018-07-06 14:32:14,2018-07-06 14:32:14,0.001s,PASSED
Statement - workday_time = [],Chrome 67.0.3396.99,,2018-07-06 14:32:14,2018-07-06 14:32:14,0.000s,PASSED
"Statement - For ([i = 0, i < rows_count, (i++)])",Chrome 67.0.3396.99,Loop will execute for all the rows of the table,2018-07-06 14:32:14,2018-07-06 14:32:16,2.305s,PASSED
Statement - arrayLength = workday_time.size(),Chrome 67.0.3396.99,,2018-07-06 14:32:16,2018-07-06 14:32:16,0.014s,PASSED
,,,,,,
Test Cases/Login in to workday,Chrome 67.0.3396.99,,2018-07-06 14:32:16,2018-07-06 14:32:59,42.779s,ERROR
openBrowser,Chrome 67.0.3396.99,,2018-07-06 14:32:16,2018-07-06 14:32:44,27.565s,PASSED
navigateToUrl,Chrome 67.0.3396.99,,2018-07-06 14:32:44,2018-07-06 14:32:45,1.155s,PASSED
setText,Chrome 67.0.3396.99,,2018-07-06 14:32:45,2018-07-06 14:32:48,2.383s,PASSED
setText,Chrome 67.0.3396.99,,2018-07-06 14:32:48,2018-07-06 14:32:48,0.122s,PASSED
click,Chrome 67.0.3396.99,,2018-07-06 14:32:48,2018-07-06 14:32:48,0.094s,PASSED
click,Chrome 67.0.3396.99,,2018-07-06 14:32:48,2018-07-06 14:32:53,5.490s,PASSED
maximizeWindow,Chrome 67.0.3396.99,,2018-07-06 14:32:53,2018-07-06 14:32:54,1.134s,PASSED
click,Chrome 67.0.3396.99,,2018-07-06 14:32:54,2018-07-06 14:32:55,0.245s,PASSED
click,Chrome 67.0.3396.99,,2018-07-06 14:32:55,2018-07-06 14:32:56,1.606s,PASSED
click,Chrome 67.0.3396.99,,2018-07-06 14:32:56,2018-07-06 14:32:57,1.108s,PASSED
click,Chrome 67.0.3396.99,,2018-07-06 14:32:57,2018-07-06 14:32:58,0.149s,PASSED
waitForElementVisible,Chrome 67.0.3396.99,,2018-07-06 14:32:58,2018-07-06 14:32:58,0.062s,PASSED
click,Chrome 67.0.3396.99,,2018-07-06 14:32:58,2018-07-06 14:32:58,0.048s,PASSED
waitForElementVisible,Chrome 67.0.3396.99,,2018-07-06 14:32:58,2018-07-06 14:32:58,0.031s,PASSED
sendKeys,Chrome 67.0.3396.99,,2018-07-06 14:32:58,2018-07-06 14:32:58,0.076s,PASSED
waitForElementVisible,Chrome 67.0.3396.99,,2018-07-06 14:32:58,2018-07-06 14:32:59,1.060s,PASSED
Statement - driver = com.kms.katalon.core.webui.driver.DriverFactory.getWebDriver(),Chrome 67.0.3396.99,,2018-07-06 14:32:59,2018-07-06 14:32:59,0.001s,PASSED
"Statement - Table = driver.findElement(org.openqa.selenium.By.xpath(""//table[@class='mainTable']""))",Chrome 67.0.3396.99,,2018-07-06 14:32:59,2018-07-06 14:32:59,0.017s,PASSED
"Statement - rows_table = Table.findElements(org.openqa.selenium.By.tagName(""tr""))",Chrome 67.0.3396.99,,2018-07-06 14:32:59,2018-07-06 14:32:59,0.015s,PASSED
Statement - println(arrayLength),Chrome 67.0.3396.99,,2018-07-06 14:32:59,2018-07-06 14:32:59,0.001s,PASSED
