Suite/Test/Step Name,Browser,Description,Start time,End time,Duration,Status
Timesheet,Chrome 67.0.3396.99,,2018-07-12 09:25:50,2018-07-12 09:28:09,2m - 19.023s,PASSED
,,,,,,
Test Cases/Login to Navision,Chrome 67.0.3396.99,,2018-07-12 09:25:51,2018-07-12 09:26:29,38.388s,PASSED
openBrowser,Chrome 67.0.3396.99,,2018-07-12 09:25:51,2018-07-12 09:26:25,33.589s,PASSED
waitForElementPresent,Chrome 67.0.3396.99,,2018-07-12 09:26:25,2018-07-12 09:26:25,0.078s,PASSED
navigateToUrl,Chrome 67.0.3396.99,,2018-07-12 09:26:25,2018-07-12 09:26:25,0.220s,PASSED
waitForElementPresent,Chrome 67.0.3396.99,,2018-07-12 09:26:25,2018-07-12 09:26:25,0.022s,PASSED
maximizeWindow,Chrome 67.0.3396.99,,2018-07-12 09:26:25,2018-07-12 09:26:26,1.139s,PASSED
click,Chrome 67.0.3396.99,,2018-07-12 09:26:26,2018-07-12 09:26:26,0.087s,PASSED
click,Chrome 67.0.3396.99,,2018-07-12 09:26:26,2018-07-12 09:26:27,0.595s,PASSED
waitForElementPresent,Chrome 67.0.3396.99,,2018-07-12 09:26:27,2018-07-12 09:26:27,0.537s,PASSED
switchToFrame,Chrome 67.0.3396.99,,2018-07-12 09:26:27,2018-07-12 09:26:27,0.050s,PASSED
Statement - driver = com.kms.katalon.core.webui.driver.DriverFactory.getWebDriver(),Chrome 67.0.3396.99,To locate table,2018-07-12 09:26:27,2018-07-12 09:26:27,0.008s,PASSED
"Statement - Table = driver.findElement(org.openqa.selenium.By.xpath(""//table[(@summary = 'Time Sheet')]//tbody""))",Chrome 67.0.3396.99,,2018-07-12 09:26:27,2018-07-12 09:26:27,0.034s,PASSED
"Statement - rows_table = Table.findElements(org.openqa.selenium.By.tagName(""tr""))",Chrome 67.0.3396.99,To locate rows of table it will Capture all the rows available in the table,2018-07-12 09:26:27,2018-07-12 09:26:27,0.024s,PASSED
Statement - rows_count = rows_table.size() - 1,Chrome 67.0.3396.99,To calculate no of rows In table,2018-07-12 09:26:27,2018-07-12 09:26:27,0.002s,PASSED
"Statement - println(""No. of rows: "" + rows_count)",Chrome 67.0.3396.99,,2018-07-12 09:26:27,2018-07-12 09:26:27,0.002s,PASSED
Statement - workday_time = <not implemented yet for class: org.codehaus.groovy.ast.expr.EmptyExpression>,Chrome 67.0.3396.99,,2018-07-12 09:26:27,2018-07-12 09:26:27,0.000s,PASSED
Statement - workday_time = [],Chrome 67.0.3396.99,,2018-07-12 09:26:27,2018-07-12 09:26:27,0.000s,PASSED
"Statement - For ([i = 0, i < rows_count, (i++)])",Chrome 67.0.3396.99,Loop will execute for all the rows of the table,2018-07-12 09:26:27,2018-07-12 09:26:28,0.835s,PASSED
Statement - arrayLength = workday_time.size(),Chrome 67.0.3396.99,,2018-07-12 09:26:28,2018-07-12 09:26:28,0.001s,PASSED
Statement - arrayLength = arrayLength,Chrome 67.0.3396.99,,2018-07-12 09:26:28,2018-07-12 09:26:28,0.009s,PASSED
Statement - workday_time = workday_time,Chrome 67.0.3396.99,,2018-07-12 09:26:28,2018-07-12 09:26:28,0.000s,PASSED
Statement - println(workday_time),Chrome 67.0.3396.99,,2018-07-12 09:26:28,2018-07-12 09:26:28,0.001s,PASSED
Statement - println(arrayLength),Chrome 67.0.3396.99,,2018-07-12 09:26:28,2018-07-12 09:26:28,0.001s,PASSED
closeBrowser,Chrome 67.0.3396.99,,2018-07-12 09:26:28,2018-07-12 09:26:29,0.693s,PASSED
,,,,,,
Test Cases/Login in to workday,Chrome 67.0.3396.99,,2018-07-12 09:26:29,2018-07-12 09:28:09,1m - 40.298s,PASSED
openBrowser,Chrome 67.0.3396.99,,2018-07-12 09:26:30,2018-07-12 09:26:56,26.868s,PASSED
navigateToUrl,Chrome 67.0.3396.99,,2018-07-12 09:26:56,2018-07-12 09:26:58,1.358s,PASSED
setText,Chrome 67.0.3396.99,,2018-07-12 09:26:58,2018-07-12 09:27:00,2.326s,PASSED
setText,Chrome 67.0.3396.99,,2018-07-12 09:27:00,2018-07-12 09:27:00,0.119s,PASSED
click,Chrome 67.0.3396.99,,2018-07-12 09:27:00,2018-07-12 09:27:00,0.103s,PASSED
click,Chrome 67.0.3396.99,,2018-07-12 09:27:00,2018-07-12 09:27:05,4.846s,PASSED
maximizeWindow,Chrome 67.0.3396.99,,2018-07-12 09:27:05,2018-07-12 09:27:06,1.135s,PASSED
click,Chrome 67.0.3396.99,,2018-07-12 09:27:06,2018-07-12 09:27:06,0.133s,PASSED
click,Chrome 67.0.3396.99,,2018-07-12 09:27:06,2018-07-12 09:27:08,1.600s,PASSED
click,Chrome 67.0.3396.99,,2018-07-12 09:27:08,2018-07-12 09:27:10,1.650s,PASSED
click,Chrome 67.0.3396.99,,2018-07-12 09:27:10,2018-07-12 09:27:10,0.111s,PASSED
waitForElementPresent,Chrome 67.0.3396.99,,2018-07-12 09:27:10,2018-07-12 09:27:10,0.029s,PASSED
waitForElementPresent,Chrome 67.0.3396.99,,2018-07-12 09:27:10,2018-07-12 09:27:10,0.026s,PASSED
waitForElementPresent,Chrome 67.0.3396.99,,2018-07-12 09:27:10,2018-07-12 09:27:10,0.016s,PASSED
waitForElementPresent,Chrome 67.0.3396.99,,2018-07-12 09:27:10,2018-07-12 09:27:10,0.024s,PASSED
sendKeys,Chrome 67.0.3396.99,,2018-07-12 09:27:10,2018-07-12 09:27:10,0.084s,PASSED
waitForElementVisible,Chrome 67.0.3396.99,,2018-07-12 09:27:10,2018-07-12 09:27:11,1.117s,PASSED
Statement - driver = com.kms.katalon.core.webui.driver.DriverFactory.getWebDriver(),Chrome 67.0.3396.99,,2018-07-12 09:27:11,2018-07-12 09:27:11,0.000s,PASSED
"Statement - Table = driver.findElement(org.openqa.selenium.By.xpath(""//table[@class='mainTable']""))",Chrome 67.0.3396.99,,2018-07-12 09:27:11,2018-07-12 09:27:11,0.018s,PASSED
Statement - arrayLength = arrayLength,Chrome 67.0.3396.99,,2018-07-12 09:27:11,2018-07-12 09:27:11,0.000s,PASSED
"Statement - For ([i = 0, i < arrayLength, (i++)])",Chrome 67.0.3396.99,,2018-07-12 09:27:11,2018-07-12 09:27:13,2.102s,PASSED
Statement - timeTypeValue = workday_time[i][0].toString(),Chrome 67.0.3396.99,,2018-07-12 09:27:13,2018-07-12 09:27:13,0.004s,PASSED
click,Chrome 67.0.3396.99,,2018-07-12 09:27:13,2018-07-12 09:27:13,0.131s,PASSED
focus,Chrome 67.0.3396.99,,2018-07-12 09:27:13,2018-07-12 09:27:13,0.079s,PASSED
delay,Chrome 67.0.3396.99,,2018-07-12 09:27:13,2018-07-12 09:27:14,1.002s,PASSED
sendKeys,Chrome 67.0.3396.99,,2018-07-12 09:27:14,2018-07-12 09:27:15,0.402s,PASSED
sendKeys,Chrome 67.0.3396.99,,2018-07-12 09:27:15,2018-07-12 09:27:15,0.043s,PASSED
delay,Chrome 67.0.3396.99,,2018-07-12 09:27:15,2018-07-12 09:27:16,1.002s,PASSED
waitForElementPresent,Chrome 67.0.3396.99,,2018-07-12 09:27:16,2018-07-12 09:27:36,20.461s,PASSED
click,Chrome 67.0.3396.99,,2018-07-12 09:27:36,2018-07-12 09:27:36,0.081s,PASSED
sendKeys,Chrome 67.0.3396.99,,2018-07-12 09:27:36,2018-07-12 09:27:36,0.055s,PASSED
click,Chrome 67.0.3396.99,,2018-07-12 09:27:36,2018-07-12 09:27:37,0.114s,PASSED
sendKeys,Chrome 67.0.3396.99,,2018-07-12 09:27:37,2018-07-12 09:27:37,0.058s,PASSED
click,Chrome 67.0.3396.99,,2018-07-12 09:27:37,2018-07-12 09:27:37,0.091s,PASSED
sendKeys,Chrome 67.0.3396.99,,2018-07-12 09:27:37,2018-07-12 09:27:37,0.085s,PASSED
click,Chrome 67.0.3396.99,,2018-07-12 09:27:37,2018-07-12 09:27:37,0.087s,PASSED
sendKeys,Chrome 67.0.3396.99,,2018-07-12 09:27:37,2018-07-12 09:27:37,0.069s,PASSED
click,Chrome 67.0.3396.99,,2018-07-12 09:27:37,2018-07-12 09:27:37,0.069s,PASSED
sendKeys,Chrome 67.0.3396.99,,2018-07-12 09:27:37,2018-07-12 09:27:39,2.144s,PASSED
Statement - timeTypeValue = workday_time[i][0].toString(),Chrome 67.0.3396.99,,2018-07-12 09:27:39,2018-07-12 09:27:39,0.000s,PASSED
click,Chrome 67.0.3396.99,,2018-07-12 09:27:39,2018-07-12 09:27:39,0.090s,PASSED
focus,Chrome 67.0.3396.99,,2018-07-12 09:27:39,2018-07-12 09:27:39,0.064s,PASSED
delay,Chrome 67.0.3396.99,,2018-07-12 09:27:39,2018-07-12 09:27:40,1.002s,PASSED
sendKeys,Chrome 67.0.3396.99,,2018-07-12 09:27:40,2018-07-12 09:27:41,0.416s,PASSED
sendKeys,Chrome 67.0.3396.99,,2018-07-12 09:27:41,2018-07-12 09:27:41,0.041s,PASSED
delay,Chrome 67.0.3396.99,,2018-07-12 09:27:41,2018-07-12 09:27:42,1.002s,PASSED
waitForElementPresent,Chrome 67.0.3396.99,,2018-07-12 09:27:42,2018-07-12 09:27:42,0.022s,PASSED
click,Chrome 67.0.3396.99,,2018-07-12 09:27:42,2018-07-12 09:27:42,0.072s,PASSED
sendKeys,Chrome 67.0.3396.99,,2018-07-12 09:27:42,2018-07-12 09:27:42,0.101s,PASSED
click,Chrome 67.0.3396.99,,2018-07-12 09:27:42,2018-07-12 09:27:42,0.083s,PASSED
sendKeys,Chrome 67.0.3396.99,,2018-07-12 09:27:42,2018-07-12 09:27:42,0.071s,PASSED
click,Chrome 67.0.3396.99,,2018-07-12 09:27:42,2018-07-12 09:27:42,0.074s,PASSED
sendKeys,Chrome 67.0.3396.99,,2018-07-12 09:27:42,2018-07-12 09:27:42,0.086s,PASSED
click,Chrome 67.0.3396.99,,2018-07-12 09:27:42,2018-07-12 09:27:42,0.071s,PASSED
sendKeys,Chrome 67.0.3396.99,,2018-07-12 09:27:42,2018-07-12 09:27:42,0.044s,PASSED
click,Chrome 67.0.3396.99,,2018-07-12 09:27:42,2018-07-12 09:27:42,0.067s,PASSED
sendKeys,Chrome 67.0.3396.99,,2018-07-12 09:27:42,2018-07-12 09:27:45,2.118s,PASSED
Statement - timeTypeValue = workday_time[i][0].toString(),Chrome 67.0.3396.99,,2018-07-12 09:27:45,2018-07-12 09:27:45,0.001s,PASSED
click,Chrome 67.0.3396.99,,2018-07-12 09:27:45,2018-07-12 09:27:45,0.084s,PASSED
focus,Chrome 67.0.3396.99,,2018-07-12 09:27:45,2018-07-12 09:27:45,0.088s,PASSED
delay,Chrome 67.0.3396.99,,2018-07-12 09:27:45,2018-07-12 09:27:46,1.002s,PASSED
sendKeys,Chrome 67.0.3396.99,,2018-07-12 09:27:46,2018-07-12 09:27:46,0.433s,PASSED
sendKeys,Chrome 67.0.3396.99,,2018-07-12 09:27:46,2018-07-12 09:27:46,0.038s,PASSED
delay,Chrome 67.0.3396.99,,2018-07-12 09:27:46,2018-07-12 09:27:47,1.001s,PASSED
waitForElementPresent,Chrome 67.0.3396.99,,2018-07-12 09:27:47,2018-07-12 09:27:47,0.015s,PASSED
click,Chrome 67.0.3396.99,,2018-07-12 09:27:47,2018-07-12 09:27:47,0.084s,PASSED
sendKeys,Chrome 67.0.3396.99,,2018-07-12 09:27:47,2018-07-12 09:27:47,0.048s,PASSED
click,Chrome 67.0.3396.99,,2018-07-12 09:27:47,2018-07-12 09:27:47,0.082s,PASSED
sendKeys,Chrome 67.0.3396.99,,2018-07-12 09:27:47,2018-07-12 09:27:48,0.046s,PASSED
click,Chrome 67.0.3396.99,,2018-07-12 09:27:48,2018-07-12 09:27:48,0.087s,PASSED
sendKeys,Chrome 67.0.3396.99,,2018-07-12 09:27:48,2018-07-12 09:27:48,0.088s,PASSED
click,Chrome 67.0.3396.99,,2018-07-12 09:27:48,2018-07-12 09:27:48,0.071s,PASSED
sendKeys,Chrome 67.0.3396.99,,2018-07-12 09:27:48,2018-07-12 09:27:48,0.043s,PASSED
click,Chrome 67.0.3396.99,,2018-07-12 09:27:48,2018-07-12 09:27:48,0.065s,PASSED
sendKeys,Chrome 67.0.3396.99,,2018-07-12 09:27:48,2018-07-12 09:27:48,0.044s,PASSED
"Statement - rows_table = Table.findElements(org.openqa.selenium.By.tagName(""tr""))",Chrome 67.0.3396.99,,2018-07-12 09:27:48,2018-07-12 09:27:48,0.014s,PASSED
Statement - rowSize = rows_table.size() - 2,Chrome 67.0.3396.99,,2018-07-12 09:27:48,2018-07-12 09:27:48,0.000s,PASSED
Statement - If (rowSize > arrayLength),Chrome 67.0.3396.99,,2018-07-12 09:27:48,2018-07-12 09:27:48,0.140s,PASSED
click,Chrome 67.0.3396.99,,2018-07-12 09:27:48,2018-07-12 09:27:48,0.089s,PASSED
waitForElementPresent,Chrome 67.0.3396.99,,2018-07-12 09:27:48,2018-07-12 09:28:09,20.426s,PASSED
closeBrowser,Chrome 67.0.3396.99,,2018-07-12 09:28:09,2018-07-12 09:28:09,0.700s,PASSED
