Suite/Test/Step Name,Browser,Description,Start time,End time,Duration,Status
Timesheet,Chrome 67.0.3396.99,,2018-08-03 14:15:47,2018-08-03 14:17:18,1m - 30.834s,FAILED
,,,,,,
Test Cases/Login to Navision,Chrome 67.0.3396.99,,2018-08-03 14:15:47,2018-08-03 14:16:27,39.901s,PASSED
openBrowser,Chrome 67.0.3396.99,,2018-08-03 14:15:48,2018-08-03 14:16:21,32.875s,PASSED
waitForElementPresent,Chrome 67.0.3396.99,,2018-08-03 14:16:21,2018-08-03 14:16:21,0.164s,PASSED
navigateToUrl,Chrome 67.0.3396.99,,2018-08-03 14:16:21,2018-08-03 14:16:21,0.391s,PASSED
waitForElementPresent,Chrome 67.0.3396.99,,2018-08-03 14:16:21,2018-08-03 14:16:21,0.027s,PASSED
maximizeWindow,Chrome 67.0.3396.99,,2018-08-03 14:16:21,2018-08-03 14:16:23,1.222s,PASSED
click,Chrome 67.0.3396.99,,2018-08-03 14:16:23,2018-08-03 14:16:23,0.087s,PASSED
click,Chrome 67.0.3396.99,,2018-08-03 14:16:23,2018-08-03 14:16:23,0.631s,PASSED
waitForElementPresent,Chrome 67.0.3396.99,,2018-08-03 14:16:23,2018-08-03 14:16:24,0.539s,PASSED
switchToFrame,Chrome 67.0.3396.99,,2018-08-03 14:16:24,2018-08-03 14:16:24,0.068s,PASSED
Statement - driver = com.kms.katalon.core.webui.driver.DriverFactory.getWebDriver(),Chrome 67.0.3396.99,To locate table,2018-08-03 14:16:24,2018-08-03 14:16:24,0.010s,PASSED
"Statement - Table = driver.findElement(org.openqa.selenium.By.xpath(""//table[(@summary = 'Time Sheet')]//tbody""))",Chrome 67.0.3396.99,,2018-08-03 14:16:24,2018-08-03 14:16:24,0.045s,PASSED
"Statement - rows_table = Table.findElements(org.openqa.selenium.By.tagName(""tr""))",Chrome 67.0.3396.99,To locate rows of table it will Capture all the rows available in the table,2018-08-03 14:16:24,2018-08-03 14:16:24,0.031s,PASSED
Statement - rows_count = rows_table.size() - 1,Chrome 67.0.3396.99,To calculate no of rows In table,2018-08-03 14:16:24,2018-08-03 14:16:24,0.002s,PASSED
"Statement - println(""No. of rows: "" + rows_count)",Chrome 67.0.3396.99,,2018-08-03 14:16:24,2018-08-03 14:16:24,0.004s,PASSED
Statement - workday_time = <not implemented yet for class: org.codehaus.groovy.ast.expr.EmptyExpression>,Chrome 67.0.3396.99,,2018-08-03 14:16:24,2018-08-03 14:16:24,0.001s,PASSED
Statement - workday_time = [],Chrome 67.0.3396.99,,2018-08-03 14:16:24,2018-08-03 14:16:24,0.000s,PASSED
"Statement - For ([i = 0, i < rows_count, (i++)])",Chrome 67.0.3396.99,Loop will execute for all the rows of the table,2018-08-03 14:16:24,2018-08-03 14:16:26,2.339s,PASSED
Statement - arrayLength = workday_time.size(),Chrome 67.0.3396.99,,2018-08-03 14:16:26,2018-08-03 14:16:26,0.001s,PASSED
Statement - arrayLength = arrayLength,Chrome 67.0.3396.99,,2018-08-03 14:16:26,2018-08-03 14:16:26,0.009s,PASSED
Statement - workday_time = workday_time,Chrome 67.0.3396.99,,2018-08-03 14:16:26,2018-08-03 14:16:26,0.000s,PASSED
Statement - println(workday_time),Chrome 67.0.3396.99,,2018-08-03 14:16:26,2018-08-03 14:16:26,0.001s,PASSED
Statement - println(arrayLength),Chrome 67.0.3396.99,,2018-08-03 14:16:26,2018-08-03 14:16:26,0.000s,PASSED
closeBrowser,Chrome 67.0.3396.99,,2018-08-03 14:16:26,2018-08-03 14:16:27,0.942s,PASSED
,,,,,,
Test Cases/Login in to workday,Chrome 67.0.3396.99,,2018-08-03 14:16:27,2018-08-03 14:17:17,49.738s,FAILED
openBrowser,Chrome 67.0.3396.99,,2018-08-03 14:16:28,2018-08-03 14:16:55,26.990s,PASSED
navigateToUrl,Chrome 67.0.3396.99,,2018-08-03 14:16:55,2018-08-03 14:16:56,1.161s,PASSED
setText,Chrome 67.0.3396.99,,2018-08-03 14:16:56,2018-08-03 14:16:59,2.383s,PASSED
setText,Chrome 67.0.3396.99,,2018-08-03 14:16:59,2018-08-03 14:16:59,0.118s,PASSED
click,Chrome 67.0.3396.99,,2018-08-03 14:16:59,2018-08-03 14:16:59,0.080s,PASSED
click,Chrome 67.0.3396.99,,2018-08-03 14:16:59,2018-08-03 14:17:03,4.592s,PASSED
maximizeWindow,Chrome 67.0.3396.99,,2018-08-03 14:17:03,2018-08-03 14:17:05,1.138s,PASSED
click,Chrome 67.0.3396.99,,2018-08-03 14:17:05,2018-08-03 14:17:05,0.145s,PASSED
click,Chrome 67.0.3396.99,,2018-08-03 14:17:05,2018-08-03 14:17:06,1.604s,PASSED
focus,Chrome 67.0.3396.99,,2018-08-03 14:17:06,2018-08-03 14:17:08,1.261s,PASSED
delay,Chrome 67.0.3396.99,,2018-08-03 14:17:08,2018-08-03 14:17:09,1.020s,PASSED
click,Chrome 67.0.3396.99,,2018-08-03 14:17:09,2018-08-03 14:17:09,0.076s,PASSED
delay,Chrome 67.0.3396.99,,2018-08-03 14:17:09,2018-08-03 14:17:10,1.001s,PASSED
click,Chrome 67.0.3396.99,,2018-08-03 14:17:10,2018-08-03 14:17:10,0.082s,PASSED
waitForElementVisible,Chrome 67.0.3396.99,,2018-08-03 14:17:10,2018-08-03 14:17:11,1.332s,PASSED
Statement - rowSize_before = getTableRowCount(),Chrome 67.0.3396.99,,2018-08-03 14:17:11,2018-08-03 14:17:11,0.000s,PASSED
Statement - driver = com.kms.katalon.core.webui.driver.DriverFactory.getWebDriver(),Chrome 67.0.3396.99,,2018-08-03 14:17:11,2018-08-03 14:17:11,0.001s,PASSED
"Statement - Table = driver.findElement(org.openqa.selenium.By.xpath(""//table[@class='mainTable']""))",Chrome 67.0.3396.99,,2018-08-03 14:17:11,2018-08-03 14:17:11,0.016s,PASSED
"Statement - rows_table = Table.findElements(org.openqa.selenium.By.tagName(""tr""))",Chrome 67.0.3396.99,,2018-08-03 14:17:11,2018-08-03 14:17:11,0.015s,PASSED
Statement - return (rows_table.size() - 2),Chrome 67.0.3396.99,,2018-08-03 14:17:11,2018-08-03 14:17:11,0.000s,PASSED
Statement - arrayLength = arrayLength,Chrome 67.0.3396.99,,2018-08-03 14:17:11,2018-08-03 14:17:11,0.001s,PASSED
Statement - rows_size_refined = getTableRowCount(),Chrome 67.0.3396.99,,2018-08-03 14:17:11,2018-08-03 14:17:11,0.000s,PASSED
Statement - driver = com.kms.katalon.core.webui.driver.DriverFactory.getWebDriver(),Chrome 67.0.3396.99,,2018-08-03 14:17:11,2018-08-03 14:17:11,0.001s,PASSED
"Statement - Table = driver.findElement(org.openqa.selenium.By.xpath(""//table[@class='mainTable']""))",Chrome 67.0.3396.99,,2018-08-03 14:17:11,2018-08-03 14:17:11,0.009s,PASSED
"Statement - rows_table = Table.findElements(org.openqa.selenium.By.tagName(""tr""))",Chrome 67.0.3396.99,,2018-08-03 14:17:11,2018-08-03 14:17:11,0.008s,PASSED
Statement - return (rows_table.size() - 2),Chrome 67.0.3396.99,,2018-08-03 14:17:11,2018-08-03 14:17:11,0.001s,PASSED
Statement - existing_tasks = <not implemented yet for class: org.codehaus.groovy.ast.expr.EmptyExpression>,Chrome 67.0.3396.99,,2018-08-03 14:17:11,2018-08-03 14:17:11,0.000s,PASSED
Statement - existing_tasks = [],Chrome 67.0.3396.99,,2018-08-03 14:17:11,2018-08-03 14:17:11,0.000s,PASSED
Statement - existing_tasks_size = <not implemented yet for class: org.codehaus.groovy.ast.expr.EmptyExpression>,Chrome 67.0.3396.99,,2018-08-03 14:17:11,2018-08-03 14:17:11,0.000s,PASSED
"Statement - For ([x = 1, x <= rows_size_refined, (x++)])",Chrome 67.0.3396.99,,2018-08-03 14:17:11,2018-08-03 14:17:12,0.439s,PASSED
Statement - If (existing_tasks == [null]),Chrome 67.0.3396.99,,2018-08-03 14:17:12,2018-08-03 14:17:12,0.000s,PASSED
Statement - Else,Chrome 67.0.3396.99,,2018-08-03 14:17:12,2018-08-03 14:17:12,0.000s,PASSED
"Statement - For ([i = 0, i < arrayLength, (i++)])",Chrome 67.0.3396.99,,2018-08-03 14:17:12,2018-08-03 14:17:13,1.003s,PASSED
Statement - timeTypeValue = workday_time[i][0].toString(),Chrome 67.0.3396.99,,2018-08-03 14:17:13,2018-08-03 14:17:13,0.003s,PASSED
click,Chrome 67.0.3396.99,,2018-08-03 14:17:13,2018-08-03 14:17:13,0.092s,PASSED
delay,Chrome 67.0.3396.99,,2018-08-03 14:17:13,2018-08-03 14:17:14,1.001s,PASSED
click,Chrome 67.0.3396.99,,2018-08-03 14:17:14,2018-08-03 14:17:14,0.129s,PASSED
focus,Chrome 67.0.3396.99,,2018-08-03 14:17:14,2018-08-03 14:17:14,0.084s,PASSED
delay,Chrome 67.0.3396.99,,2018-08-03 14:17:14,2018-08-03 14:17:15,1.002s,PASSED
sendKeys,Chrome 67.0.3396.99,,2018-08-03 14:17:15,2018-08-03 14:17:15,0.519s,PASSED
sendKeys,Chrome 67.0.3396.99,,2018-08-03 14:17:15,2018-08-03 14:17:15,0.045s,PASSED
delay,Chrome 67.0.3396.99,,2018-08-03 14:17:15,2018-08-03 14:17:16,1.001s,PASSED
waitForElementPresent,Chrome 67.0.3396.99,,2018-08-03 14:17:16,2018-08-03 14:17:16,0.029s,PASSED
"Statement - setTableValues(4, i, 1)",Chrome 67.0.3396.99,Monday column,2018-08-03 14:17:16,2018-08-03 14:17:16,0.001s,PASSED
click,Chrome 67.0.3396.99,,2018-08-03 14:17:16,2018-08-03 14:17:17,0.081s,PASSED
"Statement - If (!(workday_time[i][j].equals("""")))",Chrome 67.0.3396.99,,2018-08-03 14:17:17,2018-08-03 14:17:17,0.464s,FAILED
