Suite/Test/Step Name,Browser,Description,Start time,End time,Duration,Status
Timesheet,Chrome 67.0.3396.99,,2018-07-12 09:18:18,2018-07-12 09:20:14,1m - 56.026s,PASSED
,,,,,,
Test Cases/Login to Navision,Chrome 67.0.3396.99,,2018-07-12 09:18:18,2018-07-12 09:18:55,36.886s,PASSED
openBrowser,Chrome 67.0.3396.99,,2018-07-12 09:18:18,2018-07-12 09:18:50,31.295s,PASSED
waitForElementPresent,Chrome 67.0.3396.99,,2018-07-12 09:18:50,2018-07-12 09:18:50,0.095s,PASSED
navigateToUrl,Chrome 67.0.3396.99,,2018-07-12 09:18:50,2018-07-12 09:18:50,0.202s,PASSED
waitForElementPresent,Chrome 67.0.3396.99,,2018-07-12 09:18:50,2018-07-12 09:18:50,0.019s,PASSED
maximizeWindow,Chrome 67.0.3396.99,,2018-07-12 09:18:50,2018-07-12 09:18:51,1.137s,PASSED
click,Chrome 67.0.3396.99,,2018-07-12 09:18:51,2018-07-12 09:18:51,0.094s,PASSED
click,Chrome 67.0.3396.99,,2018-07-12 09:18:51,2018-07-12 09:18:52,0.594s,PASSED
waitForElementPresent,Chrome 67.0.3396.99,,2018-07-12 09:18:52,2018-07-12 09:18:52,0.547s,PASSED
switchToFrame,Chrome 67.0.3396.99,,2018-07-12 09:18:52,2018-07-12 09:18:52,0.056s,PASSED
Statement - driver = com.kms.katalon.core.webui.driver.DriverFactory.getWebDriver(),Chrome 67.0.3396.99,To locate table,2018-07-12 09:18:52,2018-07-12 09:18:52,0.007s,PASSED
"Statement - Table = driver.findElement(org.openqa.selenium.By.xpath(""//table[(@summary = 'Time Sheet')]//tbody""))",Chrome 67.0.3396.99,,2018-07-12 09:18:52,2018-07-12 09:18:53,0.040s,PASSED
"Statement - rows_table = Table.findElements(org.openqa.selenium.By.tagName(""tr""))",Chrome 67.0.3396.99,To locate rows of table it will Capture all the rows available in the table,2018-07-12 09:18:53,2018-07-12 09:18:53,0.023s,PASSED
Statement - rows_count = rows_table.size() - 1,Chrome 67.0.3396.99,To calculate no of rows In table,2018-07-12 09:18:53,2018-07-12 09:18:53,0.001s,PASSED
"Statement - println(""No. of rows: "" + rows_count)",Chrome 67.0.3396.99,,2018-07-12 09:18:53,2018-07-12 09:18:53,0.003s,PASSED
Statement - workday_time = <not implemented yet for class: org.codehaus.groovy.ast.expr.EmptyExpression>,Chrome 67.0.3396.99,,2018-07-12 09:18:53,2018-07-12 09:18:53,0.001s,PASSED
Statement - workday_time = [],Chrome 67.0.3396.99,,2018-07-12 09:18:53,2018-07-12 09:18:53,0.002s,PASSED
"Statement - For ([i = 0, i < rows_count, (i++)])",Chrome 67.0.3396.99,Loop will execute for all the rows of the table,2018-07-12 09:18:53,2018-07-12 09:18:54,1.595s,PASSED
Statement - arrayLength = workday_time.size(),Chrome 67.0.3396.99,,2018-07-12 09:18:54,2018-07-12 09:18:54,0.001s,PASSED
Statement - arrayLength = arrayLength,Chrome 67.0.3396.99,,2018-07-12 09:18:54,2018-07-12 09:18:54,0.010s,PASSED
Statement - workday_time = workday_time,Chrome 67.0.3396.99,,2018-07-12 09:18:54,2018-07-12 09:18:54,0.000s,PASSED
Statement - println(workday_time),Chrome 67.0.3396.99,,2018-07-12 09:18:54,2018-07-12 09:18:54,0.001s,PASSED
Statement - println(arrayLength),Chrome 67.0.3396.99,,2018-07-12 09:18:54,2018-07-12 09:18:54,0.000s,PASSED
closeBrowser,Chrome 67.0.3396.99,,2018-07-12 09:18:54,2018-07-12 09:18:55,0.687s,PASSED
,,,,,,
Test Cases/Login in to workday,Chrome 67.0.3396.99,,2018-07-12 09:18:55,2018-07-12 09:20:14,1m - 18.810s,PASSED
openBrowser,Chrome 67.0.3396.99,,2018-07-12 09:18:55,2018-07-12 09:19:22,26.863s,PASSED
navigateToUrl,Chrome 67.0.3396.99,,2018-07-12 09:19:22,2018-07-12 09:19:23,1.221s,PASSED
setText,Chrome 67.0.3396.99,,2018-07-12 09:19:23,2018-07-12 09:19:26,2.321s,PASSED
setText,Chrome 67.0.3396.99,,2018-07-12 09:19:26,2018-07-12 09:19:26,0.126s,PASSED
click,Chrome 67.0.3396.99,,2018-07-12 09:19:26,2018-07-12 09:19:26,0.096s,PASSED
click,Chrome 67.0.3396.99,,2018-07-12 09:19:26,2018-07-12 09:19:31,4.726s,PASSED
maximizeWindow,Chrome 67.0.3396.99,,2018-07-12 09:19:31,2018-07-12 09:19:32,1.129s,PASSED
click,Chrome 67.0.3396.99,,2018-07-12 09:19:32,2018-07-12 09:19:32,0.585s,PASSED
click,Chrome 67.0.3396.99,,2018-07-12 09:19:32,2018-07-12 09:19:34,1.603s,PASSED
click,Chrome 67.0.3396.99,,2018-07-12 09:19:34,2018-07-12 09:19:35,1.126s,PASSED
click,Chrome 67.0.3396.99,,2018-07-12 09:19:35,2018-07-12 09:19:35,0.151s,PASSED
waitForElementPresent,Chrome 67.0.3396.99,,2018-07-12 09:19:35,2018-07-12 09:19:35,0.033s,PASSED
waitForElementPresent,Chrome 67.0.3396.99,,2018-07-12 09:19:35,2018-07-12 09:19:35,0.025s,PASSED
waitForElementPresent,Chrome 67.0.3396.99,,2018-07-12 09:19:35,2018-07-12 09:19:35,0.017s,PASSED
waitForElementPresent,Chrome 67.0.3396.99,,2018-07-12 09:19:35,2018-07-12 09:19:35,0.023s,PASSED
sendKeys,Chrome 67.0.3396.99,,2018-07-12 09:19:35,2018-07-12 09:19:35,0.087s,PASSED
waitForElementVisible,Chrome 67.0.3396.99,,2018-07-12 09:19:35,2018-07-12 09:19:37,1.123s,PASSED
Statement - driver = com.kms.katalon.core.webui.driver.DriverFactory.getWebDriver(),Chrome 67.0.3396.99,,2018-07-12 09:19:37,2018-07-12 09:19:37,0.001s,PASSED
"Statement - Table = driver.findElement(org.openqa.selenium.By.xpath(""//table[@class='mainTable']""))",Chrome 67.0.3396.99,,2018-07-12 09:19:37,2018-07-12 09:19:37,0.015s,PASSED
Statement - arrayLength = arrayLength,Chrome 67.0.3396.99,,2018-07-12 09:19:37,2018-07-12 09:19:37,0.001s,PASSED
"Statement - For ([i = 0, i < arrayLength, (i++)])",Chrome 67.0.3396.99,,2018-07-12 09:19:37,2018-07-12 09:19:39,2.110s,PASSED
Statement - timeTypeValue = workday_time[i][0].toString(),Chrome 67.0.3396.99,,2018-07-12 09:19:39,2018-07-12 09:19:39,0.005s,PASSED
click,Chrome 67.0.3396.99,,2018-07-12 09:19:39,2018-07-12 09:19:39,0.125s,PASSED
focus,Chrome 67.0.3396.99,,2018-07-12 09:19:39,2018-07-12 09:19:39,0.087s,PASSED
delay,Chrome 67.0.3396.99,,2018-07-12 09:19:39,2018-07-12 09:19:40,1.002s,PASSED
sendKeys,Chrome 67.0.3396.99,,2018-07-12 09:19:40,2018-07-12 09:19:40,0.487s,PASSED
sendKeys,Chrome 67.0.3396.99,,2018-07-12 09:19:40,2018-07-12 09:19:40,0.050s,PASSED
delay,Chrome 67.0.3396.99,,2018-07-12 09:19:40,2018-07-12 09:19:41,1.000s,PASSED
waitForElementPresent,Chrome 67.0.3396.99,,2018-07-12 09:19:41,2018-07-12 09:19:42,0.029s,PASSED
click,Chrome 67.0.3396.99,,2018-07-12 09:19:42,2018-07-12 09:19:42,0.089s,PASSED
sendKeys,Chrome 67.0.3396.99,,2018-07-12 09:19:42,2018-07-12 09:19:42,0.087s,PASSED
click,Chrome 67.0.3396.99,,2018-07-12 09:19:42,2018-07-12 09:19:42,0.082s,PASSED
sendKeys,Chrome 67.0.3396.99,,2018-07-12 09:19:42,2018-07-12 09:19:42,0.108s,PASSED
click,Chrome 67.0.3396.99,,2018-07-12 09:19:42,2018-07-12 09:19:42,0.084s,PASSED
sendKeys,Chrome 67.0.3396.99,,2018-07-12 09:19:42,2018-07-12 09:19:42,0.056s,PASSED
click,Chrome 67.0.3396.99,,2018-07-12 09:19:42,2018-07-12 09:19:42,0.076s,PASSED
sendKeys,Chrome 67.0.3396.99,,2018-07-12 09:19:42,2018-07-12 09:19:42,0.061s,PASSED
click,Chrome 67.0.3396.99,,2018-07-12 09:19:42,2018-07-12 09:19:42,0.074s,PASSED
sendKeys,Chrome 67.0.3396.99,,2018-07-12 09:19:42,2018-07-12 09:19:44,2.157s,PASSED
Statement - timeTypeValue = workday_time[i][0].toString(),Chrome 67.0.3396.99,,2018-07-12 09:19:44,2018-07-12 09:19:44,0.000s,PASSED
click,Chrome 67.0.3396.99,,2018-07-12 09:19:44,2018-07-12 09:19:45,0.100s,PASSED
focus,Chrome 67.0.3396.99,,2018-07-12 09:19:45,2018-07-12 09:19:45,0.067s,PASSED
delay,Chrome 67.0.3396.99,,2018-07-12 09:19:45,2018-07-12 09:19:46,1.001s,PASSED
sendKeys,Chrome 67.0.3396.99,,2018-07-12 09:19:46,2018-07-12 09:19:46,0.398s,PASSED
sendKeys,Chrome 67.0.3396.99,,2018-07-12 09:19:46,2018-07-12 09:19:46,0.044s,PASSED
delay,Chrome 67.0.3396.99,,2018-07-12 09:19:46,2018-07-12 09:19:47,1.001s,PASSED
waitForElementPresent,Chrome 67.0.3396.99,,2018-07-12 09:19:47,2018-07-12 09:19:47,0.021s,PASSED
click,Chrome 67.0.3396.99,,2018-07-12 09:19:47,2018-07-12 09:19:47,0.072s,PASSED
sendKeys,Chrome 67.0.3396.99,,2018-07-12 09:19:47,2018-07-12 09:19:47,0.090s,PASSED
click,Chrome 67.0.3396.99,,2018-07-12 09:19:47,2018-07-12 09:19:47,0.075s,PASSED
sendKeys,Chrome 67.0.3396.99,,2018-07-12 09:19:47,2018-07-12 09:19:47,0.068s,PASSED
click,Chrome 67.0.3396.99,,2018-07-12 09:19:47,2018-07-12 09:19:47,0.080s,PASSED
sendKeys,Chrome 67.0.3396.99,,2018-07-12 09:19:47,2018-07-12 09:19:48,0.080s,PASSED
click,Chrome 67.0.3396.99,,2018-07-12 09:19:48,2018-07-12 09:19:48,0.092s,PASSED
sendKeys,Chrome 67.0.3396.99,,2018-07-12 09:19:48,2018-07-12 09:19:48,0.059s,PASSED
click,Chrome 67.0.3396.99,,2018-07-12 09:19:48,2018-07-12 09:19:48,0.069s,PASSED
sendKeys,Chrome 67.0.3396.99,,2018-07-12 09:19:48,2018-07-12 09:19:50,2.123s,PASSED
Statement - timeTypeValue = workday_time[i][0].toString(),Chrome 67.0.3396.99,,2018-07-12 09:19:50,2018-07-12 09:19:50,0.000s,PASSED
click,Chrome 67.0.3396.99,,2018-07-12 09:19:50,2018-07-12 09:19:50,0.102s,PASSED
focus,Chrome 67.0.3396.99,,2018-07-12 09:19:50,2018-07-12 09:19:50,0.075s,PASSED
delay,Chrome 67.0.3396.99,,2018-07-12 09:19:50,2018-07-12 09:19:51,1.002s,PASSED
sendKeys,Chrome 67.0.3396.99,,2018-07-12 09:19:51,2018-07-12 09:19:51,0.439s,PASSED
sendKeys,Chrome 67.0.3396.99,,2018-07-12 09:19:51,2018-07-12 09:19:52,0.044s,PASSED
delay,Chrome 67.0.3396.99,,2018-07-12 09:19:52,2018-07-12 09:19:53,1.002s,PASSED
waitForElementPresent,Chrome 67.0.3396.99,,2018-07-12 09:19:53,2018-07-12 09:19:53,0.048s,PASSED
click,Chrome 67.0.3396.99,,2018-07-12 09:19:53,2018-07-12 09:19:53,0.093s,PASSED
sendKeys,Chrome 67.0.3396.99,,2018-07-12 09:19:53,2018-07-12 09:19:53,0.049s,PASSED
click,Chrome 67.0.3396.99,,2018-07-12 09:19:53,2018-07-12 09:19:53,0.086s,PASSED
sendKeys,Chrome 67.0.3396.99,,2018-07-12 09:19:53,2018-07-12 09:19:53,0.114s,PASSED
click,Chrome 67.0.3396.99,,2018-07-12 09:19:53,2018-07-12 09:19:53,0.084s,PASSED
sendKeys,Chrome 67.0.3396.99,,2018-07-12 09:19:53,2018-07-12 09:19:53,0.080s,PASSED
click,Chrome 67.0.3396.99,,2018-07-12 09:19:53,2018-07-12 09:19:53,0.089s,PASSED
sendKeys,Chrome 67.0.3396.99,,2018-07-12 09:19:53,2018-07-12 09:19:53,0.053s,PASSED
click,Chrome 67.0.3396.99,,2018-07-12 09:19:53,2018-07-12 09:19:53,0.093s,PASSED
sendKeys,Chrome 67.0.3396.99,,2018-07-12 09:19:53,2018-07-12 09:19:55,2.122s,PASSED
Statement - timeTypeValue = workday_time[i][0].toString(),Chrome 67.0.3396.99,,2018-07-12 09:19:55,2018-07-12 09:19:55,0.000s,PASSED
click,Chrome 67.0.3396.99,,2018-07-12 09:19:55,2018-07-12 09:19:56,0.112s,PASSED
focus,Chrome 67.0.3396.99,,2018-07-12 09:19:56,2018-07-12 09:19:56,0.066s,PASSED
delay,Chrome 67.0.3396.99,,2018-07-12 09:19:56,2018-07-12 09:19:57,1.001s,PASSED
sendKeys,Chrome 67.0.3396.99,,2018-07-12 09:19:57,2018-07-12 09:19:57,0.359s,PASSED
sendKeys,Chrome 67.0.3396.99,,2018-07-12 09:19:57,2018-07-12 09:19:57,0.048s,PASSED
delay,Chrome 67.0.3396.99,,2018-07-12 09:19:57,2018-07-12 09:19:58,1.001s,PASSED
waitForElementPresent,Chrome 67.0.3396.99,,2018-07-12 09:19:58,2018-07-12 09:19:58,0.015s,PASSED
click,Chrome 67.0.3396.99,,2018-07-12 09:19:58,2018-07-12 09:19:58,0.088s,PASSED
sendKeys,Chrome 67.0.3396.99,,2018-07-12 09:19:58,2018-07-12 09:19:58,0.052s,PASSED
click,Chrome 67.0.3396.99,,2018-07-12 09:19:58,2018-07-12 09:19:58,0.079s,PASSED
sendKeys,Chrome 67.0.3396.99,,2018-07-12 09:19:58,2018-07-12 09:19:58,0.108s,PASSED
click,Chrome 67.0.3396.99,,2018-07-12 09:19:58,2018-07-12 09:19:58,0.100s,PASSED
sendKeys,Chrome 67.0.3396.99,,2018-07-12 09:19:58,2018-07-12 09:19:59,0.049s,PASSED
click,Chrome 67.0.3396.99,,2018-07-12 09:19:59,2018-07-12 09:19:59,0.076s,PASSED
sendKeys,Chrome 67.0.3396.99,,2018-07-12 09:19:59,2018-07-12 09:19:59,0.048s,PASSED
click,Chrome 67.0.3396.99,,2018-07-12 09:19:59,2018-07-12 09:19:59,0.085s,PASSED
sendKeys,Chrome 67.0.3396.99,,2018-07-12 09:19:59,2018-07-12 09:20:01,2.120s,PASSED
Statement - timeTypeValue = workday_time[i][0].toString(),Chrome 67.0.3396.99,,2018-07-12 09:20:01,2018-07-12 09:20:01,0.001s,PASSED
click,Chrome 67.0.3396.99,,2018-07-12 09:20:01,2018-07-12 09:20:01,0.109s,PASSED
focus,Chrome 67.0.3396.99,,2018-07-12 09:20:01,2018-07-12 09:20:01,0.075s,PASSED
delay,Chrome 67.0.3396.99,,2018-07-12 09:20:01,2018-07-12 09:20:02,1.002s,PASSED
sendKeys,Chrome 67.0.3396.99,,2018-07-12 09:20:02,2018-07-12 09:20:02,0.330s,PASSED
sendKeys,Chrome 67.0.3396.99,,2018-07-12 09:20:02,2018-07-12 09:20:02,0.045s,PASSED
delay,Chrome 67.0.3396.99,,2018-07-12 09:20:02,2018-07-12 09:20:03,1.001s,PASSED
waitForElementPresent,Chrome 67.0.3396.99,,2018-07-12 09:20:03,2018-07-12 09:20:03,0.023s,PASSED
click,Chrome 67.0.3396.99,,2018-07-12 09:20:03,2018-07-12 09:20:04,0.090s,PASSED
sendKeys,Chrome 67.0.3396.99,,2018-07-12 09:20:04,2018-07-12 09:20:04,0.055s,PASSED
click,Chrome 67.0.3396.99,,2018-07-12 09:20:04,2018-07-12 09:20:04,0.095s,PASSED
sendKeys,Chrome 67.0.3396.99,,2018-07-12 09:20:04,2018-07-12 09:20:04,0.068s,PASSED
click,Chrome 67.0.3396.99,,2018-07-12 09:20:04,2018-07-12 09:20:04,0.096s,PASSED
sendKeys,Chrome 67.0.3396.99,,2018-07-12 09:20:04,2018-07-12 09:20:04,0.093s,PASSED
click,Chrome 67.0.3396.99,,2018-07-12 09:20:04,2018-07-12 09:20:04,0.075s,PASSED
sendKeys,Chrome 67.0.3396.99,,2018-07-12 09:20:04,2018-07-12 09:20:04,0.053s,PASSED
click,Chrome 67.0.3396.99,,2018-07-12 09:20:04,2018-07-12 09:20:04,0.080s,PASSED
sendKeys,Chrome 67.0.3396.99,,2018-07-12 09:20:04,2018-07-12 09:20:06,2.134s,PASSED
Statement - timeTypeValue = workday_time[i][0].toString(),Chrome 67.0.3396.99,,2018-07-12 09:20:06,2018-07-12 09:20:06,0.000s,PASSED
click,Chrome 67.0.3396.99,,2018-07-12 09:20:06,2018-07-12 09:20:06,0.118s,PASSED
focus,Chrome 67.0.3396.99,,2018-07-12 09:20:06,2018-07-12 09:20:06,0.079s,PASSED
delay,Chrome 67.0.3396.99,,2018-07-12 09:20:06,2018-07-12 09:20:07,1.001s,PASSED
sendKeys,Chrome 67.0.3396.99,,2018-07-12 09:20:07,2018-07-12 09:20:08,0.280s,PASSED
sendKeys,Chrome 67.0.3396.99,,2018-07-12 09:20:08,2018-07-12 09:20:08,0.042s,PASSED
delay,Chrome 67.0.3396.99,,2018-07-12 09:20:08,2018-07-12 09:20:09,1.001s,PASSED
waitForElementPresent,Chrome 67.0.3396.99,,2018-07-12 09:20:09,2018-07-12 09:20:09,0.019s,PASSED
click,Chrome 67.0.3396.99,,2018-07-12 09:20:09,2018-07-12 09:20:09,0.086s,PASSED
sendKeys,Chrome 67.0.3396.99,,2018-07-12 09:20:09,2018-07-12 09:20:09,0.057s,PASSED
click,Chrome 67.0.3396.99,,2018-07-12 09:20:09,2018-07-12 09:20:09,0.073s,PASSED
sendKeys,Chrome 67.0.3396.99,,2018-07-12 09:20:09,2018-07-12 09:20:09,0.107s,PASSED
click,Chrome 67.0.3396.99,,2018-07-12 09:20:09,2018-07-12 09:20:09,0.085s,PASSED
sendKeys,Chrome 67.0.3396.99,,2018-07-12 09:20:09,2018-07-12 09:20:09,0.085s,PASSED
click,Chrome 67.0.3396.99,,2018-07-12 09:20:09,2018-07-12 09:20:09,0.076s,PASSED
sendKeys,Chrome 67.0.3396.99,,2018-07-12 09:20:09,2018-07-12 09:20:09,0.055s,PASSED
click,Chrome 67.0.3396.99,,2018-07-12 09:20:09,2018-07-12 09:20:09,0.074s,PASSED
sendKeys,Chrome 67.0.3396.99,,2018-07-12 09:20:09,2018-07-12 09:20:10,0.084s,PASSED
"Statement - rows_table = Table.findElements(org.openqa.selenium.By.tagName(""tr""))",Chrome 67.0.3396.99,,2018-07-12 09:20:10,2018-07-12 09:20:10,0.018s,PASSED
Statement - rowSize = rows_table.size() - 2,Chrome 67.0.3396.99,,2018-07-12 09:20:10,2018-07-12 09:20:10,0.000s,PASSED
Statement - If (rowSize > arrayLength),Chrome 67.0.3396.99,,2018-07-12 09:20:10,2018-07-12 09:20:10,0.130s,PASSED
click,Chrome 67.0.3396.99,,2018-07-12 09:20:10,2018-07-12 09:20:10,0.081s,PASSED
waitForElementPresent,Chrome 67.0.3396.99,,2018-07-12 09:20:10,2018-07-12 09:20:13,3.181s,PASSED
closeBrowser,Chrome 67.0.3396.99,,2018-07-12 09:20:13,2018-07-12 09:20:14,0.683s,PASSED
