Suite/Test/Step Name,Browser,Description,Start time,End time,Duration,Status
Timesheet,Chrome 67.0.3396.99,,2018-07-31 14:54:00,2018-07-31 14:55:32,1m - 31.405s,ERROR
,,,,,,
Test Cases/Login to Navision,Chrome 67.0.3396.99,,2018-07-31 14:54:01,2018-07-31 14:54:37,36.660s,PASSED
openBrowser,Chrome 67.0.3396.99,,2018-07-31 14:54:01,2018-07-31 14:54:32,31.045s,PASSED
waitForElementPresent,Chrome 67.0.3396.99,,2018-07-31 14:54:32,2018-07-31 14:54:33,0.099s,PASSED
navigateToUrl,Chrome 67.0.3396.99,,2018-07-31 14:54:33,2018-07-31 14:54:33,0.259s,PASSED
waitForElementPresent,Chrome 67.0.3396.99,,2018-07-31 14:54:33,2018-07-31 14:54:33,0.028s,PASSED
maximizeWindow,Chrome 67.0.3396.99,,2018-07-31 14:54:33,2018-07-31 14:54:34,1.146s,PASSED
click,Chrome 67.0.3396.99,,2018-07-31 14:54:34,2018-07-31 14:54:34,0.091s,PASSED
click,Chrome 67.0.3396.99,,2018-07-31 14:54:34,2018-07-31 14:54:35,0.594s,PASSED
waitForElementPresent,Chrome 67.0.3396.99,,2018-07-31 14:54:35,2018-07-31 14:54:35,0.536s,PASSED
switchToFrame,Chrome 67.0.3396.99,,2018-07-31 14:54:35,2018-07-31 14:54:35,0.053s,PASSED
Statement - driver = com.kms.katalon.core.webui.driver.DriverFactory.getWebDriver(),Chrome 67.0.3396.99,To locate table,2018-07-31 14:54:35,2018-07-31 14:54:35,0.008s,PASSED
"Statement - Table = driver.findElement(org.openqa.selenium.By.xpath(""//table[(@summary = 'Time Sheet')]//tbody""))",Chrome 67.0.3396.99,,2018-07-31 14:54:35,2018-07-31 14:54:35,0.034s,PASSED
"Statement - rows_table = Table.findElements(org.openqa.selenium.By.tagName(""tr""))",Chrome 67.0.3396.99,To locate rows of table it will Capture all the rows available in the table,2018-07-31 14:54:35,2018-07-31 14:54:35,0.025s,PASSED
Statement - rows_count = rows_table.size() - 1,Chrome 67.0.3396.99,To calculate no of rows In table,2018-07-31 14:54:35,2018-07-31 14:54:35,0.002s,PASSED
"Statement - println(""No. of rows: "" + rows_count)",Chrome 67.0.3396.99,,2018-07-31 14:54:35,2018-07-31 14:54:35,0.003s,PASSED
Statement - workday_time = <not implemented yet for class: org.codehaus.groovy.ast.expr.EmptyExpression>,Chrome 67.0.3396.99,,2018-07-31 14:54:35,2018-07-31 14:54:35,0.001s,PASSED
Statement - workday_time = [],Chrome 67.0.3396.99,,2018-07-31 14:54:35,2018-07-31 14:54:35,0.001s,PASSED
"Statement - For ([i = 0, i < rows_count, (i++)])",Chrome 67.0.3396.99,Loop will execute for all the rows of the table,2018-07-31 14:54:35,2018-07-31 14:54:37,1.369s,PASSED
Statement - arrayLength = workday_time.size(),Chrome 67.0.3396.99,,2018-07-31 14:54:37,2018-07-31 14:54:37,0.001s,PASSED
Statement - arrayLength = arrayLength,Chrome 67.0.3396.99,,2018-07-31 14:54:37,2018-07-31 14:54:37,0.010s,PASSED
Statement - workday_time = workday_time,Chrome 67.0.3396.99,,2018-07-31 14:54:37,2018-07-31 14:54:37,0.000s,PASSED
Statement - println(workday_time),Chrome 67.0.3396.99,,2018-07-31 14:54:37,2018-07-31 14:54:37,0.001s,PASSED
Statement - println(arrayLength),Chrome 67.0.3396.99,,2018-07-31 14:54:37,2018-07-31 14:54:37,0.001s,PASSED
closeBrowser,Chrome 67.0.3396.99,,2018-07-31 14:54:37,2018-07-31 14:54:37,0.747s,PASSED
,,,,,,
Test Cases/Login in to workday,Chrome 67.0.3396.99,,2018-07-31 14:54:37,2018-07-31 14:55:31,53.462s,ERROR
openBrowser,Chrome 67.0.3396.99,,2018-07-31 14:54:38,2018-07-31 14:55:05,27.056s,PASSED
navigateToUrl,Chrome 67.0.3396.99,,2018-07-31 14:55:05,2018-07-31 14:55:06,1.151s,PASSED
setText,Chrome 67.0.3396.99,,2018-07-31 14:55:06,2018-07-31 14:55:10,3.453s,PASSED
setText,Chrome 67.0.3396.99,,2018-07-31 14:55:10,2018-07-31 14:55:10,0.124s,PASSED
click,Chrome 67.0.3396.99,,2018-07-31 14:55:10,2018-07-31 14:55:10,0.109s,PASSED
click,Chrome 67.0.3396.99,,2018-07-31 14:55:10,2018-07-31 14:55:20,9.836s,PASSED
maximizeWindow,Chrome 67.0.3396.99,,2018-07-31 14:55:20,2018-07-31 14:55:21,1.134s,PASSED
click,Chrome 67.0.3396.99,,2018-07-31 14:55:21,2018-07-31 14:55:21,0.583s,PASSED
click,Chrome 67.0.3396.99,,2018-07-31 14:55:21,2018-07-31 14:55:22,1.104s,PASSED
focus,Chrome 67.0.3396.99,,2018-07-31 14:55:22,2018-07-31 14:55:24,1.194s,PASSED
delay,Chrome 67.0.3396.99,,2018-07-31 14:55:24,2018-07-31 14:55:25,1.019s,PASSED
click,Chrome 67.0.3396.99,,2018-07-31 14:55:25,2018-07-31 14:55:25,0.075s,PASSED
delay,Chrome 67.0.3396.99,,2018-07-31 14:55:25,2018-07-31 14:55:26,1.001s,PASSED
click,Chrome 67.0.3396.99,,2018-07-31 14:55:26,2018-07-31 14:55:26,0.085s,PASSED
waitForElementVisible,Chrome 67.0.3396.99,,2018-07-31 14:55:26,2018-07-31 14:55:27,1.290s,PASSED
Statement - rowSize_before = getTableRowCount(),Chrome 67.0.3396.99,,2018-07-31 14:55:27,2018-07-31 14:55:27,0.000s,PASSED
Statement - driver = com.kms.katalon.core.webui.driver.DriverFactory.getWebDriver(),Chrome 67.0.3396.99,,2018-07-31 14:55:27,2018-07-31 14:55:27,0.000s,PASSED
"Statement - Table = driver.findElement(org.openqa.selenium.By.xpath(""//table[@class='mainTable']""))",Chrome 67.0.3396.99,,2018-07-31 14:55:27,2018-07-31 14:55:27,0.020s,PASSED
"Statement - rows_table = Table.findElements(org.openqa.selenium.By.tagName(""tr""))",Chrome 67.0.3396.99,,2018-07-31 14:55:27,2018-07-31 14:55:27,0.017s,PASSED
Statement - return (rows_table.size() - 2),Chrome 67.0.3396.99,,2018-07-31 14:55:27,2018-07-31 14:55:27,0.000s,PASSED
Statement - arrayLength = arrayLength,Chrome 67.0.3396.99,,2018-07-31 14:55:27,2018-07-31 14:55:27,0.000s,PASSED
Statement - rows_size_refined = getTableRowCount(),Chrome 67.0.3396.99,,2018-07-31 14:55:27,2018-07-31 14:55:27,0.001s,PASSED
Statement - driver = com.kms.katalon.core.webui.driver.DriverFactory.getWebDriver(),Chrome 67.0.3396.99,,2018-07-31 14:55:27,2018-07-31 14:55:27,0.000s,PASSED
"Statement - Table = driver.findElement(org.openqa.selenium.By.xpath(""//table[@class='mainTable']""))",Chrome 67.0.3396.99,,2018-07-31 14:55:27,2018-07-31 14:55:27,0.012s,PASSED
"Statement - rows_table = Table.findElements(org.openqa.selenium.By.tagName(""tr""))",Chrome 67.0.3396.99,,2018-07-31 14:55:27,2018-07-31 14:55:27,0.010s,PASSED
Statement - return (rows_table.size() - 2),Chrome 67.0.3396.99,,2018-07-31 14:55:27,2018-07-31 14:55:27,0.001s,PASSED
Statement - existing_tasks = <not implemented yet for class: org.codehaus.groovy.ast.expr.EmptyExpression>,Chrome 67.0.3396.99,,2018-07-31 14:55:27,2018-07-31 14:55:27,0.000s,PASSED
Statement - existing_tasks = [],Chrome 67.0.3396.99,,2018-07-31 14:55:27,2018-07-31 14:55:27,0.000s,PASSED
Statement - existing_tasks_size = <not implemented yet for class: org.codehaus.groovy.ast.expr.EmptyExpression>,Chrome 67.0.3396.99,,2018-07-31 14:55:27,2018-07-31 14:55:27,0.000s,PASSED
"Statement - For ([x = 1, x <= rows_size_refined, (x++)])",Chrome 67.0.3396.99,,2018-07-31 14:55:27,2018-07-31 14:55:28,0.308s,PASSED
Statement - If (existing_tasks == [null]),Chrome 67.0.3396.99,,2018-07-31 14:55:28,2018-07-31 14:55:28,0.000s,PASSED
Statement - Else,Chrome 67.0.3396.99,,2018-07-31 14:55:28,2018-07-31 14:55:28,0.001s,PASSED
"Statement - For ([i = 0, i < arrayLength, (i++)])",Chrome 67.0.3396.99,,2018-07-31 14:55:28,2018-07-31 14:55:29,1.001s,PASSED
Statement - timeTypeValue = workday_time[i][0].toString(),Chrome 67.0.3396.99,,2018-07-31 14:55:29,2018-07-31 14:55:29,0.003s,PASSED
"Statement - result = verifyTaskIsPresent(timeTypeValue, rows, existing_tasks)",Chrome 67.0.3396.99,,2018-07-31 14:55:29,2018-07-31 14:55:29,0.000s,PASSED
"Statement - navision_job_split = timeType_navision.split("" "")",Chrome 67.0.3396.99,,2018-07-31 14:55:29,2018-07-31 14:55:29,0.002s,PASSED
Statement - arraySize = navision_job_split.size(),Chrome 67.0.3396.99,,2018-07-31 14:55:29,2018-07-31 14:55:29,0.000s,PASSED
Statement - result = true,Chrome 67.0.3396.99,,2018-07-31 14:55:29,2018-07-31 14:55:29,0.001s,PASSED
"Statement - For ([x = 0, x < rows_size, (x++)])",Chrome 67.0.3396.99,,2018-07-31 14:55:29,2018-07-31 14:55:29,0.009s,PASSED
"Statement - setTableValues(4, i, 1)",Chrome 67.0.3396.99,Monday column,2018-07-31 14:55:29,2018-07-31 14:55:29,0.001s,PASSED
click,Chrome 67.0.3396.99,,2018-07-31 14:55:29,2018-07-31 14:55:29,0.132s,PASSED
"Statement - If (!(workday_time[i][j].equals("""")))",Chrome 67.0.3396.99,,2018-07-31 14:55:29,2018-07-31 14:55:29,0.153s,PASSED
"Statement - setTableValues(5, i, 2)",Chrome 67.0.3396.99,Tuesday column,2018-07-31 14:55:29,2018-07-31 14:55:29,0.000s,PASSED
click,Chrome 67.0.3396.99,,2018-07-31 14:55:29,2018-07-31 14:55:29,0.088s,PASSED
"Statement - If (!(workday_time[i][j].equals("""")))",Chrome 67.0.3396.99,,2018-07-31 14:55:29,2018-07-31 14:55:29,0.000s,PASSED
"Statement - setTableValues(6, i, 3)",Chrome 67.0.3396.99,Wednesday column,2018-07-31 14:55:29,2018-07-31 14:55:29,0.001s,PASSED
click,Chrome 67.0.3396.99,,2018-07-31 14:55:29,2018-07-31 14:55:29,0.094s,PASSED
"Statement - If (!(workday_time[i][j].equals("""")))",Chrome 67.0.3396.99,,2018-07-31 14:55:29,2018-07-31 14:55:29,0.000s,PASSED
"Statement - setTableValues(7, i, 4)",Chrome 67.0.3396.99,Thursday column,2018-07-31 14:55:29,2018-07-31 14:55:29,0.000s,PASSED
click,Chrome 67.0.3396.99,,2018-07-31 14:55:29,2018-07-31 14:55:29,0.078s,PASSED
"Statement - If (!(workday_time[i][j].equals("""")))",Chrome 67.0.3396.99,,2018-07-31 14:55:29,2018-07-31 14:55:29,0.001s,PASSED
"Statement - setTableValues(8, i, 5)",Chrome 67.0.3396.99,Friday column,2018-07-31 14:55:29,2018-07-31 14:55:29,0.000s,PASSED
click,Chrome 67.0.3396.99,,2018-07-31 14:55:29,2018-07-31 14:55:29,0.103s,PASSED
"Statement - If (!(workday_time[i][j].equals("""")))",Chrome 67.0.3396.99,,2018-07-31 14:55:29,2018-07-31 14:55:29,0.001s,PASSED
"Statement - setTableValues(4, i, 1)",Chrome 67.0.3396.99,Monday column,2018-07-31 14:55:29,2018-07-31 14:55:29,0.001s,PASSED
click,Chrome 67.0.3396.99,,2018-07-31 14:55:29,2018-07-31 14:55:29,0.068s,PASSED
"Statement - If (!(workday_time[i][j].equals("""")))",Chrome 67.0.3396.99,,2018-07-31 14:55:29,2018-07-31 14:55:29,0.118s,PASSED
"Statement - setTableValues(5, i, 2)",Chrome 67.0.3396.99,Tuesday column,2018-07-31 14:55:29,2018-07-31 14:55:29,0.000s,PASSED
click,Chrome 67.0.3396.99,,2018-07-31 14:55:29,2018-07-31 14:55:29,0.067s,PASSED
"Statement - If (!(workday_time[i][j].equals("""")))",Chrome 67.0.3396.99,,2018-07-31 14:55:29,2018-07-31 14:55:29,0.000s,PASSED
"Statement - setTableValues(6, i, 3)",Chrome 67.0.3396.99,Wednesday column,2018-07-31 14:55:29,2018-07-31 14:55:29,0.000s,PASSED
click,Chrome 67.0.3396.99,,2018-07-31 14:55:29,2018-07-31 14:55:30,0.070s,PASSED
"Statement - If (!(workday_time[i][j].equals("""")))",Chrome 67.0.3396.99,,2018-07-31 14:55:30,2018-07-31 14:55:30,0.001s,PASSED
"Statement - setTableValues(7, i, 4)",Chrome 67.0.3396.99,Thursday column,2018-07-31 14:55:30,2018-07-31 14:55:30,0.000s,PASSED
click,Chrome 67.0.3396.99,,2018-07-31 14:55:30,2018-07-31 14:55:30,0.056s,PASSED
"Statement - If (!(workday_time[i][j].equals("""")))",Chrome 67.0.3396.99,,2018-07-31 14:55:30,2018-07-31 14:55:30,0.000s,PASSED
"Statement - setTableValues(8, i, 5)",Chrome 67.0.3396.99,Friday column,2018-07-31 14:55:30,2018-07-31 14:55:30,0.001s,PASSED
click,Chrome 67.0.3396.99,,2018-07-31 14:55:30,2018-07-31 14:55:30,0.049s,PASSED
"Statement - If (!(workday_time[i][j].equals("""")))",Chrome 67.0.3396.99,,2018-07-31 14:55:30,2018-07-31 14:55:30,0.001s,PASSED
"Statement - setTableValues(4, i, 1)",Chrome 67.0.3396.99,Monday column,2018-07-31 14:55:30,2018-07-31 14:55:30,0.001s,PASSED
click,Chrome 67.0.3396.99,,2018-07-31 14:55:30,2018-07-31 14:55:30,0.055s,PASSED
"Statement - If (!(workday_time[i][j].equals("""")))",Chrome 67.0.3396.99,,2018-07-31 14:55:30,2018-07-31 14:55:30,0.156s,PASSED
"Statement - setTableValues(5, i, 2)",Chrome 67.0.3396.99,Tuesday column,2018-07-31 14:55:30,2018-07-31 14:55:30,0.000s,PASSED
click,Chrome 67.0.3396.99,,2018-07-31 14:55:30,2018-07-31 14:55:30,0.071s,PASSED
"Statement - If (!(workday_time[i][j].equals("""")))",Chrome 67.0.3396.99,,2018-07-31 14:55:30,2018-07-31 14:55:30,0.000s,PASSED
"Statement - setTableValues(6, i, 3)",Chrome 67.0.3396.99,Wednesday column,2018-07-31 14:55:30,2018-07-31 14:55:30,0.000s,PASSED
click,Chrome 67.0.3396.99,,2018-07-31 14:55:30,2018-07-31 14:55:30,0.049s,PASSED
"Statement - If (!(workday_time[i][j].equals("""")))",Chrome 67.0.3396.99,,2018-07-31 14:55:30,2018-07-31 14:55:30,0.000s,PASSED
"Statement - setTableValues(7, i, 4)",Chrome 67.0.3396.99,Thursday column,2018-07-31 14:55:30,2018-07-31 14:55:30,0.000s,PASSED
click,Chrome 67.0.3396.99,,2018-07-31 14:55:30,2018-07-31 14:55:30,0.050s,PASSED
"Statement - If (!(workday_time[i][j].equals("""")))",Chrome 67.0.3396.99,,2018-07-31 14:55:30,2018-07-31 14:55:30,0.000s,PASSED
"Statement - setTableValues(8, i, 5)",Chrome 67.0.3396.99,Friday column,2018-07-31 14:55:30,2018-07-31 14:55:30,0.001s,PASSED
click,Chrome 67.0.3396.99,,2018-07-31 14:55:30,2018-07-31 14:55:30,0.049s,PASSED
"Statement - If (!(workday_time[i][j].equals("""")))",Chrome 67.0.3396.99,,2018-07-31 14:55:30,2018-07-31 14:55:30,0.002s,PASSED
"Statement - setTableValues(4, i, 1)",Chrome 67.0.3396.99,Monday column,2018-07-31 14:55:30,2018-07-31 14:55:30,0.001s,PASSED
click,Chrome 67.0.3396.99,,2018-07-31 14:55:30,2018-07-31 14:55:30,0.069s,PASSED
"Statement - If (!(workday_time[i][j].equals("""")))",Chrome 67.0.3396.99,,2018-07-31 14:55:30,2018-07-31 14:55:30,0.118s,PASSED
"Statement - setTableValues(5, i, 2)",Chrome 67.0.3396.99,Tuesday column,2018-07-31 14:55:30,2018-07-31 14:55:30,0.000s,PASSED
click,Chrome 67.0.3396.99,,2018-07-31 14:55:30,2018-07-31 14:55:30,0.075s,PASSED
"Statement - If (!(workday_time[i][j].equals("""")))",Chrome 67.0.3396.99,,2018-07-31 14:55:30,2018-07-31 14:55:30,0.000s,PASSED
"Statement - setTableValues(6, i, 3)",Chrome 67.0.3396.99,Wednesday column,2018-07-31 14:55:30,2018-07-31 14:55:30,0.000s,PASSED
click,Chrome 67.0.3396.99,,2018-07-31 14:55:30,2018-07-31 14:55:30,0.052s,PASSED
"Statement - If (!(workday_time[i][j].equals("""")))",Chrome 67.0.3396.99,,2018-07-31 14:55:30,2018-07-31 14:55:30,0.000s,PASSED
"Statement - setTableValues(7, i, 4)",Chrome 67.0.3396.99,Thursday column,2018-07-31 14:55:30,2018-07-31 14:55:30,0.000s,PASSED
click,Chrome 67.0.3396.99,,2018-07-31 14:55:30,2018-07-31 14:55:30,0.063s,PASSED
"Statement - If (!(workday_time[i][j].equals("""")))",Chrome 67.0.3396.99,,2018-07-31 14:55:30,2018-07-31 14:55:30,0.000s,PASSED
"Statement - setTableValues(8, i, 5)",Chrome 67.0.3396.99,Friday column,2018-07-31 14:55:30,2018-07-31 14:55:30,0.001s,PASSED
click,Chrome 67.0.3396.99,,2018-07-31 14:55:30,2018-07-31 14:55:30,0.049s,PASSED
"Statement - If (!(workday_time[i][j].equals("""")))",Chrome 67.0.3396.99,,2018-07-31 14:55:30,2018-07-31 14:55:30,0.001s,PASSED
"Statement - setTableValues(4, i, 1)",Chrome 67.0.3396.99,Monday column,2018-07-31 14:55:30,2018-07-31 14:55:30,0.000s,PASSED
click,Chrome 67.0.3396.99,,2018-07-31 14:55:30,2018-07-31 14:55:31,0.055s,PASSED
"Statement - If (!(workday_time[i][j].equals("""")))",Chrome 67.0.3396.99,,2018-07-31 14:55:31,2018-07-31 14:55:31,0.105s,PASSED
"Statement - setTableValues(5, i, 2)",Chrome 67.0.3396.99,Tuesday column,2018-07-31 14:55:31,2018-07-31 14:55:31,0.000s,PASSED
click,Chrome 67.0.3396.99,,2018-07-31 14:55:31,2018-07-31 14:55:31,0.082s,PASSED
"Statement - If (!(workday_time[i][j].equals("""")))",Chrome 67.0.3396.99,,2018-07-31 14:55:31,2018-07-31 14:55:31,0.000s,PASSED
"Statement - setTableValues(6, i, 3)",Chrome 67.0.3396.99,Wednesday column,2018-07-31 14:55:31,2018-07-31 14:55:31,0.001s,PASSED
click,Chrome 67.0.3396.99,,2018-07-31 14:55:31,2018-07-31 14:55:31,0.058s,PASSED
"Statement - If (!(workday_time[i][j].equals("""")))",Chrome 67.0.3396.99,,2018-07-31 14:55:31,2018-07-31 14:55:31,0.000s,PASSED
"Statement - setTableValues(7, i, 4)",Chrome 67.0.3396.99,Thursday column,2018-07-31 14:55:31,2018-07-31 14:55:31,0.000s,PASSED
click,Chrome 67.0.3396.99,,2018-07-31 14:55:31,2018-07-31 14:55:31,0.047s,PASSED
"Statement - If (!(workday_time[i][j].equals("""")))",Chrome 67.0.3396.99,,2018-07-31 14:55:31,2018-07-31 14:55:31,0.000s,PASSED
"Statement - setTableValues(8, i, 5)",Chrome 67.0.3396.99,Friday column,2018-07-31 14:55:31,2018-07-31 14:55:31,0.000s,PASSED
click,Chrome 67.0.3396.99,,2018-07-31 14:55:31,2018-07-31 14:55:31,0.052s,PASSED
"Statement - If (!(workday_time[i][j].equals("""")))",Chrome 67.0.3396.99,,2018-07-31 14:55:31,2018-07-31 14:55:31,0.000s,PASSED
