Suite/Test/Step Name,Browser,Description,Start time,End time,Duration,Status
Timesheet,Chrome 67.0.3396.99,,2018-07-10 10:48:59,2018-07-10 10:50:30,1m - 31.656s,ERROR
,,,,,,
Test Cases/Login to Navision,Chrome 67.0.3396.99,,2018-07-10 10:48:59,2018-07-10 10:49:39,39.921s,PASSED
openBrowser,Chrome 67.0.3396.99,,2018-07-10 10:48:59,2018-07-10 10:49:35,35.354s,PASSED
waitForElementPresent,Chrome 67.0.3396.99,,2018-07-10 10:49:35,2018-07-10 10:49:35,0.081s,PASSED
navigateToUrl,Chrome 67.0.3396.99,,2018-07-10 10:49:35,2018-07-10 10:49:35,0.236s,PASSED
waitForElementPresent,Chrome 67.0.3396.99,,2018-07-10 10:49:35,2018-07-10 10:49:35,0.028s,PASSED
maximizeWindow,Chrome 67.0.3396.99,,2018-07-10 10:49:35,2018-07-10 10:49:36,1.141s,PASSED
click,Chrome 67.0.3396.99,,2018-07-10 10:49:36,2018-07-10 10:49:36,0.080s,PASSED
click,Chrome 67.0.3396.99,,2018-07-10 10:49:36,2018-07-10 10:49:37,0.594s,PASSED
waitForElementPresent,Chrome 67.0.3396.99,,2018-07-10 10:49:37,2018-07-10 10:49:37,0.539s,PASSED
switchToFrame,Chrome 67.0.3396.99,,2018-07-10 10:49:37,2018-07-10 10:49:37,0.054s,PASSED
Statement - driver = com.kms.katalon.core.webui.driver.DriverFactory.getWebDriver(),Chrome 67.0.3396.99,To locate table,2018-07-10 10:49:37,2018-07-10 10:49:37,0.008s,PASSED
"Statement - Table = driver.findElement(org.openqa.selenium.By.xpath(""//table[(@summary = 'Time Sheet')]//tbody""))",Chrome 67.0.3396.99,,2018-07-10 10:49:37,2018-07-10 10:49:37,0.039s,PASSED
"Statement - rows_table = Table.findElements(org.openqa.selenium.By.tagName(""tr""))",Chrome 67.0.3396.99,To locate rows of table it will Capture all the rows available in the table,2018-07-10 10:49:37,2018-07-10 10:49:37,0.024s,PASSED
Statement - rows_count = rows_table.size() - 1,Chrome 67.0.3396.99,To calculate no of rows In table,2018-07-10 10:49:37,2018-07-10 10:49:37,0.002s,PASSED
"Statement - println(""No. of rows: "" + rows_count)",Chrome 67.0.3396.99,,2018-07-10 10:49:37,2018-07-10 10:49:37,0.002s,PASSED
Statement - workday_time = <not implemented yet for class: org.codehaus.groovy.ast.expr.EmptyExpression>,Chrome 67.0.3396.99,,2018-07-10 10:49:37,2018-07-10 10:49:37,0.001s,PASSED
Statement - workday_time = [],Chrome 67.0.3396.99,,2018-07-10 10:49:37,2018-07-10 10:49:37,0.001s,PASSED
"Statement - For ([i = 0, i < rows_count, (i++)])",Chrome 67.0.3396.99,Loop will execute for all the rows of the table,2018-07-10 10:49:37,2018-07-10 10:49:38,0.540s,PASSED
Statement - arrayLength = workday_time.size(),Chrome 67.0.3396.99,,2018-07-10 10:49:38,2018-07-10 10:49:38,0.002s,PASSED
Statement - arrayLength = arrayLength,Chrome 67.0.3396.99,,2018-07-10 10:49:38,2018-07-10 10:49:38,0.010s,PASSED
Statement - workday_time = workday_time,Chrome 67.0.3396.99,,2018-07-10 10:49:38,2018-07-10 10:49:38,0.000s,PASSED
Statement - println(workday_time),Chrome 67.0.3396.99,,2018-07-10 10:49:38,2018-07-10 10:49:38,0.001s,PASSED
Statement - println(arrayLength),Chrome 67.0.3396.99,,2018-07-10 10:49:38,2018-07-10 10:49:38,0.001s,PASSED
closeBrowser,Chrome 67.0.3396.99,,2018-07-10 10:49:38,2018-07-10 10:49:39,0.721s,PASSED
,,,,,,
Test Cases/Login in to workday,Chrome 67.0.3396.99,,2018-07-10 10:49:39,2018-07-10 10:50:29,50.620s,ERROR
openBrowser,Chrome 67.0.3396.99,,2018-07-10 10:49:39,2018-07-10 10:50:06,27.033s,PASSED
navigateToUrl,Chrome 67.0.3396.99,,2018-07-10 10:50:06,2018-07-10 10:50:07,1.155s,PASSED
setText,Chrome 67.0.3396.99,,2018-07-10 10:50:07,2018-07-10 10:50:11,3.904s,PASSED
setText,Chrome 67.0.3396.99,,2018-07-10 10:50:11,2018-07-10 10:50:11,0.121s,PASSED
click,Chrome 67.0.3396.99,,2018-07-10 10:50:11,2018-07-10 10:50:12,0.086s,PASSED
click,Chrome 67.0.3396.99,,2018-07-10 10:50:12,2018-07-10 10:50:16,4.634s,PASSED
maximizeWindow,Chrome 67.0.3396.99,,2018-07-10 10:50:16,2018-07-10 10:50:17,1.132s,PASSED
click,Chrome 67.0.3396.99,,2018-07-10 10:50:17,2018-07-10 10:50:17,0.094s,PASSED
click,Chrome 67.0.3396.99,,2018-07-10 10:50:17,2018-07-10 10:50:19,1.173s,PASSED
click,Chrome 67.0.3396.99,,2018-07-10 10:50:19,2018-07-10 10:50:20,1.106s,PASSED
click,Chrome 67.0.3396.99,,2018-07-10 10:50:20,2018-07-10 10:50:20,0.132s,PASSED
waitForElementVisible,Chrome 67.0.3396.99,,2018-07-10 10:50:20,2018-07-10 10:50:20,0.059s,PASSED
click,Chrome 67.0.3396.99,,2018-07-10 10:50:20,2018-07-10 10:50:20,0.051s,PASSED
waitForElementVisible,Chrome 67.0.3396.99,,2018-07-10 10:50:20,2018-07-10 10:50:20,0.029s,PASSED
sendKeys,Chrome 67.0.3396.99,,2018-07-10 10:50:20,2018-07-10 10:50:20,0.072s,PASSED
waitForElementVisible,Chrome 67.0.3396.99,,2018-07-10 10:50:20,2018-07-10 10:50:29,9.216s,PASSED
Statement - driver = com.kms.katalon.core.webui.driver.DriverFactory.getWebDriver(),Chrome 67.0.3396.99,,2018-07-10 10:50:29,2018-07-10 10:50:29,0.001s,PASSED
"Statement - Table = driver.findElement(org.openqa.selenium.By.xpath(""//table[@class='mainTable']""))",Chrome 67.0.3396.99,,2018-07-10 10:50:29,2018-07-10 10:50:29,0.021s,PASSED
"Statement - rows_table = Table.findElements(org.openqa.selenium.By.tagName(""tr""))",Chrome 67.0.3396.99,,2018-07-10 10:50:29,2018-07-10 10:50:29,0.016s,PASSED
Statement - println(arrayLength),Chrome 67.0.3396.99,,2018-07-10 10:50:29,2018-07-10 10:50:29,0.001s,PASSED
Statement - println(workday_time),Chrome 67.0.3396.99,,2018-07-10 10:50:29,2018-07-10 10:50:29,0.000s,PASSED
"Statement - For ([i = 0, i < arrayLength, (i++)])",Chrome 67.0.3396.99,,2018-07-10 10:50:29,2018-07-10 10:50:29,0.100s,PASSED
Statement - charLength = workday_time[i][0].toString().size(),Chrome 67.0.3396.99,,2018-07-10 10:50:29,2018-07-10 10:50:29,0.008s,PASSED
Statement - println(charLength),Chrome 67.0.3396.99,,2018-07-10 10:50:29,2018-07-10 10:50:29,0.001s,PASSED
"Statement - For ([x = 0, x < charLength, (x++)])",Chrome 67.0.3396.99,,2018-07-10 10:50:29,2018-07-10 10:50:29,0.016s,PASSED
