Suite/Test/Step Name,Browser,Description,Start time,End time,Duration,Status
Timesheet,Chrome 67.0.3396.99,,2018-07-10 07:55:16,2018-07-10 07:56:36,1m - 20.276s,FAILED
,,,,,,
Test Cases/Login to Navision,Chrome 67.0.3396.99,,2018-07-10 07:55:16,2018-07-10 07:55:52,35.513s,PASSED
openBrowser,Chrome 67.0.3396.99,,2018-07-10 07:55:16,2018-07-10 07:55:47,30.944s,PASSED
waitForElementPresent,Chrome 67.0.3396.99,,2018-07-10 07:55:47,2018-07-10 07:55:47,0.083s,PASSED
navigateToUrl,Chrome 67.0.3396.99,,2018-07-10 07:55:47,2018-07-10 07:55:48,0.210s,PASSED
waitForElementPresent,Chrome 67.0.3396.99,,2018-07-10 07:55:48,2018-07-10 07:55:48,0.027s,PASSED
maximizeWindow,Chrome 67.0.3396.99,,2018-07-10 07:55:48,2018-07-10 07:55:49,1.140s,PASSED
click,Chrome 67.0.3396.99,,2018-07-10 07:55:49,2018-07-10 07:55:49,0.085s,PASSED
click,Chrome 67.0.3396.99,,2018-07-10 07:55:49,2018-07-10 07:55:50,0.598s,PASSED
waitForElementPresent,Chrome 67.0.3396.99,,2018-07-10 07:55:50,2018-07-10 07:55:50,0.539s,PASSED
switchToFrame,Chrome 67.0.3396.99,,2018-07-10 07:55:50,2018-07-10 07:55:50,0.054s,PASSED
Statement - driver = com.kms.katalon.core.webui.driver.DriverFactory.getWebDriver(),Chrome 67.0.3396.99,To locate table,2018-07-10 07:55:50,2018-07-10 07:55:50,0.007s,PASSED
"Statement - Table = driver.findElement(org.openqa.selenium.By.xpath(""//table[(@summary = 'Time Sheet')]//tbody""))",Chrome 67.0.3396.99,,2018-07-10 07:55:50,2018-07-10 07:55:50,0.041s,PASSED
"Statement - rows_table = Table.findElements(org.openqa.selenium.By.tagName(""tr""))",Chrome 67.0.3396.99,To locate rows of table it will Capture all the rows available in the table,2018-07-10 07:55:50,2018-07-10 07:55:50,0.023s,PASSED
Statement - rows_count = rows_table.size() - 1,Chrome 67.0.3396.99,To calculate no of rows In table,2018-07-10 07:55:50,2018-07-10 07:55:50,0.002s,PASSED
"Statement - println(""No. of rows: "" + rows_count)",Chrome 67.0.3396.99,,2018-07-10 07:55:50,2018-07-10 07:55:50,0.003s,PASSED
Statement - workday_time = <not implemented yet for class: org.codehaus.groovy.ast.expr.EmptyExpression>,Chrome 67.0.3396.99,,2018-07-10 07:55:50,2018-07-10 07:55:50,0.001s,PASSED
Statement - workday_time = [],Chrome 67.0.3396.99,,2018-07-10 07:55:50,2018-07-10 07:55:50,0.001s,PASSED
"Statement - For ([i = 0, i < rows_count, (i++)])",Chrome 67.0.3396.99,Loop will execute for all the rows of the table,2018-07-10 07:55:50,2018-07-10 07:55:51,0.546s,PASSED
Statement - arrayLength = workday_time.size(),Chrome 67.0.3396.99,,2018-07-10 07:55:51,2018-07-10 07:55:51,0.002s,PASSED
Statement - arrayLength = arrayLength,Chrome 67.0.3396.99,,2018-07-10 07:55:51,2018-07-10 07:55:51,0.010s,PASSED
Statement - workday_time = workday_time,Chrome 67.0.3396.99,,2018-07-10 07:55:51,2018-07-10 07:55:51,0.000s,PASSED
Statement - println(workday_time),Chrome 67.0.3396.99,,2018-07-10 07:55:51,2018-07-10 07:55:51,0.000s,PASSED
Statement - println(arrayLength),Chrome 67.0.3396.99,,2018-07-10 07:55:51,2018-07-10 07:55:51,0.001s,PASSED
closeBrowser,Chrome 67.0.3396.99,,2018-07-10 07:55:51,2018-07-10 07:55:52,0.731s,PASSED
,,,,,,
Test Cases/Login in to workday,Chrome 67.0.3396.99,,2018-07-10 07:55:52,2018-07-10 07:56:35,43.642s,FAILED
openBrowser,Chrome 67.0.3396.99,,2018-07-10 07:55:52,2018-07-10 07:56:19,26.928s,PASSED
navigateToUrl,Chrome 67.0.3396.99,,2018-07-10 07:56:19,2018-07-10 07:56:20,1.156s,PASSED
setText,Chrome 67.0.3396.99,,2018-07-10 07:56:20,2018-07-10 07:56:23,2.436s,PASSED
setText,Chrome 67.0.3396.99,,2018-07-10 07:56:23,2018-07-10 07:56:23,0.137s,PASSED
click,Chrome 67.0.3396.99,,2018-07-10 07:56:23,2018-07-10 07:56:23,0.101s,PASSED
click,Chrome 67.0.3396.99,,2018-07-10 07:56:23,2018-07-10 07:56:29,6.119s,PASSED
maximizeWindow,Chrome 67.0.3396.99,,2018-07-10 07:56:29,2018-07-10 07:56:30,1.136s,PASSED
click,Chrome 67.0.3396.99,,2018-07-10 07:56:30,2018-07-10 07:56:31,0.610s,PASSED
click,Chrome 67.0.3396.99,,2018-07-10 07:56:31,2018-07-10 07:56:32,1.102s,PASSED
click,Chrome 67.0.3396.99,,2018-07-10 07:56:32,2018-07-10 07:56:33,1.111s,PASSED
click,Chrome 67.0.3396.99,,2018-07-10 07:56:33,2018-07-10 07:56:33,0.150s,PASSED
waitForElementVisible,Chrome 67.0.3396.99,,2018-07-10 07:56:33,2018-07-10 07:56:33,0.074s,PASSED
click,Chrome 67.0.3396.99,,2018-07-10 07:56:33,2018-07-10 07:56:33,0.047s,PASSED
waitForElementVisible,Chrome 67.0.3396.99,,2018-07-10 07:56:33,2018-07-10 07:56:33,0.026s,PASSED
sendKeys,Chrome 67.0.3396.99,,2018-07-10 07:56:33,2018-07-10 07:56:33,0.072s,PASSED
waitForElementVisible,Chrome 67.0.3396.99,,2018-07-10 07:56:33,2018-07-10 07:56:34,1.132s,PASSED
Statement - driver = com.kms.katalon.core.webui.driver.DriverFactory.getWebDriver(),Chrome 67.0.3396.99,,2018-07-10 07:56:34,2018-07-10 07:56:34,0.000s,PASSED
"Statement - Table = driver.findElement(org.openqa.selenium.By.xpath(""//table[@class='mainTable']""))",Chrome 67.0.3396.99,,2018-07-10 07:56:34,2018-07-10 07:56:34,0.018s,PASSED
"Statement - rows_table = Table.findElements(org.openqa.selenium.By.tagName(""tr""))",Chrome 67.0.3396.99,,2018-07-10 07:56:34,2018-07-10 07:56:34,0.016s,PASSED
Statement - println(arrayLength),Chrome 67.0.3396.99,,2018-07-10 07:56:34,2018-07-10 07:56:34,0.000s,PASSED
Statement - println(workday_time),Chrome 67.0.3396.99,,2018-07-10 07:56:34,2018-07-10 07:56:34,0.000s,PASSED
"Statement - For ([i = 0, i < arrayLength, (i++)])",Chrome 67.0.3396.99,,2018-07-10 07:56:34,2018-07-10 07:56:35,0.796s,FAILED
