Suite/Test/Step Name,Browser,Description,Start time,End time,Duration,Status
Timesheet,Chrome 67.0.3396.99,,2018-07-13 13:46:36,2018-07-13 13:49:06,2m - 30.564s,PASSED
,,,,,,
Test Cases/Login to Navision,Chrome 67.0.3396.99,,2018-07-13 13:46:36,2018-07-13 13:47:17,41.168s,PASSED
openBrowser,Chrome 67.0.3396.99,,2018-07-13 13:46:36,2018-07-13 13:47:12,35.423s,PASSED
waitForElementPresent,Chrome 67.0.3396.99,,2018-07-13 13:47:12,2018-07-13 13:47:12,0.076s,PASSED
navigateToUrl,Chrome 67.0.3396.99,,2018-07-13 13:47:12,2018-07-13 13:47:12,0.197s,PASSED
waitForElementPresent,Chrome 67.0.3396.99,,2018-07-13 13:47:12,2018-07-13 13:47:12,0.020s,PASSED
maximizeWindow,Chrome 67.0.3396.99,,2018-07-13 13:47:12,2018-07-13 13:47:13,1.141s,PASSED
click,Chrome 67.0.3396.99,,2018-07-13 13:47:13,2018-07-13 13:47:13,0.083s,PASSED
click,Chrome 67.0.3396.99,,2018-07-13 13:47:13,2018-07-13 13:47:14,0.593s,PASSED
waitForElementPresent,Chrome 67.0.3396.99,,2018-07-13 13:47:14,2018-07-13 13:47:14,0.534s,PASSED
switchToFrame,Chrome 67.0.3396.99,,2018-07-13 13:47:14,2018-07-13 13:47:14,0.050s,PASSED
Statement - driver = com.kms.katalon.core.webui.driver.DriverFactory.getWebDriver(),Chrome 67.0.3396.99,To locate table,2018-07-13 13:47:14,2018-07-13 13:47:14,0.007s,PASSED
"Statement - Table = driver.findElement(org.openqa.selenium.By.xpath(""//table[(@summary = 'Time Sheet')]//tbody""))",Chrome 67.0.3396.99,,2018-07-13 13:47:14,2018-07-13 13:47:14,0.034s,PASSED
"Statement - rows_table = Table.findElements(org.openqa.selenium.By.tagName(""tr""))",Chrome 67.0.3396.99,To locate rows of table it will Capture all the rows available in the table,2018-07-13 13:47:14,2018-07-13 13:47:15,0.023s,PASSED
Statement - rows_count = rows_table.size() - 1,Chrome 67.0.3396.99,To calculate no of rows In table,2018-07-13 13:47:15,2018-07-13 13:47:15,0.003s,PASSED
"Statement - println(""No. of rows: "" + rows_count)",Chrome 67.0.3396.99,,2018-07-13 13:47:15,2018-07-13 13:47:15,0.002s,PASSED
Statement - workday_time = <not implemented yet for class: org.codehaus.groovy.ast.expr.EmptyExpression>,Chrome 67.0.3396.99,,2018-07-13 13:47:15,2018-07-13 13:47:15,0.000s,PASSED
Statement - workday_time = [],Chrome 67.0.3396.99,,2018-07-13 13:47:15,2018-07-13 13:47:15,0.000s,PASSED
"Statement - For ([i = 0, i < rows_count, (i++)])",Chrome 67.0.3396.99,Loop will execute for all the rows of the table,2018-07-13 13:47:15,2018-07-13 13:47:16,1.792s,PASSED
Statement - arrayLength = workday_time.size(),Chrome 67.0.3396.99,,2018-07-13 13:47:16,2018-07-13 13:47:16,0.002s,PASSED
Statement - arrayLength = arrayLength,Chrome 67.0.3396.99,,2018-07-13 13:47:16,2018-07-13 13:47:16,0.012s,PASSED
Statement - workday_time = workday_time,Chrome 67.0.3396.99,,2018-07-13 13:47:16,2018-07-13 13:47:16,0.000s,PASSED
Statement - println(workday_time),Chrome 67.0.3396.99,,2018-07-13 13:47:16,2018-07-13 13:47:16,0.001s,PASSED
Statement - println(arrayLength),Chrome 67.0.3396.99,,2018-07-13 13:47:16,2018-07-13 13:47:16,0.001s,PASSED
closeBrowser,Chrome 67.0.3396.99,,2018-07-13 13:47:16,2018-07-13 13:47:17,0.705s,PASSED
,,,,,,
Test Cases/Login in to workday,Chrome 67.0.3396.99,,2018-07-13 13:47:17,2018-07-13 13:49:06,1m - 49.011s,PASSED
openBrowser,Chrome 67.0.3396.99,,2018-07-13 13:47:18,2018-07-13 13:47:45,27.648s,PASSED
navigateToUrl,Chrome 67.0.3396.99,,2018-07-13 13:47:45,2018-07-13 13:47:46,1.154s,PASSED
setText,Chrome 67.0.3396.99,,2018-07-13 13:47:46,2018-07-13 13:47:49,2.398s,PASSED
setText,Chrome 67.0.3396.99,,2018-07-13 13:47:49,2018-07-13 13:47:49,0.115s,PASSED
click,Chrome 67.0.3396.99,,2018-07-13 13:47:49,2018-07-13 13:47:49,0.076s,PASSED
click,Chrome 67.0.3396.99,,2018-07-13 13:47:49,2018-07-13 13:48:00,11.389s,PASSED
maximizeWindow,Chrome 67.0.3396.99,,2018-07-13 13:48:00,2018-07-13 13:48:01,1.131s,PASSED
click,Chrome 67.0.3396.99,,2018-07-13 13:48:01,2018-07-13 13:48:02,0.585s,PASSED
click,Chrome 67.0.3396.99,,2018-07-13 13:48:02,2018-07-13 13:48:03,1.104s,PASSED
click,Chrome 67.0.3396.99,,2018-07-13 13:48:03,2018-07-13 13:48:04,1.151s,PASSED
click,Chrome 67.0.3396.99,,2018-07-13 13:48:04,2018-07-13 13:48:04,0.118s,PASSED
waitForElementPresent,Chrome 67.0.3396.99,,2018-07-13 13:48:04,2018-07-13 13:48:04,0.031s,PASSED
waitForElementPresent,Chrome 67.0.3396.99,,2018-07-13 13:48:04,2018-07-13 13:48:04,0.027s,PASSED
waitForElementPresent,Chrome 67.0.3396.99,,2018-07-13 13:48:04,2018-07-13 13:48:04,0.020s,PASSED
waitForElementPresent,Chrome 67.0.3396.99,,2018-07-13 13:48:04,2018-07-13 13:48:05,0.021s,PASSED
sendKeys,Chrome 67.0.3396.99,,2018-07-13 13:48:05,2018-07-13 13:48:05,0.122s,PASSED
waitForElementVisible,Chrome 67.0.3396.99,,2018-07-13 13:48:05,2018-07-13 13:48:14,8.966s,PASSED
Statement - driver = com.kms.katalon.core.webui.driver.DriverFactory.getWebDriver(),Chrome 67.0.3396.99,,2018-07-13 13:48:14,2018-07-13 13:48:14,0.000s,PASSED
"Statement - Table = driver.findElement(org.openqa.selenium.By.xpath(""//table[@class='mainTable']""))",Chrome 67.0.3396.99,,2018-07-13 13:48:14,2018-07-13 13:48:14,0.015s,PASSED
Statement - arrayLength = arrayLength,Chrome 67.0.3396.99,,2018-07-13 13:48:14,2018-07-13 13:48:14,0.000s,PASSED
"Statement - For ([i = 0, i < arrayLength, (i++)])",Chrome 67.0.3396.99,,2018-07-13 13:48:14,2018-07-13 13:48:16,2.134s,PASSED
Statement - timeTypeValue = workday_time[i][0].toString(),Chrome 67.0.3396.99,,2018-07-13 13:48:16,2018-07-13 13:48:16,0.003s,PASSED
click,Chrome 67.0.3396.99,,2018-07-13 13:48:16,2018-07-13 13:48:16,0.114s,PASSED
focus,Chrome 67.0.3396.99,,2018-07-13 13:48:16,2018-07-13 13:48:16,0.081s,PASSED
delay,Chrome 67.0.3396.99,,2018-07-13 13:48:16,2018-07-13 13:48:17,1.002s,PASSED
sendKeys,Chrome 67.0.3396.99,,2018-07-13 13:48:17,2018-07-13 13:48:17,0.434s,PASSED
sendKeys,Chrome 67.0.3396.99,,2018-07-13 13:48:17,2018-07-13 13:48:17,0.038s,PASSED
delay,Chrome 67.0.3396.99,,2018-07-13 13:48:17,2018-07-13 13:48:18,1.002s,PASSED
waitForElementPresent,Chrome 67.0.3396.99,,2018-07-13 13:48:18,2018-07-13 13:48:18,0.030s,PASSED
click,Chrome 67.0.3396.99,,2018-07-13 13:48:18,2018-07-13 13:48:19,0.127s,PASSED
sendKeys,Chrome 67.0.3396.99,,2018-07-13 13:48:19,2018-07-13 13:48:19,0.054s,PASSED
click,Chrome 67.0.3396.99,,2018-07-13 13:48:19,2018-07-13 13:48:19,0.082s,PASSED
sendKeys,Chrome 67.0.3396.99,,2018-07-13 13:48:19,2018-07-13 13:48:19,0.071s,PASSED
click,Chrome 67.0.3396.99,,2018-07-13 13:48:19,2018-07-13 13:48:19,0.097s,PASSED
sendKeys,Chrome 67.0.3396.99,,2018-07-13 13:48:19,2018-07-13 13:48:19,0.083s,PASSED
click,Chrome 67.0.3396.99,,2018-07-13 13:48:19,2018-07-13 13:48:19,0.088s,PASSED
sendKeys,Chrome 67.0.3396.99,,2018-07-13 13:48:19,2018-07-13 13:48:19,0.053s,PASSED
click,Chrome 67.0.3396.99,,2018-07-13 13:48:19,2018-07-13 13:48:19,0.077s,PASSED
sendKeys,Chrome 67.0.3396.99,,2018-07-13 13:48:19,2018-07-13 13:48:21,2.154s,PASSED
Statement - timeTypeValue = workday_time[i][0].toString(),Chrome 67.0.3396.99,,2018-07-13 13:48:21,2018-07-13 13:48:21,0.000s,PASSED
click,Chrome 67.0.3396.99,,2018-07-13 13:48:21,2018-07-13 13:48:21,0.144s,PASSED
focus,Chrome 67.0.3396.99,,2018-07-13 13:48:21,2018-07-13 13:48:22,0.066s,PASSED
delay,Chrome 67.0.3396.99,,2018-07-13 13:48:22,2018-07-13 13:48:23,1.001s,PASSED
sendKeys,Chrome 67.0.3396.99,,2018-07-13 13:48:23,2018-07-13 13:48:23,0.451s,PASSED
sendKeys,Chrome 67.0.3396.99,,2018-07-13 13:48:23,2018-07-13 13:48:23,0.036s,PASSED
delay,Chrome 67.0.3396.99,,2018-07-13 13:48:23,2018-07-13 13:48:24,1.000s,PASSED
waitForElementPresent,Chrome 67.0.3396.99,,2018-07-13 13:48:24,2018-07-13 13:48:24,0.020s,PASSED
click,Chrome 67.0.3396.99,,2018-07-13 13:48:24,2018-07-13 13:48:24,0.073s,PASSED
sendKeys,Chrome 67.0.3396.99,,2018-07-13 13:48:24,2018-07-13 13:48:24,0.046s,PASSED
click,Chrome 67.0.3396.99,,2018-07-13 13:48:24,2018-07-13 13:48:24,0.069s,PASSED
sendKeys,Chrome 67.0.3396.99,,2018-07-13 13:48:24,2018-07-13 13:48:24,0.080s,PASSED
click,Chrome 67.0.3396.99,,2018-07-13 13:48:24,2018-07-13 13:48:24,0.089s,PASSED
sendKeys,Chrome 67.0.3396.99,,2018-07-13 13:48:24,2018-07-13 13:48:25,0.089s,PASSED
click,Chrome 67.0.3396.99,,2018-07-13 13:48:25,2018-07-13 13:48:25,0.078s,PASSED
sendKeys,Chrome 67.0.3396.99,,2018-07-13 13:48:25,2018-07-13 13:48:25,0.052s,PASSED
click,Chrome 67.0.3396.99,,2018-07-13 13:48:25,2018-07-13 13:48:25,0.078s,PASSED
sendKeys,Chrome 67.0.3396.99,,2018-07-13 13:48:25,2018-07-13 13:48:27,2.117s,PASSED
Statement - timeTypeValue = workday_time[i][0].toString(),Chrome 67.0.3396.99,,2018-07-13 13:48:27,2018-07-13 13:48:27,0.001s,PASSED
click,Chrome 67.0.3396.99,,2018-07-13 13:48:27,2018-07-13 13:48:27,0.084s,PASSED
focus,Chrome 67.0.3396.99,,2018-07-13 13:48:27,2018-07-13 13:48:27,0.070s,PASSED
delay,Chrome 67.0.3396.99,,2018-07-13 13:48:27,2018-07-13 13:48:28,1.000s,PASSED
sendKeys,Chrome 67.0.3396.99,,2018-07-13 13:48:28,2018-07-13 13:48:28,0.465s,PASSED
sendKeys,Chrome 67.0.3396.99,,2018-07-13 13:48:28,2018-07-13 13:48:29,0.050s,PASSED
delay,Chrome 67.0.3396.99,,2018-07-13 13:48:29,2018-07-13 13:48:30,1.001s,PASSED
waitForElementPresent,Chrome 67.0.3396.99,,2018-07-13 13:48:30,2018-07-13 13:48:30,0.017s,PASSED
click,Chrome 67.0.3396.99,,2018-07-13 13:48:30,2018-07-13 13:48:30,0.144s,PASSED
sendKeys,Chrome 67.0.3396.99,,2018-07-13 13:48:30,2018-07-13 13:48:30,0.043s,PASSED
click,Chrome 67.0.3396.99,,2018-07-13 13:48:30,2018-07-13 13:48:30,0.098s,PASSED
sendKeys,Chrome 67.0.3396.99,,2018-07-13 13:48:30,2018-07-13 13:48:30,0.056s,PASSED
click,Chrome 67.0.3396.99,,2018-07-13 13:48:30,2018-07-13 13:48:30,0.081s,PASSED
sendKeys,Chrome 67.0.3396.99,,2018-07-13 13:48:30,2018-07-13 13:48:30,0.080s,PASSED
click,Chrome 67.0.3396.99,,2018-07-13 13:48:30,2018-07-13 13:48:30,0.109s,PASSED
sendKeys,Chrome 67.0.3396.99,,2018-07-13 13:48:30,2018-07-13 13:48:30,0.120s,PASSED
click,Chrome 67.0.3396.99,,2018-07-13 13:48:30,2018-07-13 13:48:30,0.095s,PASSED
sendKeys,Chrome 67.0.3396.99,,2018-07-13 13:48:30,2018-07-13 13:48:32,2.115s,PASSED
Statement - timeTypeValue = workday_time[i][0].toString(),Chrome 67.0.3396.99,,2018-07-13 13:48:32,2018-07-13 13:48:32,0.001s,PASSED
click,Chrome 67.0.3396.99,,2018-07-13 13:48:32,2018-07-13 13:48:33,0.113s,PASSED
focus,Chrome 67.0.3396.99,,2018-07-13 13:48:33,2018-07-13 13:48:33,0.077s,PASSED
delay,Chrome 67.0.3396.99,,2018-07-13 13:48:33,2018-07-13 13:48:34,1.002s,PASSED
sendKeys,Chrome 67.0.3396.99,,2018-07-13 13:48:34,2018-07-13 13:48:34,0.348s,PASSED
sendKeys,Chrome 67.0.3396.99,,2018-07-13 13:48:34,2018-07-13 13:48:34,0.039s,PASSED
delay,Chrome 67.0.3396.99,,2018-07-13 13:48:34,2018-07-13 13:48:35,1.001s,PASSED
waitForElementPresent,Chrome 67.0.3396.99,,2018-07-13 13:48:35,2018-07-13 13:48:35,0.015s,PASSED
click,Chrome 67.0.3396.99,,2018-07-13 13:48:35,2018-07-13 13:48:35,0.099s,PASSED
sendKeys,Chrome 67.0.3396.99,,2018-07-13 13:48:35,2018-07-13 13:48:35,0.045s,PASSED
click,Chrome 67.0.3396.99,,2018-07-13 13:48:35,2018-07-13 13:48:35,0.102s,PASSED
sendKeys,Chrome 67.0.3396.99,,2018-07-13 13:48:35,2018-07-13 13:48:35,0.069s,PASSED
click,Chrome 67.0.3396.99,,2018-07-13 13:48:35,2018-07-13 13:48:35,0.076s,PASSED
sendKeys,Chrome 67.0.3396.99,,2018-07-13 13:48:35,2018-07-13 13:48:36,0.047s,PASSED
click,Chrome 67.0.3396.99,,2018-07-13 13:48:36,2018-07-13 13:48:36,0.083s,PASSED
sendKeys,Chrome 67.0.3396.99,,2018-07-13 13:48:36,2018-07-13 13:48:36,0.062s,PASSED
click,Chrome 67.0.3396.99,,2018-07-13 13:48:36,2018-07-13 13:48:36,0.077s,PASSED
sendKeys,Chrome 67.0.3396.99,,2018-07-13 13:48:36,2018-07-13 13:48:38,2.152s,PASSED
Statement - timeTypeValue = workday_time[i][0].toString(),Chrome 67.0.3396.99,,2018-07-13 13:48:38,2018-07-13 13:48:38,0.000s,PASSED
click,Chrome 67.0.3396.99,,2018-07-13 13:48:38,2018-07-13 13:48:38,0.111s,PASSED
focus,Chrome 67.0.3396.99,,2018-07-13 13:48:38,2018-07-13 13:48:38,0.104s,PASSED
delay,Chrome 67.0.3396.99,,2018-07-13 13:48:38,2018-07-13 13:48:39,1.000s,PASSED
sendKeys,Chrome 67.0.3396.99,,2018-07-13 13:48:39,2018-07-13 13:48:40,0.622s,PASSED
sendKeys,Chrome 67.0.3396.99,,2018-07-13 13:48:40,2018-07-13 13:48:40,0.040s,PASSED
delay,Chrome 67.0.3396.99,,2018-07-13 13:48:40,2018-07-13 13:48:41,1.002s,PASSED
waitForElementPresent,Chrome 67.0.3396.99,,2018-07-13 13:48:41,2018-07-13 13:48:41,0.022s,PASSED
click,Chrome 67.0.3396.99,,2018-07-13 13:48:41,2018-07-13 13:48:41,0.073s,PASSED
sendKeys,Chrome 67.0.3396.99,,2018-07-13 13:48:41,2018-07-13 13:48:41,0.052s,PASSED
click,Chrome 67.0.3396.99,,2018-07-13 13:48:41,2018-07-13 13:48:41,0.076s,PASSED
sendKeys,Chrome 67.0.3396.99,,2018-07-13 13:48:41,2018-07-13 13:48:41,0.046s,PASSED
click,Chrome 67.0.3396.99,,2018-07-13 13:48:41,2018-07-13 13:48:41,0.105s,PASSED
sendKeys,Chrome 67.0.3396.99,,2018-07-13 13:48:41,2018-07-13 13:48:41,0.055s,PASSED
click,Chrome 67.0.3396.99,,2018-07-13 13:48:41,2018-07-13 13:48:41,0.078s,PASSED
sendKeys,Chrome 67.0.3396.99,,2018-07-13 13:48:41,2018-07-13 13:48:41,0.085s,PASSED
click,Chrome 67.0.3396.99,,2018-07-13 13:48:41,2018-07-13 13:48:41,0.092s,PASSED
sendKeys,Chrome 67.0.3396.99,,2018-07-13 13:48:41,2018-07-13 13:48:44,2.124s,PASSED
Statement - timeTypeValue = workday_time[i][0].toString(),Chrome 67.0.3396.99,,2018-07-13 13:48:44,2018-07-13 13:48:44,0.001s,PASSED
click,Chrome 67.0.3396.99,,2018-07-13 13:48:44,2018-07-13 13:48:44,0.087s,PASSED
focus,Chrome 67.0.3396.99,,2018-07-13 13:48:44,2018-07-13 13:48:44,0.075s,PASSED
delay,Chrome 67.0.3396.99,,2018-07-13 13:48:44,2018-07-13 13:48:45,1.002s,PASSED
sendKeys,Chrome 67.0.3396.99,,2018-07-13 13:48:45,2018-07-13 13:48:45,0.245s,PASSED
sendKeys,Chrome 67.0.3396.99,,2018-07-13 13:48:45,2018-07-13 13:48:45,0.038s,PASSED
delay,Chrome 67.0.3396.99,,2018-07-13 13:48:45,2018-07-13 13:48:46,1.000s,PASSED
waitForElementPresent,Chrome 67.0.3396.99,,2018-07-13 13:48:46,2018-07-13 13:48:46,0.023s,PASSED
click,Chrome 67.0.3396.99,,2018-07-13 13:48:46,2018-07-13 13:48:46,0.089s,PASSED
sendKeys,Chrome 67.0.3396.99,,2018-07-13 13:48:46,2018-07-13 13:48:46,0.099s,PASSED
click,Chrome 67.0.3396.99,,2018-07-13 13:48:46,2018-07-13 13:48:46,0.081s,PASSED
sendKeys,Chrome 67.0.3396.99,,2018-07-13 13:48:46,2018-07-13 13:48:46,0.073s,PASSED
click,Chrome 67.0.3396.99,,2018-07-13 13:48:46,2018-07-13 13:48:46,0.079s,PASSED
sendKeys,Chrome 67.0.3396.99,,2018-07-13 13:48:46,2018-07-13 13:48:47,0.049s,PASSED
click,Chrome 67.0.3396.99,,2018-07-13 13:48:47,2018-07-13 13:48:47,0.067s,PASSED
sendKeys,Chrome 67.0.3396.99,,2018-07-13 13:48:47,2018-07-13 13:48:47,0.048s,PASSED
click,Chrome 67.0.3396.99,,2018-07-13 13:48:47,2018-07-13 13:48:47,0.086s,PASSED
sendKeys,Chrome 67.0.3396.99,,2018-07-13 13:48:47,2018-07-13 13:48:49,2.165s,PASSED
Statement - timeTypeValue = workday_time[i][0].toString(),Chrome 67.0.3396.99,,2018-07-13 13:48:49,2018-07-13 13:48:49,0.000s,PASSED
click,Chrome 67.0.3396.99,,2018-07-13 13:48:49,2018-07-13 13:48:49,0.112s,PASSED
focus,Chrome 67.0.3396.99,,2018-07-13 13:48:49,2018-07-13 13:48:49,0.062s,PASSED
delay,Chrome 67.0.3396.99,,2018-07-13 13:48:49,2018-07-13 13:48:50,1.001s,PASSED
sendKeys,Chrome 67.0.3396.99,,2018-07-13 13:48:50,2018-07-13 13:48:51,0.516s,PASSED
sendKeys,Chrome 67.0.3396.99,,2018-07-13 13:48:51,2018-07-13 13:48:51,0.043s,PASSED
delay,Chrome 67.0.3396.99,,2018-07-13 13:48:51,2018-07-13 13:48:52,1.000s,PASSED
waitForElementPresent,Chrome 67.0.3396.99,,2018-07-13 13:48:52,2018-07-13 13:48:52,0.017s,PASSED
click,Chrome 67.0.3396.99,,2018-07-13 13:48:52,2018-07-13 13:48:52,0.085s,PASSED
sendKeys,Chrome 67.0.3396.99,,2018-07-13 13:48:52,2018-07-13 13:48:52,0.053s,PASSED
click,Chrome 67.0.3396.99,,2018-07-13 13:48:52,2018-07-13 13:48:52,0.088s,PASSED
sendKeys,Chrome 67.0.3396.99,,2018-07-13 13:48:52,2018-07-13 13:48:52,0.088s,PASSED
click,Chrome 67.0.3396.99,,2018-07-13 13:48:52,2018-07-13 13:48:52,0.096s,PASSED
sendKeys,Chrome 67.0.3396.99,,2018-07-13 13:48:52,2018-07-13 13:48:52,0.044s,PASSED
click,Chrome 67.0.3396.99,,2018-07-13 13:48:52,2018-07-13 13:48:52,0.072s,PASSED
sendKeys,Chrome 67.0.3396.99,,2018-07-13 13:48:52,2018-07-13 13:48:52,0.046s,PASSED
click,Chrome 67.0.3396.99,,2018-07-13 13:48:52,2018-07-13 13:48:52,0.072s,PASSED
sendKeys,Chrome 67.0.3396.99,,2018-07-13 13:48:52,2018-07-13 13:48:52,0.098s,PASSED
"Statement - rows_table = Table.findElements(org.openqa.selenium.By.tagName(""tr""))",Chrome 67.0.3396.99,,2018-07-13 13:48:52,2018-07-13 13:48:52,0.017s,PASSED
Statement - rowSize = rows_table.size() - 2,Chrome 67.0.3396.99,,2018-07-13 13:48:52,2018-07-13 13:48:52,0.000s,PASSED
delay,Chrome 67.0.3396.99,,2018-07-13 13:48:52,2018-07-13 13:49:02,10.002s,PASSED
Statement - If (rowSize > arrayLength),Chrome 67.0.3396.99,,2018-07-13 13:49:02,2018-07-13 13:49:03,0.125s,PASSED
click,Chrome 67.0.3396.99,,2018-07-13 13:49:03,2018-07-13 13:49:03,0.091s,PASSED
waitForElementPresent,Chrome 67.0.3396.99,,2018-07-13 13:49:03,2018-07-13 13:49:05,2.734s,PASSED
closeBrowser,Chrome 67.0.3396.99,,2018-07-13 13:49:05,2018-07-13 13:49:06,0.699s,PASSED
