Suite/Test/Step Name,Browser,Description,Start time,End time,Duration,Status
Timesheet,,,2019-12-06 16:46:31,2019-12-06 16:46:32,0.391s,INCOMPLETE
,,,,,,
Test Cases/Login to Navision,,,2019-12-06 16:46:32,2019-12-06 16:46:32,0.015s,PASSED
