Suite/Test/Step Name,Browser,Description,Start time,End time,Duration,Status
Timesheet,Chrome 67.0.3396.99,,2018-08-03 12:43:25,2018-08-03 12:44:50,1m - 25.570s,FAILED
,,,,,,
Test Cases/Login to Navision,Chrome 67.0.3396.99,,2018-08-03 12:43:25,2018-08-03 12:44:04,39.178s,PASSED
openBrowser,Chrome 67.0.3396.99,,2018-08-03 12:43:25,2018-08-03 12:43:59,33.092s,PASSED
waitForElementPresent,Chrome 67.0.3396.99,,2018-08-03 12:43:59,2018-08-03 12:43:59,0.082s,PASSED
navigateToUrl,Chrome 67.0.3396.99,,2018-08-03 12:43:59,2018-08-03 12:43:59,0.265s,PASSED
waitForElementPresent,Chrome 67.0.3396.99,,2018-08-03 12:43:59,2018-08-03 12:43:59,0.020s,PASSED
maximizeWindow,Chrome 67.0.3396.99,,2018-08-03 12:43:59,2018-08-03 12:44:00,1.144s,PASSED
click,Chrome 67.0.3396.99,,2018-08-03 12:44:00,2018-08-03 12:44:00,0.093s,PASSED
click,Chrome 67.0.3396.99,,2018-08-03 12:44:00,2018-08-03 12:44:01,0.594s,PASSED
waitForElementPresent,Chrome 67.0.3396.99,,2018-08-03 12:44:01,2018-08-03 12:44:01,0.538s,PASSED
switchToFrame,Chrome 67.0.3396.99,,2018-08-03 12:44:01,2018-08-03 12:44:01,0.075s,PASSED
Statement - driver = com.kms.katalon.core.webui.driver.DriverFactory.getWebDriver(),Chrome 67.0.3396.99,To locate table,2018-08-03 12:44:01,2018-08-03 12:44:01,0.008s,PASSED
"Statement - Table = driver.findElement(org.openqa.selenium.By.xpath(""//table[(@summary = 'Time Sheet')]//tbody""))",Chrome 67.0.3396.99,,2018-08-03 12:44:01,2018-08-03 12:44:01,0.038s,PASSED
"Statement - rows_table = Table.findElements(org.openqa.selenium.By.tagName(""tr""))",Chrome 67.0.3396.99,To locate rows of table it will Capture all the rows available in the table,2018-08-03 12:44:01,2018-08-03 12:44:01,0.022s,PASSED
Statement - rows_count = rows_table.size() - 1,Chrome 67.0.3396.99,To calculate no of rows In table,2018-08-03 12:44:01,2018-08-03 12:44:01,0.003s,PASSED
"Statement - println(""No. of rows: "" + rows_count)",Chrome 67.0.3396.99,,2018-08-03 12:44:01,2018-08-03 12:44:01,0.004s,PASSED
Statement - workday_time = <not implemented yet for class: org.codehaus.groovy.ast.expr.EmptyExpression>,Chrome 67.0.3396.99,,2018-08-03 12:44:01,2018-08-03 12:44:01,0.001s,PASSED
Statement - workday_time = [],Chrome 67.0.3396.99,,2018-08-03 12:44:01,2018-08-03 12:44:01,0.000s,PASSED
"Statement - For ([i = 0, i < rows_count, (i++)])",Chrome 67.0.3396.99,Loop will execute for all the rows of the table,2018-08-03 12:44:01,2018-08-03 12:44:03,1.873s,PASSED
Statement - arrayLength = workday_time.size(),Chrome 67.0.3396.99,,2018-08-03 12:44:03,2018-08-03 12:44:03,0.001s,PASSED
Statement - arrayLength = arrayLength,Chrome 67.0.3396.99,,2018-08-03 12:44:03,2018-08-03 12:44:03,0.007s,PASSED
Statement - workday_time = workday_time,Chrome 67.0.3396.99,,2018-08-03 12:44:03,2018-08-03 12:44:03,0.000s,PASSED
Statement - println(workday_time),Chrome 67.0.3396.99,,2018-08-03 12:44:03,2018-08-03 12:44:03,0.005s,PASSED
Statement - println(arrayLength),Chrome 67.0.3396.99,,2018-08-03 12:44:03,2018-08-03 12:44:03,0.001s,PASSED
closeBrowser,Chrome 67.0.3396.99,,2018-08-03 12:44:03,2018-08-03 12:44:04,0.761s,PASSED
,,,,,,
Test Cases/Login in to workday,Chrome 67.0.3396.99,,2018-08-03 12:44:04,2018-08-03 12:44:49,45.245s,FAILED
openBrowser,Chrome 67.0.3396.99,,2018-08-03 12:44:05,2018-08-03 12:44:31,26.814s,PASSED
navigateToUrl,Chrome 67.0.3396.99,,2018-08-03 12:44:31,2018-08-03 12:44:33,1.151s,PASSED
setText,Chrome 67.0.3396.99,,2018-08-03 12:44:33,2018-08-03 12:44:35,1.981s,PASSED
setText,Chrome 67.0.3396.99,,2018-08-03 12:44:35,2018-08-03 12:44:35,0.137s,PASSED
click,Chrome 67.0.3396.99,,2018-08-03 12:44:35,2018-08-03 12:44:35,0.096s,PASSED
click,Chrome 67.0.3396.99,,2018-08-03 12:44:35,2018-08-03 12:44:40,4.792s,PASSED
maximizeWindow,Chrome 67.0.3396.99,,2018-08-03 12:44:40,2018-08-03 12:44:41,1.137s,PASSED
click,Chrome 67.0.3396.99,,2018-08-03 12:44:41,2018-08-03 12:44:41,0.112s,PASSED
click,Chrome 67.0.3396.99,,2018-08-03 12:44:41,2018-08-03 12:44:42,1.604s,PASSED
focus,Chrome 67.0.3396.99,,2018-08-03 12:44:42,2018-08-03 12:44:44,1.296s,PASSED
delay,Chrome 67.0.3396.99,,2018-08-03 12:44:44,2018-08-03 12:44:45,1.021s,PASSED
click,Chrome 67.0.3396.99,,2018-08-03 12:44:45,2018-08-03 12:44:45,0.073s,PASSED
delay,Chrome 67.0.3396.99,,2018-08-03 12:44:45,2018-08-03 12:44:46,1.001s,PASSED
click,Chrome 67.0.3396.99,,2018-08-03 12:44:46,2018-08-03 12:44:46,0.086s,PASSED
waitForElementVisible,Chrome 67.0.3396.99,,2018-08-03 12:44:46,2018-08-03 12:44:47,1.351s,PASSED
Statement - rowSize_before = getTableRowCount(),Chrome 67.0.3396.99,,2018-08-03 12:44:47,2018-08-03 12:44:47,0.000s,PASSED
Statement - driver = com.kms.katalon.core.webui.driver.DriverFactory.getWebDriver(),Chrome 67.0.3396.99,,2018-08-03 12:44:47,2018-08-03 12:44:47,0.001s,PASSED
"Statement - Table = driver.findElement(org.openqa.selenium.By.xpath(""//table[@class='mainTable']""))",Chrome 67.0.3396.99,,2018-08-03 12:44:47,2018-08-03 12:44:47,0.023s,PASSED
"Statement - rows_table = Table.findElements(org.openqa.selenium.By.tagName(""tr""))",Chrome 67.0.3396.99,,2018-08-03 12:44:47,2018-08-03 12:44:47,0.017s,PASSED
Statement - return (rows_table.size() - 2),Chrome 67.0.3396.99,,2018-08-03 12:44:47,2018-08-03 12:44:47,0.001s,PASSED
Statement - arrayLength = arrayLength,Chrome 67.0.3396.99,,2018-08-03 12:44:47,2018-08-03 12:44:47,0.000s,PASSED
Statement - rows_size_refined = getTableRowCount(),Chrome 67.0.3396.99,,2018-08-03 12:44:47,2018-08-03 12:44:47,0.001s,PASSED
Statement - driver = com.kms.katalon.core.webui.driver.DriverFactory.getWebDriver(),Chrome 67.0.3396.99,,2018-08-03 12:44:47,2018-08-03 12:44:47,0.000s,PASSED
"Statement - Table = driver.findElement(org.openqa.selenium.By.xpath(""//table[@class='mainTable']""))",Chrome 67.0.3396.99,,2018-08-03 12:44:47,2018-08-03 12:44:47,0.012s,PASSED
"Statement - rows_table = Table.findElements(org.openqa.selenium.By.tagName(""tr""))",Chrome 67.0.3396.99,,2018-08-03 12:44:47,2018-08-03 12:44:47,0.014s,PASSED
Statement - return (rows_table.size() - 2),Chrome 67.0.3396.99,,2018-08-03 12:44:47,2018-08-03 12:44:47,0.000s,PASSED
Statement - existing_tasks = <not implemented yet for class: org.codehaus.groovy.ast.expr.EmptyExpression>,Chrome 67.0.3396.99,,2018-08-03 12:44:47,2018-08-03 12:44:47,0.001s,PASSED
Statement - existing_tasks = [],Chrome 67.0.3396.99,,2018-08-03 12:44:47,2018-08-03 12:44:47,0.000s,PASSED
Statement - existing_tasks_size = <not implemented yet for class: org.codehaus.groovy.ast.expr.EmptyExpression>,Chrome 67.0.3396.99,,2018-08-03 12:44:47,2018-08-03 12:44:47,0.000s,PASSED
"Statement - For ([x = 1, x <= rows_size_refined, (x++)])",Chrome 67.0.3396.99,,2018-08-03 12:44:47,2018-08-03 12:44:48,0.455s,PASSED
Statement - If (existing_tasks == [null]),Chrome 67.0.3396.99,,2018-08-03 12:44:48,2018-08-03 12:44:48,0.000s,PASSED
Statement - Else,Chrome 67.0.3396.99,,2018-08-03 12:44:48,2018-08-03 12:44:48,0.001s,PASSED
"Statement - For ([i = 0, i < arrayLength, (i++)])",Chrome 67.0.3396.99,,2018-08-03 12:44:48,2018-08-03 12:44:49,1.001s,PASSED
Statement - timeTypeValue = workday_time[i][0].toString(),Chrome 67.0.3396.99,,2018-08-03 12:44:49,2018-08-03 12:44:49,0.003s,PASSED
"Statement - result = verifyTaskIsPresent(timeTypeValue, rows, existing_tasks)",Chrome 67.0.3396.99,,2018-08-03 12:44:49,2018-08-03 12:44:49,0.001s,PASSED
"Statement - navision_job_split = timeType_navision.split("" "")",Chrome 67.0.3396.99,,2018-08-03 12:44:49,2018-08-03 12:44:49,0.002s,PASSED
Statement - arraySize = navision_job_split.size(),Chrome 67.0.3396.99,,2018-08-03 12:44:49,2018-08-03 12:44:49,0.000s,PASSED
Statement - result = <not implemented yet for class: org.codehaus.groovy.ast.expr.EmptyExpression>,Chrome 67.0.3396.99,,2018-08-03 12:44:49,2018-08-03 12:44:49,0.000s,PASSED
Statement - println(timeType_navision),Chrome 67.0.3396.99,,2018-08-03 12:44:49,2018-08-03 12:44:49,0.001s,PASSED
Statement - println(rows_size),Chrome 67.0.3396.99,,2018-08-03 12:44:49,2018-08-03 12:44:49,0.000s,PASSED
Statement - println(existing_tasks),Chrome 67.0.3396.99,,2018-08-03 12:44:49,2018-08-03 12:44:49,0.000s,PASSED
"Statement - For ([x = <not implemented yet for class: org.codehaus.groovy.ast.expr.EmptyExpression>, x < rows_size, (x++)])",Chrome 67.0.3396.99,,2018-08-03 12:44:49,2018-08-03 12:44:49,0.012s,PASSED
"Statement - setTableValues(4, i, 1)",Chrome 67.0.3396.99,Monday column,2018-08-03 12:44:49,2018-08-03 12:44:49,0.000s,PASSED
click,Chrome 67.0.3396.99,,2018-08-03 12:44:49,2018-08-03 12:44:49,0.105s,PASSED
"Statement - If (!(workday_time[i][j].equals("""")) || !(workday_time[i][j].equals(null)))",Chrome 67.0.3396.99,,2018-08-03 12:44:49,2018-08-03 12:44:49,0.450s,FAILED
