Suite/Test/Step Name,Browser,Description,Start time,End time,Duration,Status
Timesheet,Chrome 67.0.3396.99,,2018-08-03 12:56:12,2018-08-03 12:56:50,37.504s,INCOMPLETE
,,,,,,
Test Cases/Login to Navision,Chrome 67.0.3396.99,,2018-08-03 12:56:13,2018-08-03 12:56:50,37.084s,PASSED
openBrowser,Chrome 67.0.3396.99,,2018-08-03 12:56:13,2018-08-03 12:56:44,30.929s,PASSED
waitForElementPresent,Chrome 67.0.3396.99,,2018-08-03 12:56:44,2018-08-03 12:56:44,0.081s,PASSED
navigateToUrl,Chrome 67.0.3396.99,,2018-08-03 12:56:44,2018-08-03 12:56:44,0.228s,PASSED
waitForElementPresent,Chrome 67.0.3396.99,,2018-08-03 12:56:44,2018-08-03 12:56:44,0.022s,PASSED
maximizeWindow,Chrome 67.0.3396.99,,2018-08-03 12:56:44,2018-08-03 12:56:45,1.142s,PASSED
click,Chrome 67.0.3396.99,,2018-08-03 12:56:45,2018-08-03 12:56:46,0.092s,PASSED
click,Chrome 67.0.3396.99,,2018-08-03 12:56:46,2018-08-03 12:56:46,0.600s,PASSED
waitForElementPresent,Chrome 67.0.3396.99,,2018-08-03 12:56:46,2018-08-03 12:56:47,0.541s,PASSED
switchToFrame,Chrome 67.0.3396.99,,2018-08-03 12:56:47,2018-08-03 12:56:47,0.071s,PASSED
Statement - driver = com.kms.katalon.core.webui.driver.DriverFactory.getWebDriver(),Chrome 67.0.3396.99,To locate table,2018-08-03 12:56:47,2018-08-03 12:56:47,0.011s,PASSED
"Statement - Table = driver.findElement(org.openqa.selenium.By.xpath(""//table[(@summary = 'Time Sheet')]//tbody""))",Chrome 67.0.3396.99,,2018-08-03 12:56:47,2018-08-03 12:56:47,0.055s,PASSED
"Statement - rows_table = Table.findElements(org.openqa.selenium.By.tagName(""tr""))",Chrome 67.0.3396.99,To locate rows of table it will Capture all the rows available in the table,2018-08-03 12:56:47,2018-08-03 12:56:47,0.027s,PASSED
Statement - rows_count = rows_table.size() - 1,Chrome 67.0.3396.99,To calculate no of rows In table,2018-08-03 12:56:47,2018-08-03 12:56:47,0.002s,PASSED
"Statement - println(""No. of rows: "" + rows_count)",Chrome 67.0.3396.99,,2018-08-03 12:56:47,2018-08-03 12:56:47,0.006s,PASSED
Statement - workday_time = <not implemented yet for class: org.codehaus.groovy.ast.expr.EmptyExpression>,Chrome 67.0.3396.99,,2018-08-03 12:56:47,2018-08-03 12:56:47,0.001s,PASSED
Statement - workday_time = [],Chrome 67.0.3396.99,,2018-08-03 12:56:47,2018-08-03 12:56:47,0.001s,PASSED
"Statement - For ([i = 0, i < rows_count, (i++)])",Chrome 67.0.3396.99,Loop will execute for all the rows of the table,2018-08-03 12:56:47,2018-08-03 12:56:49,2.034s,PASSED
Statement - arrayLength = workday_time.size(),Chrome 67.0.3396.99,,2018-08-03 12:56:49,2018-08-03 12:56:49,0.002s,PASSED
Statement - arrayLength = arrayLength,Chrome 67.0.3396.99,,2018-08-03 12:56:49,2018-08-03 12:56:49,0.009s,PASSED
Statement - workday_time = workday_time,Chrome 67.0.3396.99,,2018-08-03 12:56:49,2018-08-03 12:56:49,0.000s,PASSED
Statement - println(workday_time),Chrome 67.0.3396.99,,2018-08-03 12:56:49,2018-08-03 12:56:49,0.001s,PASSED
Statement - println(arrayLength),Chrome 67.0.3396.99,,2018-08-03 12:56:49,2018-08-03 12:56:49,0.001s,PASSED
closeBrowser,Chrome 67.0.3396.99,,2018-08-03 12:56:49,2018-08-03 12:56:50,0.787s,PASSED
,,,,,,
Test Cases/Login in to workday,Chrome 67.0.3396.99,,2018-08-03 12:56:50,2018-08-03 12:56:50,0.022s,PASSED
