Suite/Test/Step Name,Browser,Description,Start time,End time,Duration,Status
Timesheet,Chrome 67.0.3396.99,,2018-07-31 12:35:33,2018-07-31 12:37:27,1m - 54.735s,PASSED
,,,,,,
Test Cases/Login to Navision,Chrome 67.0.3396.99,,2018-07-31 12:35:33,2018-07-31 12:36:23,49.819s,PASSED
openBrowser,Chrome 67.0.3396.99,,2018-07-31 12:35:34,2018-07-31 12:36:18,44.886s,PASSED
waitForElementPresent,Chrome 67.0.3396.99,,2018-07-31 12:36:18,2018-07-31 12:36:19,0.085s,PASSED
navigateToUrl,Chrome 67.0.3396.99,,2018-07-31 12:36:19,2018-07-31 12:36:19,0.230s,PASSED
waitForElementPresent,Chrome 67.0.3396.99,,2018-07-31 12:36:19,2018-07-31 12:36:19,0.025s,PASSED
maximizeWindow,Chrome 67.0.3396.99,,2018-07-31 12:36:19,2018-07-31 12:36:20,1.141s,PASSED
click,Chrome 67.0.3396.99,,2018-07-31 12:36:20,2018-07-31 12:36:20,0.088s,PASSED
click,Chrome 67.0.3396.99,,2018-07-31 12:36:20,2018-07-31 12:36:21,0.591s,PASSED
waitForElementPresent,Chrome 67.0.3396.99,,2018-07-31 12:36:21,2018-07-31 12:36:21,0.537s,PASSED
switchToFrame,Chrome 67.0.3396.99,,2018-07-31 12:36:21,2018-07-31 12:36:21,0.054s,PASSED
Statement - driver = com.kms.katalon.core.webui.driver.DriverFactory.getWebDriver(),Chrome 67.0.3396.99,To locate table,2018-07-31 12:36:21,2018-07-31 12:36:21,0.009s,PASSED
"Statement - Table = driver.findElement(org.openqa.selenium.By.xpath(""//table[(@summary = 'Time Sheet')]//tbody""))",Chrome 67.0.3396.99,,2018-07-31 12:36:21,2018-07-31 12:36:21,0.047s,PASSED
"Statement - rows_table = Table.findElements(org.openqa.selenium.By.tagName(""tr""))",Chrome 67.0.3396.99,To locate rows of table it will Capture all the rows available in the table,2018-07-31 12:36:21,2018-07-31 12:36:21,0.035s,PASSED
Statement - rows_count = rows_table.size() - 1,Chrome 67.0.3396.99,To calculate no of rows In table,2018-07-31 12:36:21,2018-07-31 12:36:21,0.003s,PASSED
"Statement - println(""No. of rows: "" + rows_count)",Chrome 67.0.3396.99,,2018-07-31 12:36:21,2018-07-31 12:36:21,0.003s,PASSED
Statement - workday_time = <not implemented yet for class: org.codehaus.groovy.ast.expr.EmptyExpression>,Chrome 67.0.3396.99,,2018-07-31 12:36:21,2018-07-31 12:36:21,0.001s,PASSED
Statement - workday_time = [],Chrome 67.0.3396.99,,2018-07-31 12:36:21,2018-07-31 12:36:21,0.001s,PASSED
"Statement - For ([i = 0, i < rows_count, (i++)])",Chrome 67.0.3396.99,Loop will execute for all the rows of the table,2018-07-31 12:36:21,2018-07-31 12:36:22,0.842s,PASSED
Statement - arrayLength = workday_time.size(),Chrome 67.0.3396.99,,2018-07-31 12:36:22,2018-07-31 12:36:22,0.001s,PASSED
Statement - arrayLength = arrayLength,Chrome 67.0.3396.99,,2018-07-31 12:36:22,2018-07-31 12:36:22,0.011s,PASSED
Statement - workday_time = workday_time,Chrome 67.0.3396.99,,2018-07-31 12:36:22,2018-07-31 12:36:22,0.001s,PASSED
Statement - println(workday_time),Chrome 67.0.3396.99,,2018-07-31 12:36:22,2018-07-31 12:36:22,0.001s,PASSED
Statement - println(arrayLength),Chrome 67.0.3396.99,,2018-07-31 12:36:22,2018-07-31 12:36:22,0.000s,PASSED
closeBrowser,Chrome 67.0.3396.99,,2018-07-31 12:36:22,2018-07-31 12:36:23,0.759s,PASSED
,,,,,,
Test Cases/Login in to workday,Chrome 67.0.3396.99,,2018-07-31 12:36:23,2018-07-31 12:37:27,1m - 4.484s,PASSED
openBrowser,Chrome 67.0.3396.99,,2018-07-31 12:36:23,2018-07-31 12:36:50,26.843s,PASSED
navigateToUrl,Chrome 67.0.3396.99,,2018-07-31 12:36:50,2018-07-31 12:36:51,1.151s,PASSED
setText,Chrome 67.0.3396.99,,2018-07-31 12:36:51,2018-07-31 12:36:54,2.411s,PASSED
setText,Chrome 67.0.3396.99,,2018-07-31 12:36:54,2018-07-31 12:36:54,0.136s,PASSED
click,Chrome 67.0.3396.99,,2018-07-31 12:36:54,2018-07-31 12:36:54,0.090s,PASSED
click,Chrome 67.0.3396.99,,2018-07-31 12:36:54,2018-07-31 12:36:59,4.709s,PASSED
maximizeWindow,Chrome 67.0.3396.99,,2018-07-31 12:36:59,2018-07-31 12:37:00,1.138s,PASSED
click,Chrome 67.0.3396.99,,2018-07-31 12:37:00,2018-07-31 12:37:00,0.609s,PASSED
click,Chrome 67.0.3396.99,,2018-07-31 12:37:00,2018-07-31 12:37:02,1.110s,PASSED
focus,Chrome 67.0.3396.99,,2018-07-31 12:37:02,2018-07-31 12:37:03,1.107s,PASSED
delay,Chrome 67.0.3396.99,,2018-07-31 12:37:03,2018-07-31 12:37:04,1.020s,PASSED
click,Chrome 67.0.3396.99,,2018-07-31 12:37:04,2018-07-31 12:37:04,0.083s,PASSED
delay,Chrome 67.0.3396.99,,2018-07-31 12:37:04,2018-07-31 12:37:05,1.002s,PASSED
click,Chrome 67.0.3396.99,,2018-07-31 12:37:05,2018-07-31 12:37:05,0.077s,PASSED
waitForElementVisible,Chrome 67.0.3396.99,,2018-07-31 12:37:05,2018-07-31 12:37:06,1.078s,PASSED
Statement - rowSize_before = getTableRowCount(),Chrome 67.0.3396.99,,2018-07-31 12:37:06,2018-07-31 12:37:06,0.000s,PASSED
Statement - driver = com.kms.katalon.core.webui.driver.DriverFactory.getWebDriver(),Chrome 67.0.3396.99,,2018-07-31 12:37:06,2018-07-31 12:37:06,0.001s,PASSED
"Statement - Table = driver.findElement(org.openqa.selenium.By.xpath(""//table[@class='mainTable']""))",Chrome 67.0.3396.99,,2018-07-31 12:37:06,2018-07-31 12:37:06,0.018s,PASSED
"Statement - rows_table = Table.findElements(org.openqa.selenium.By.tagName(""tr""))",Chrome 67.0.3396.99,,2018-07-31 12:37:06,2018-07-31 12:37:06,0.016s,PASSED
Statement - return (rows_table.size() - 2),Chrome 67.0.3396.99,,2018-07-31 12:37:06,2018-07-31 12:37:06,0.001s,PASSED
Statement - arrayLength = arrayLength,Chrome 67.0.3396.99,,2018-07-31 12:37:06,2018-07-31 12:37:06,0.000s,PASSED
Statement - rows_size_refined = getTableRowCount(),Chrome 67.0.3396.99,,2018-07-31 12:37:06,2018-07-31 12:37:06,0.001s,PASSED
Statement - driver = com.kms.katalon.core.webui.driver.DriverFactory.getWebDriver(),Chrome 67.0.3396.99,,2018-07-31 12:37:06,2018-07-31 12:37:06,0.000s,PASSED
"Statement - Table = driver.findElement(org.openqa.selenium.By.xpath(""//table[@class='mainTable']""))",Chrome 67.0.3396.99,,2018-07-31 12:37:06,2018-07-31 12:37:06,0.013s,PASSED
"Statement - rows_table = Table.findElements(org.openqa.selenium.By.tagName(""tr""))",Chrome 67.0.3396.99,,2018-07-31 12:37:06,2018-07-31 12:37:06,0.011s,PASSED
Statement - return (rows_table.size() - 2),Chrome 67.0.3396.99,,2018-07-31 12:37:06,2018-07-31 12:37:06,0.001s,PASSED
Statement - existing_tasks = <not implemented yet for class: org.codehaus.groovy.ast.expr.EmptyExpression>,Chrome 67.0.3396.99,,2018-07-31 12:37:06,2018-07-31 12:37:06,0.000s,PASSED
Statement - existing_tasks = [],Chrome 67.0.3396.99,,2018-07-31 12:37:06,2018-07-31 12:37:06,0.001s,PASSED
"Statement - For ([x = 1, x <= rows_size_refined, (x++)])",Chrome 67.0.3396.99,,2018-07-31 12:37:06,2018-07-31 12:37:06,0.067s,PASSED
"Statement - For ([i = 0, i < arrayLength, (i++)])",Chrome 67.0.3396.99,,2018-07-31 12:37:06,2018-07-31 12:37:07,1.002s,PASSED
Statement - timeTypeValue = workday_time[i][0].toString(),Chrome 67.0.3396.99,,2018-07-31 12:37:07,2018-07-31 12:37:07,0.003s,PASSED
click,Chrome 67.0.3396.99,,2018-07-31 12:37:07,2018-07-31 12:37:07,0.093s,PASSED
delay,Chrome 67.0.3396.99,,2018-07-31 12:37:07,2018-07-31 12:37:08,1.002s,PASSED
click,Chrome 67.0.3396.99,,2018-07-31 12:37:08,2018-07-31 12:37:08,0.109s,PASSED
focus,Chrome 67.0.3396.99,,2018-07-31 12:37:08,2018-07-31 12:37:08,0.084s,PASSED
delay,Chrome 67.0.3396.99,,2018-07-31 12:37:08,2018-07-31 12:37:09,1.001s,PASSED
sendKeys,Chrome 67.0.3396.99,,2018-07-31 12:37:09,2018-07-31 12:37:10,0.343s,PASSED
sendKeys,Chrome 67.0.3396.99,,2018-07-31 12:37:10,2018-07-31 12:37:10,0.052s,PASSED
delay,Chrome 67.0.3396.99,,2018-07-31 12:37:10,2018-07-31 12:37:11,1.003s,PASSED
waitForElementPresent,Chrome 67.0.3396.99,,2018-07-31 12:37:11,2018-07-31 12:37:11,0.024s,PASSED
"Statement - setTableValues(4, i, 1)",Chrome 67.0.3396.99,Monday column,2018-07-31 12:37:11,2018-07-31 12:37:11,0.000s,PASSED
click,Chrome 67.0.3396.99,,2018-07-31 12:37:11,2018-07-31 12:37:11,0.084s,PASSED
"Statement - If (!(workday_time[i][j].equals("""")))",Chrome 67.0.3396.99,,2018-07-31 12:37:11,2018-07-31 12:37:11,0.133s,PASSED
"Statement - setTableValues(5, i, 2)",Chrome 67.0.3396.99,Tuesday column,2018-07-31 12:37:11,2018-07-31 12:37:11,0.000s,PASSED
click,Chrome 67.0.3396.99,,2018-07-31 12:37:11,2018-07-31 12:37:11,0.131s,PASSED
"Statement - If (!(workday_time[i][j].equals("""")))",Chrome 67.0.3396.99,,2018-07-31 12:37:11,2018-07-31 12:37:11,0.000s,PASSED
"Statement - setTableValues(6, i, 3)",Chrome 67.0.3396.99,Wednesday column,2018-07-31 12:37:11,2018-07-31 12:37:11,0.000s,PASSED
click,Chrome 67.0.3396.99,,2018-07-31 12:37:11,2018-07-31 12:37:11,0.091s,PASSED
"Statement - If (!(workday_time[i][j].equals("""")))",Chrome 67.0.3396.99,,2018-07-31 12:37:11,2018-07-31 12:37:11,0.001s,PASSED
"Statement - setTableValues(7, i, 4)",Chrome 67.0.3396.99,Thursday column,2018-07-31 12:37:11,2018-07-31 12:37:11,0.000s,PASSED
click,Chrome 67.0.3396.99,,2018-07-31 12:37:11,2018-07-31 12:37:11,0.067s,PASSED
"Statement - If (!(workday_time[i][j].equals("""")))",Chrome 67.0.3396.99,,2018-07-31 12:37:11,2018-07-31 12:37:11,0.001s,PASSED
"Statement - setTableValues(8, i, 5)",Chrome 67.0.3396.99,Friday column,2018-07-31 12:37:11,2018-07-31 12:37:11,0.000s,PASSED
click,Chrome 67.0.3396.99,,2018-07-31 12:37:11,2018-07-31 12:37:11,0.083s,PASSED
"Statement - If (!(workday_time[i][j].equals("""")))",Chrome 67.0.3396.99,,2018-07-31 12:37:11,2018-07-31 12:37:12,1.002s,PASSED
Statement - timeTypeValue = workday_time[i][0].toString(),Chrome 67.0.3396.99,,2018-07-31 12:37:12,2018-07-31 12:37:12,0.000s,PASSED
click,Chrome 67.0.3396.99,,2018-07-31 12:37:12,2018-07-31 12:37:12,0.069s,PASSED
delay,Chrome 67.0.3396.99,,2018-07-31 12:37:12,2018-07-31 12:37:13,1.000s,PASSED
click,Chrome 67.0.3396.99,,2018-07-31 12:37:13,2018-07-31 12:37:14,0.093s,PASSED
focus,Chrome 67.0.3396.99,,2018-07-31 12:37:14,2018-07-31 12:37:14,0.070s,PASSED
delay,Chrome 67.0.3396.99,,2018-07-31 12:37:14,2018-07-31 12:37:15,1.001s,PASSED
sendKeys,Chrome 67.0.3396.99,,2018-07-31 12:37:15,2018-07-31 12:37:15,0.177s,PASSED
sendKeys,Chrome 67.0.3396.99,,2018-07-31 12:37:15,2018-07-31 12:37:15,0.049s,PASSED
delay,Chrome 67.0.3396.99,,2018-07-31 12:37:15,2018-07-31 12:37:16,1.002s,PASSED
waitForElementPresent,Chrome 67.0.3396.99,,2018-07-31 12:37:16,2018-07-31 12:37:16,0.023s,PASSED
"Statement - setTableValues(4, i, 1)",Chrome 67.0.3396.99,Monday column,2018-07-31 12:37:16,2018-07-31 12:37:16,0.001s,PASSED
click,Chrome 67.0.3396.99,,2018-07-31 12:37:16,2018-07-31 12:37:16,0.077s,PASSED
"Statement - If (!(workday_time[i][j].equals("""")))",Chrome 67.0.3396.99,,2018-07-31 12:37:16,2018-07-31 12:37:16,0.132s,PASSED
"Statement - setTableValues(5, i, 2)",Chrome 67.0.3396.99,Tuesday column,2018-07-31 12:37:16,2018-07-31 12:37:16,0.000s,PASSED
click,Chrome 67.0.3396.99,,2018-07-31 12:37:16,2018-07-31 12:37:16,0.066s,PASSED
"Statement - If (!(workday_time[i][j].equals("""")))",Chrome 67.0.3396.99,,2018-07-31 12:37:16,2018-07-31 12:37:16,0.001s,PASSED
"Statement - setTableValues(6, i, 3)",Chrome 67.0.3396.99,Wednesday column,2018-07-31 12:37:16,2018-07-31 12:37:16,0.000s,PASSED
click,Chrome 67.0.3396.99,,2018-07-31 12:37:16,2018-07-31 12:37:16,0.096s,PASSED
"Statement - If (!(workday_time[i][j].equals("""")))",Chrome 67.0.3396.99,,2018-07-31 12:37:16,2018-07-31 12:37:16,0.000s,PASSED
"Statement - setTableValues(7, i, 4)",Chrome 67.0.3396.99,Thursday column,2018-07-31 12:37:16,2018-07-31 12:37:16,0.000s,PASSED
click,Chrome 67.0.3396.99,,2018-07-31 12:37:16,2018-07-31 12:37:16,0.065s,PASSED
"Statement - If (!(workday_time[i][j].equals("""")))",Chrome 67.0.3396.99,,2018-07-31 12:37:16,2018-07-31 12:37:16,0.001s,PASSED
"Statement - setTableValues(8, i, 5)",Chrome 67.0.3396.99,Friday column,2018-07-31 12:37:16,2018-07-31 12:37:16,0.000s,PASSED
click,Chrome 67.0.3396.99,,2018-07-31 12:37:16,2018-07-31 12:37:16,0.084s,PASSED
"Statement - If (!(workday_time[i][j].equals("""")))",Chrome 67.0.3396.99,,2018-07-31 12:37:16,2018-07-31 12:37:17,1.002s,PASSED
Statement - timeTypeValue = workday_time[i][0].toString(),Chrome 67.0.3396.99,,2018-07-31 12:37:17,2018-07-31 12:37:17,0.001s,PASSED
click,Chrome 67.0.3396.99,,2018-07-31 12:37:17,2018-07-31 12:37:17,0.072s,PASSED
delay,Chrome 67.0.3396.99,,2018-07-31 12:37:17,2018-07-31 12:37:18,1.001s,PASSED
click,Chrome 67.0.3396.99,,2018-07-31 12:37:18,2018-07-31 12:37:19,0.098s,PASSED
focus,Chrome 67.0.3396.99,,2018-07-31 12:37:19,2018-07-31 12:37:19,0.064s,PASSED
delay,Chrome 67.0.3396.99,,2018-07-31 12:37:19,2018-07-31 12:37:20,1.001s,PASSED
sendKeys,Chrome 67.0.3396.99,,2018-07-31 12:37:20,2018-07-31 12:37:20,0.433s,PASSED
sendKeys,Chrome 67.0.3396.99,,2018-07-31 12:37:20,2018-07-31 12:37:20,0.064s,PASSED
delay,Chrome 67.0.3396.99,,2018-07-31 12:37:20,2018-07-31 12:37:21,1.001s,PASSED
waitForElementPresent,Chrome 67.0.3396.99,,2018-07-31 12:37:21,2018-07-31 12:37:21,0.076s,PASSED
"Statement - setTableValues(4, i, 1)",Chrome 67.0.3396.99,Monday column,2018-07-31 12:37:21,2018-07-31 12:37:21,0.000s,PASSED
click,Chrome 67.0.3396.99,,2018-07-31 12:37:21,2018-07-31 12:37:21,0.086s,PASSED
"Statement - If (!(workday_time[i][j].equals("""")))",Chrome 67.0.3396.99,,2018-07-31 12:37:21,2018-07-31 12:37:21,0.144s,PASSED
"Statement - setTableValues(5, i, 2)",Chrome 67.0.3396.99,Tuesday column,2018-07-31 12:37:21,2018-07-31 12:37:21,0.000s,PASSED
click,Chrome 67.0.3396.99,,2018-07-31 12:37:21,2018-07-31 12:37:21,0.090s,PASSED
"Statement - If (!(workday_time[i][j].equals("""")))",Chrome 67.0.3396.99,,2018-07-31 12:37:21,2018-07-31 12:37:21,0.000s,PASSED
"Statement - setTableValues(6, i, 3)",Chrome 67.0.3396.99,Wednesday column,2018-07-31 12:37:21,2018-07-31 12:37:21,0.001s,PASSED
click,Chrome 67.0.3396.99,,2018-07-31 12:37:21,2018-07-31 12:37:22,0.090s,PASSED
"Statement - If (!(workday_time[i][j].equals("""")))",Chrome 67.0.3396.99,,2018-07-31 12:37:22,2018-07-31 12:37:22,0.000s,PASSED
"Statement - setTableValues(7, i, 4)",Chrome 67.0.3396.99,Thursday column,2018-07-31 12:37:22,2018-07-31 12:37:22,0.000s,PASSED
click,Chrome 67.0.3396.99,,2018-07-31 12:37:22,2018-07-31 12:37:22,0.082s,PASSED
"Statement - If (!(workday_time[i][j].equals("""")))",Chrome 67.0.3396.99,,2018-07-31 12:37:22,2018-07-31 12:37:22,0.000s,PASSED
"Statement - setTableValues(8, i, 5)",Chrome 67.0.3396.99,Friday column,2018-07-31 12:37:22,2018-07-31 12:37:22,0.001s,PASSED
click,Chrome 67.0.3396.99,,2018-07-31 12:37:22,2018-07-31 12:37:22,0.082s,PASSED
"Statement - If (!(workday_time[i][j].equals("""")))",Chrome 67.0.3396.99,,2018-07-31 12:37:22,2018-07-31 12:37:22,0.001s,PASSED
delay,Chrome 67.0.3396.99,,2018-07-31 12:37:22,2018-07-31 12:37:24,2.002s,PASSED
Statement - rowSize_after = getTableRowCount(),Chrome 67.0.3396.99,,2018-07-31 12:37:24,2018-07-31 12:37:24,0.000s,PASSED
Statement - driver = com.kms.katalon.core.webui.driver.DriverFactory.getWebDriver(),Chrome 67.0.3396.99,,2018-07-31 12:37:24,2018-07-31 12:37:24,0.000s,PASSED
"Statement - Table = driver.findElement(org.openqa.selenium.By.xpath(""//table[@class='mainTable']""))",Chrome 67.0.3396.99,,2018-07-31 12:37:24,2018-07-31 12:37:24,0.011s,PASSED
"Statement - rows_table = Table.findElements(org.openqa.selenium.By.tagName(""tr""))",Chrome 67.0.3396.99,,2018-07-31 12:37:24,2018-07-31 12:37:24,0.010s,PASSED
Statement - return (rows_table.size() - 2),Chrome 67.0.3396.99,,2018-07-31 12:37:24,2018-07-31 12:37:24,0.000s,PASSED
Statement - row_size_diff = rowSize_after - rowSize_before,Chrome 67.0.3396.99,,2018-07-31 12:37:24,2018-07-31 12:37:24,0.001s,PASSED
Statement - final_row_size = arrayLength + existing_tasks.size(),Chrome 67.0.3396.99,,2018-07-31 12:37:24,2018-07-31 12:37:24,0.000s,PASSED
Statement - println(row_size_diff),Chrome 67.0.3396.99,,2018-07-31 12:37:24,2018-07-31 12:37:24,0.001s,PASSED
Statement - println(final_row_size),Chrome 67.0.3396.99,,2018-07-31 12:37:24,2018-07-31 12:37:24,0.001s,PASSED
Statement - println(rowSize_before),Chrome 67.0.3396.99,,2018-07-31 12:37:24,2018-07-31 12:37:24,0.000s,PASSED
Statement - If (rowSize_after > arrayLength),Chrome 67.0.3396.99,,2018-07-31 12:37:24,2018-07-31 12:37:24,0.164s,PASSED
click,Chrome 67.0.3396.99,,2018-07-31 12:37:24,2018-07-31 12:37:24,0.085s,PASSED
waitForElementPresent,Chrome 67.0.3396.99,,2018-07-31 12:37:24,2018-07-31 12:37:27,2.570s,PASSED
closeBrowser,Chrome 67.0.3396.99,,2018-07-31 12:37:27,2018-07-31 12:37:27,0.788s,PASSED
