Suite/Test/Step Name,Browser,Description,Start time,End time,Duration,Status
Timesheet,Chrome 67.0.3396.99,,2018-07-11 15:43:49,2018-07-11 15:45:27,1m - 38.358s,ERROR
,,,,,,
Test Cases/Login to Navision,Chrome 67.0.3396.99,,2018-07-11 15:43:49,2018-07-11 15:44:26,36.695s,PASSED
openBrowser,Chrome 67.0.3396.99,,2018-07-11 15:43:50,2018-07-11 15:44:21,30.866s,PASSED
waitForElementPresent,Chrome 67.0.3396.99,,2018-07-11 15:44:21,2018-07-11 15:44:21,0.086s,PASSED
navigateToUrl,Chrome 67.0.3396.99,,2018-07-11 15:44:21,2018-07-11 15:44:21,0.224s,PASSED
waitForElementPresent,Chrome 67.0.3396.99,,2018-07-11 15:44:21,2018-07-11 15:44:21,0.020s,PASSED
maximizeWindow,Chrome 67.0.3396.99,,2018-07-11 15:44:21,2018-07-11 15:44:22,1.141s,PASSED
click,Chrome 67.0.3396.99,,2018-07-11 15:44:22,2018-07-11 15:44:22,0.084s,PASSED
click,Chrome 67.0.3396.99,,2018-07-11 15:44:22,2018-07-11 15:44:23,0.587s,PASSED
waitForElementPresent,Chrome 67.0.3396.99,,2018-07-11 15:44:23,2018-07-11 15:44:23,0.537s,PASSED
switchToFrame,Chrome 67.0.3396.99,,2018-07-11 15:44:23,2018-07-11 15:44:23,0.055s,PASSED
Statement - driver = com.kms.katalon.core.webui.driver.DriverFactory.getWebDriver(),Chrome 67.0.3396.99,To locate table,2018-07-11 15:44:23,2018-07-11 15:44:23,0.010s,PASSED
"Statement - Table = driver.findElement(org.openqa.selenium.By.xpath(""//table[(@summary = 'Time Sheet')]//tbody""))",Chrome 67.0.3396.99,,2018-07-11 15:44:23,2018-07-11 15:44:23,0.039s,PASSED
"Statement - rows_table = Table.findElements(org.openqa.selenium.By.tagName(""tr""))",Chrome 67.0.3396.99,To locate rows of table it will Capture all the rows available in the table,2018-07-11 15:44:23,2018-07-11 15:44:23,0.024s,PASSED
Statement - rows_count = rows_table.size() - 1,Chrome 67.0.3396.99,To calculate no of rows In table,2018-07-11 15:44:23,2018-07-11 15:44:23,0.002s,PASSED
"Statement - println(""No. of rows: "" + rows_count)",Chrome 67.0.3396.99,,2018-07-11 15:44:23,2018-07-11 15:44:23,0.003s,PASSED
Statement - workday_time = <not implemented yet for class: org.codehaus.groovy.ast.expr.EmptyExpression>,Chrome 67.0.3396.99,,2018-07-11 15:44:23,2018-07-11 15:44:23,0.000s,PASSED
Statement - workday_time = [],Chrome 67.0.3396.99,,2018-07-11 15:44:23,2018-07-11 15:44:23,0.000s,PASSED
"Statement - For ([i = 0, i < rows_count, (i++)])",Chrome 67.0.3396.99,Loop will execute for all the rows of the table,2018-07-11 15:44:23,2018-07-11 15:44:25,1.835s,PASSED
Statement - arrayLength = workday_time.size(),Chrome 67.0.3396.99,,2018-07-11 15:44:25,2018-07-11 15:44:25,0.001s,PASSED
Statement - arrayLength = arrayLength,Chrome 67.0.3396.99,,2018-07-11 15:44:25,2018-07-11 15:44:25,0.010s,PASSED
Statement - workday_time = workday_time,Chrome 67.0.3396.99,,2018-07-11 15:44:25,2018-07-11 15:44:25,0.000s,PASSED
Statement - println(workday_time),Chrome 67.0.3396.99,,2018-07-11 15:44:25,2018-07-11 15:44:25,0.001s,PASSED
Statement - println(arrayLength),Chrome 67.0.3396.99,,2018-07-11 15:44:25,2018-07-11 15:44:25,0.001s,PASSED
closeBrowser,Chrome 67.0.3396.99,,2018-07-11 15:44:25,2018-07-11 15:44:26,0.700s,PASSED
,,,,,,
Test Cases/Login in to workday,Chrome 67.0.3396.99,,2018-07-11 15:44:26,2018-07-11 15:45:27,1m - 0.643s,ERROR
openBrowser,Chrome 67.0.3396.99,,2018-07-11 15:44:27,2018-07-11 15:44:53,26.839s,PASSED
navigateToUrl,Chrome 67.0.3396.99,,2018-07-11 15:44:53,2018-07-11 15:44:55,1.532s,PASSED
setText,Chrome 67.0.3396.99,,2018-07-11 15:44:55,2018-07-11 15:44:57,2.473s,PASSED
setText,Chrome 67.0.3396.99,,2018-07-11 15:44:57,2018-07-11 15:44:58,0.124s,PASSED
click,Chrome 67.0.3396.99,,2018-07-11 15:44:58,2018-07-11 15:44:58,0.096s,PASSED
click,Chrome 67.0.3396.99,,2018-07-11 15:44:58,2018-07-11 15:45:08,10.100s,PASSED
maximizeWindow,Chrome 67.0.3396.99,,2018-07-11 15:45:08,2018-07-11 15:45:09,1.131s,PASSED
click,Chrome 67.0.3396.99,,2018-07-11 15:45:09,2018-07-11 15:45:11,2.121s,PASSED
click,Chrome 67.0.3396.99,,2018-07-11 15:45:11,2018-07-11 15:45:12,1.104s,PASSED
click,Chrome 67.0.3396.99,,2018-07-11 15:45:12,2018-07-11 15:45:13,1.107s,PASSED
click,Chrome 67.0.3396.99,,2018-07-11 15:45:13,2018-07-11 15:45:13,0.145s,PASSED
waitForElementPresent,Chrome 67.0.3396.99,,2018-07-11 15:45:13,2018-07-11 15:45:13,0.029s,PASSED
waitForElementPresent,Chrome 67.0.3396.99,,2018-07-11 15:45:13,2018-07-11 15:45:13,0.027s,PASSED
waitForElementPresent,Chrome 67.0.3396.99,,2018-07-11 15:45:13,2018-07-11 15:45:13,0.022s,PASSED
waitForElementPresent,Chrome 67.0.3396.99,,2018-07-11 15:45:13,2018-07-11 15:45:13,0.023s,PASSED
sendKeys,Chrome 67.0.3396.99,,2018-07-11 15:45:13,2018-07-11 15:45:14,0.092s,PASSED
waitForElementVisible,Chrome 67.0.3396.99,,2018-07-11 15:45:14,2018-07-11 15:45:15,1.139s,PASSED
Statement - driver = com.kms.katalon.core.webui.driver.DriverFactory.getWebDriver(),Chrome 67.0.3396.99,,2018-07-11 15:45:15,2018-07-11 15:45:15,0.000s,PASSED
"Statement - Table = driver.findElement(org.openqa.selenium.By.xpath(""//table[@class='mainTable']""))",Chrome 67.0.3396.99,,2018-07-11 15:45:15,2018-07-11 15:45:15,0.018s,PASSED
"Statement - rows_table = Table.findElements(org.openqa.selenium.By.tagName(""tr""))",Chrome 67.0.3396.99,,2018-07-11 15:45:15,2018-07-11 15:45:15,0.015s,PASSED
"Statement - For ([i = 0, i < arrayLength, (i++)])",Chrome 67.0.3396.99,,2018-07-11 15:45:15,2018-07-11 15:45:16,1.330s,PASSED
Statement - timeTypeValue = workday_time[i][0].toString(),Chrome 67.0.3396.99,,2018-07-11 15:45:16,2018-07-11 15:45:16,0.003s,PASSED
Statement - charLength = timeTypeValue.length(),Chrome 67.0.3396.99,,2018-07-11 15:45:16,2018-07-11 15:45:16,0.001s,PASSED
click,Chrome 67.0.3396.99,,2018-07-11 15:45:16,2018-07-11 15:45:16,0.145s,PASSED
focus,Chrome 67.0.3396.99,,2018-07-11 15:45:16,2018-07-11 15:45:16,0.231s,PASSED
delay,Chrome 67.0.3396.99,,2018-07-11 15:45:16,2018-07-11 15:45:17,1.002s,PASSED
"Statement - For ([x = 0, x < charLength, (x++)])",Chrome 67.0.3396.99,,2018-07-11 15:45:17,2018-07-11 15:45:20,2.117s,PASSED
sendKeys,Chrome 67.0.3396.99,,2018-07-11 15:45:20,2018-07-11 15:45:20,0.041s,PASSED
waitForElementPresent,Chrome 67.0.3396.99,,2018-07-11 15:45:20,2018-07-11 15:45:20,0.537s,PASSED
click,Chrome 67.0.3396.99,,2018-07-11 15:45:20,2018-07-11 15:45:20,0.090s,PASSED
sendKeys,Chrome 67.0.3396.99,,2018-07-11 15:45:20,2018-07-11 15:45:20,0.093s,PASSED
click,Chrome 67.0.3396.99,,2018-07-11 15:45:20,2018-07-11 15:45:20,0.087s,PASSED
sendKeys,Chrome 67.0.3396.99,,2018-07-11 15:45:20,2018-07-11 15:45:20,0.114s,PASSED
click,Chrome 67.0.3396.99,,2018-07-11 15:45:20,2018-07-11 15:45:21,0.086s,PASSED
sendKeys,Chrome 67.0.3396.99,,2018-07-11 15:45:21,2018-07-11 15:45:21,0.053s,PASSED
click,Chrome 67.0.3396.99,,2018-07-11 15:45:21,2018-07-11 15:45:21,0.082s,PASSED
sendKeys,Chrome 67.0.3396.99,,2018-07-11 15:45:21,2018-07-11 15:45:21,0.056s,PASSED
click,Chrome 67.0.3396.99,,2018-07-11 15:45:21,2018-07-11 15:45:21,0.092s,PASSED
sendKeys,Chrome 67.0.3396.99,,2018-07-11 15:45:21,2018-07-11 15:45:22,1.338s,PASSED
Statement - timeTypeValue = workday_time[i][0].toString(),Chrome 67.0.3396.99,,2018-07-11 15:45:22,2018-07-11 15:45:22,0.000s,PASSED
Statement - charLength = timeTypeValue.length(),Chrome 67.0.3396.99,,2018-07-11 15:45:22,2018-07-11 15:45:22,0.000s,PASSED
click,Chrome 67.0.3396.99,,2018-07-11 15:45:22,2018-07-11 15:45:22,0.086s,PASSED
focus,Chrome 67.0.3396.99,,2018-07-11 15:45:22,2018-07-11 15:45:22,0.093s,PASSED
delay,Chrome 67.0.3396.99,,2018-07-11 15:45:22,2018-07-11 15:45:23,1.001s,PASSED
"Statement - For ([x = 0, x < charLength, (x++)])",Chrome 67.0.3396.99,,2018-07-11 15:45:23,2018-07-11 15:45:25,1.902s,PASSED
sendKeys,Chrome 67.0.3396.99,,2018-07-11 15:45:25,2018-07-11 15:45:25,0.040s,PASSED
waitForElementPresent,Chrome 67.0.3396.99,,2018-07-11 15:45:25,2018-07-11 15:45:26,0.535s,PASSED
click,Chrome 67.0.3396.99,,2018-07-11 15:45:26,2018-07-11 15:45:26,0.090s,PASSED
sendKeys,Chrome 67.0.3396.99,,2018-07-11 15:45:26,2018-07-11 15:45:26,0.130s,PASSED
click,Chrome 67.0.3396.99,,2018-07-11 15:45:26,2018-07-11 15:45:26,0.110s,PASSED
sendKeys,Chrome 67.0.3396.99,,2018-07-11 15:45:26,2018-07-11 15:45:26,0.052s,PASSED
click,Chrome 67.0.3396.99,,2018-07-11 15:45:26,2018-07-11 15:45:26,0.082s,PASSED
sendKeys,Chrome 67.0.3396.99,,2018-07-11 15:45:26,2018-07-11 15:45:26,0.081s,PASSED
click,Chrome 67.0.3396.99,,2018-07-11 15:45:26,2018-07-11 15:45:26,0.068s,PASSED
sendKeys,Chrome 67.0.3396.99,,2018-07-11 15:45:26,2018-07-11 15:45:27,0.068s,PASSED
click,Chrome 67.0.3396.99,,2018-07-11 15:45:27,2018-07-11 15:45:27,0.101s,PASSED
sendKeys,Chrome 67.0.3396.99,,2018-07-11 15:45:27,2018-07-11 15:45:27,0.048s,PASSED
